{
    "componentChunkName": "component---packages-blog-gatsby-blog-core-src-templates-collection-category-js",
    "path": "/category/software-releases/page/3/",
    "result": {"data":{"collectionInfo":{"id":"9180d6e1-7981-5858-bc33-6810c0b05afa","name":"Software Releases","slug":"/category/software-releases/","description":"EPI2ME Labs software release notes."},"posts":{"nodes":[{"id":"1c55bef3-25cd-5c5b-aebd-238a390ace53","title":"EPI2ME Labs 21.02 Release","slug":"/epi2me-labs-21.02-release/","link":null,"excerpt":"We are delighted to release this month's update to EPI2ME Labs. The 2021-02.01\nrelease addresses…","timeToRead":2,"featured":null,"thumbnailText":null,"date":"February 10, 2021","category":{"id":"9180d6e1-7981-5858-bc33-6810c0b05afa","name":"Software Releases","slug":"/category/software-releases/","color":"#17BB75","icon":"/static/a7c604050eccf560e4c0749d79c6866b/softwarereleases.svg"},"author":{"id":"f7e4c21e-3473-5e0b-9d4d-8593fd330e4c","name":"Stephen Rudd","slug":"/author/stephen-rudd/","title":"Bioinformatics product manager","description":"I engage with Oxford Nanopore Technologies' customers to understand their needs and turn these into EPI2ME Labs products.","skills":["Bioinformatics","Product Management"],"social":null,"thumbnail":{"__typename":"ImageSharp","ImageSharp_small":{"layout":"fixed","placeholder":{"fallback":"data:image/svg+xml,%3csvg%20xmlns='http://www.w3.org/2000/svg'%20width='48'%20height='48'%20viewBox='0%200%2048%2048'%20preserveAspectRatio='none'%3e%3cpath%20d='M33%2026v2l-2%201-1%203h1c3-4%206%204%203%208-1%201-1%201-1-1s-4-7-4-5-2%203-4%201c-1-2-3%201-3%205%201%203%201%204-1%203v2c3%203%204%203%204-1v-1h2v1l2%203c2%201%202%201%202-1-1-4%200-7%201-4%202%205%204%201%204-7%200-4%201-4%203-3h4l-4-2-3-4c-1-3-3-3-3%200'%20fill='%23d3d3d3'%20fill-rule='evenodd'/%3e%3c/svg%3e"},"images":{"fallback":{"src":"/static/22bac10296ba647ce8895d4edf886f0f/a7a66/stephen-rudd.png","srcSet":"/static/22bac10296ba647ce8895d4edf886f0f/a7a66/stephen-rudd.png 48w,\n/static/22bac10296ba647ce8895d4edf886f0f/416a0/stephen-rudd.png 96w","sizes":"48px"},"sources":[{"srcSet":"/static/22bac10296ba647ce8895d4edf886f0f/a3542/stephen-rudd.webp 48w,\n/static/22bac10296ba647ce8895d4edf886f0f/0f66d/stephen-rudd.webp 96w","type":"image/webp","sizes":"48px"}]},"width":48,"height":48},"ImageSharp_regular":{"layout":"fixed","placeholder":{"fallback":"data:image/svg+xml,%3csvg%20xmlns='http://www.w3.org/2000/svg'%20width='48'%20height='48'%20viewBox='0%200%2048%2048'%20preserveAspectRatio='none'%3e%3cpath%20d='M33%2026v2l-2%201-1%203h1c3-4%206%204%203%208-1%201-1%201-1-1s-4-7-4-5-2%203-4%201c-1-2-3%201-3%205%201%203%201%204-1%203v2c3%203%204%203%204-1v-1h2v1l2%203c2%201%202%201%202-1-1-4%200-7%201-4%202%205%204%201%204-7%200-4%201-4%203-3h4l-4-2-3-4c-1-3-3-3-3%200'%20fill='%23d3d3d3'%20fill-rule='evenodd'/%3e%3c/svg%3e"},"images":{"fallback":{"src":"/static/22bac10296ba647ce8895d4edf886f0f/46e60/stephen-rudd.png","srcSet":"/static/22bac10296ba647ce8895d4edf886f0f/46e60/stephen-rudd.png 150w,\n/static/22bac10296ba647ce8895d4edf886f0f/d612b/stephen-rudd.png 300w","sizes":"150px"},"sources":[{"srcSet":"/static/22bac10296ba647ce8895d4edf886f0f/ae23d/stephen-rudd.webp 150w,\n/static/22bac10296ba647ce8895d4edf886f0f/bd37b/stephen-rudd.webp 300w","type":"image/webp","sizes":"150px"}]},"width":150,"height":150}}},"thumbnail":null},{"id":"e5065ed1-08a4-5782-828a-35bc420bac0a","title":"EPI2ME Labs 20.11 Release","slug":"/epi2me-labs-20.11-release/","link":null,"excerpt":"We are pleased to introduce a new release of our EPI2ME Labs. We are delighted to introduce new…","timeToRead":2,"featured":null,"thumbnailText":null,"date":"December 03, 2020","category":{"id":"9180d6e1-7981-5858-bc33-6810c0b05afa","name":"Software Releases","slug":"/category/software-releases/","color":"#17BB75","icon":"/static/a7c604050eccf560e4c0749d79c6866b/softwarereleases.svg"},"author":{"id":"f7e4c21e-3473-5e0b-9d4d-8593fd330e4c","name":"Stephen Rudd","slug":"/author/stephen-rudd/","title":"Bioinformatics product manager","description":"I engage with Oxford Nanopore Technologies' customers to understand their needs and turn these into EPI2ME Labs products.","skills":["Bioinformatics","Product Management"],"social":null,"thumbnail":{"__typename":"ImageSharp","ImageSharp_small":{"layout":"fixed","placeholder":{"fallback":"data:image/svg+xml,%3csvg%20xmlns='http://www.w3.org/2000/svg'%20width='48'%20height='48'%20viewBox='0%200%2048%2048'%20preserveAspectRatio='none'%3e%3cpath%20d='M33%2026v2l-2%201-1%203h1c3-4%206%204%203%208-1%201-1%201-1-1s-4-7-4-5-2%203-4%201c-1-2-3%201-3%205%201%203%201%204-1%203v2c3%203%204%203%204-1v-1h2v1l2%203c2%201%202%201%202-1-1-4%200-7%201-4%202%205%204%201%204-7%200-4%201-4%203-3h4l-4-2-3-4c-1-3-3-3-3%200'%20fill='%23d3d3d3'%20fill-rule='evenodd'/%3e%3c/svg%3e"},"images":{"fallback":{"src":"/static/22bac10296ba647ce8895d4edf886f0f/a7a66/stephen-rudd.png","srcSet":"/static/22bac10296ba647ce8895d4edf886f0f/a7a66/stephen-rudd.png 48w,\n/static/22bac10296ba647ce8895d4edf886f0f/416a0/stephen-rudd.png 96w","sizes":"48px"},"sources":[{"srcSet":"/static/22bac10296ba647ce8895d4edf886f0f/a3542/stephen-rudd.webp 48w,\n/static/22bac10296ba647ce8895d4edf886f0f/0f66d/stephen-rudd.webp 96w","type":"image/webp","sizes":"48px"}]},"width":48,"height":48},"ImageSharp_regular":{"layout":"fixed","placeholder":{"fallback":"data:image/svg+xml,%3csvg%20xmlns='http://www.w3.org/2000/svg'%20width='48'%20height='48'%20viewBox='0%200%2048%2048'%20preserveAspectRatio='none'%3e%3cpath%20d='M33%2026v2l-2%201-1%203h1c3-4%206%204%203%208-1%201-1%201-1-1s-4-7-4-5-2%203-4%201c-1-2-3%201-3%205%201%203%201%204-1%203v2c3%203%204%203%204-1v-1h2v1l2%203c2%201%202%201%202-1-1-4%200-7%201-4%202%205%204%201%204-7%200-4%201-4%203-3h4l-4-2-3-4c-1-3-3-3-3%200'%20fill='%23d3d3d3'%20fill-rule='evenodd'/%3e%3c/svg%3e"},"images":{"fallback":{"src":"/static/22bac10296ba647ce8895d4edf886f0f/46e60/stephen-rudd.png","srcSet":"/static/22bac10296ba647ce8895d4edf886f0f/46e60/stephen-rudd.png 150w,\n/static/22bac10296ba647ce8895d4edf886f0f/d612b/stephen-rudd.png 300w","sizes":"150px"},"sources":[{"srcSet":"/static/22bac10296ba647ce8895d4edf886f0f/ae23d/stephen-rudd.webp 150w,\n/static/22bac10296ba647ce8895d4edf886f0f/bd37b/stephen-rudd.webp 300w","type":"image/webp","sizes":"150px"}]},"width":150,"height":150}}},"thumbnail":null},{"id":"e3ba03ce-6c8c-5000-87d4-f2ae7a66d081","title":"EPI2ME Labs 20.10 Release","slug":"/epi2me-labs-20.10-release/","link":null,"excerpt":"We are pleased to introduce a new release of our EPI2ME Labs. With this update we are now supporting…","timeToRead":1,"featured":null,"thumbnailText":null,"date":"October 26, 2020","category":{"id":"9180d6e1-7981-5858-bc33-6810c0b05afa","name":"Software Releases","slug":"/category/software-releases/","color":"#17BB75","icon":"/static/a7c604050eccf560e4c0749d79c6866b/softwarereleases.svg"},"author":{"id":"f7e4c21e-3473-5e0b-9d4d-8593fd330e4c","name":"Stephen Rudd","slug":"/author/stephen-rudd/","title":"Bioinformatics product manager","description":"I engage with Oxford Nanopore Technologies' customers to understand their needs and turn these into EPI2ME Labs products.","skills":["Bioinformatics","Product Management"],"social":null,"thumbnail":{"__typename":"ImageSharp","ImageSharp_small":{"layout":"fixed","placeholder":{"fallback":"data:image/svg+xml,%3csvg%20xmlns='http://www.w3.org/2000/svg'%20width='48'%20height='48'%20viewBox='0%200%2048%2048'%20preserveAspectRatio='none'%3e%3cpath%20d='M33%2026v2l-2%201-1%203h1c3-4%206%204%203%208-1%201-1%201-1-1s-4-7-4-5-2%203-4%201c-1-2-3%201-3%205%201%203%201%204-1%203v2c3%203%204%203%204-1v-1h2v1l2%203c2%201%202%201%202-1-1-4%200-7%201-4%202%205%204%201%204-7%200-4%201-4%203-3h4l-4-2-3-4c-1-3-3-3-3%200'%20fill='%23d3d3d3'%20fill-rule='evenodd'/%3e%3c/svg%3e"},"images":{"fallback":{"src":"/static/22bac10296ba647ce8895d4edf886f0f/a7a66/stephen-rudd.png","srcSet":"/static/22bac10296ba647ce8895d4edf886f0f/a7a66/stephen-rudd.png 48w,\n/static/22bac10296ba647ce8895d4edf886f0f/416a0/stephen-rudd.png 96w","sizes":"48px"},"sources":[{"srcSet":"/static/22bac10296ba647ce8895d4edf886f0f/a3542/stephen-rudd.webp 48w,\n/static/22bac10296ba647ce8895d4edf886f0f/0f66d/stephen-rudd.webp 96w","type":"image/webp","sizes":"48px"}]},"width":48,"height":48},"ImageSharp_regular":{"layout":"fixed","placeholder":{"fallback":"data:image/svg+xml,%3csvg%20xmlns='http://www.w3.org/2000/svg'%20width='48'%20height='48'%20viewBox='0%200%2048%2048'%20preserveAspectRatio='none'%3e%3cpath%20d='M33%2026v2l-2%201-1%203h1c3-4%206%204%203%208-1%201-1%201-1-1s-4-7-4-5-2%203-4%201c-1-2-3%201-3%205%201%203%201%204-1%203v2c3%203%204%203%204-1v-1h2v1l2%203c2%201%202%201%202-1-1-4%200-7%201-4%202%205%204%201%204-7%200-4%201-4%203-3h4l-4-2-3-4c-1-3-3-3-3%200'%20fill='%23d3d3d3'%20fill-rule='evenodd'/%3e%3c/svg%3e"},"images":{"fallback":{"src":"/static/22bac10296ba647ce8895d4edf886f0f/46e60/stephen-rudd.png","srcSet":"/static/22bac10296ba647ce8895d4edf886f0f/46e60/stephen-rudd.png 150w,\n/static/22bac10296ba647ce8895d4edf886f0f/d612b/stephen-rudd.png 300w","sizes":"150px"},"sources":[{"srcSet":"/static/22bac10296ba647ce8895d4edf886f0f/ae23d/stephen-rudd.webp 150w,\n/static/22bac10296ba647ce8895d4edf886f0f/bd37b/stephen-rudd.webp 300w","type":"image/webp","sizes":"150px"}]},"width":150,"height":150}}},"thumbnail":null}],"pageInfo":{"pageCount":3,"hasPreviousPage":true,"hasNextPage":false,"currentPage":3},"totalCount":15}},"pageContext":{"slug":"/category/software-releases/","limit":6,"skip":12,"collectionType":"category","paginatePostsPage":true,"basePath":"/","services":{"algolia":true,"mailchimp":false,"disqus":false,"graphComment":false,"facebookComment":false},"siteUrl":"https://labs.epi2me.io","mobileMenu":{"title":"Topics","items":[{"name":"Announcements","slug":"/category/announcements/"},{"name":"Articles","slug":"/category/articles/"},{"name":"Data Releases","slug":"/category/data-releases/"},{"name":"How Tos","slug":"/category/how-tos/"},{"name":"Software Releases","slug":"/category/software-releases/"}]},"darkMode":true,"includeExcerpt":true,"includeTimeToRead":true,"includeTableOfContents":true,"imageQuality":75}},
    "staticQueryHashes": ["1992822086","2409295108","2893703372","3667468360"]}