{
    "componentChunkName": "component---packages-blog-gatsby-blog-core-src-templates-collection-tag-js",
    "path": "/tag/human-cell-line/page/2/",
    "result": {"data":{"collectionInfo":{"id":"6b4f10c2-f4d6-5836-bd13-3a5b68750111","name":"#human cell-line","slug":"/tag/human-cell-line/"},"posts":{"nodes":[{"id":"63304e08-7dba-5096-aee4-99972d941b2f","title":"Small variant calling with GM24385","slug":"/gm24385_snp/","link":null,"excerpt":"In this blog post we will explore small variant calling using the  previously\nreleased  HG002 (GM…","timeToRead":3,"featured":null,"thumbnailText":null,"date":"October 15, 2020","category":{"id":"3d7ff61e-6053-5b03-ad1a-799991add6a0","name":"Data Releases","slug":"/category/data-releases/","color":"#5fB8B1","icon":"/static/80e98fdc1b4550a2b9670e9dfc2e4f68/datareleases.svg"},"author":null,"thumbnail":null},{"id":"ccac30f6-0f85-5198-bd9b-16a86b1249e4","title":"Bonito basecalling with R9.4.1","slug":"/bonito/","link":null,"excerpt":"Updated 2020-10-30: This page was edited to reflect the formal release of Bonito v0.3.0 We are…","timeToRead":1,"featured":null,"thumbnailText":null,"date":"October 15, 2020","category":{"id":"3d7ff61e-6053-5b03-ad1a-799991add6a0","name":"Data Releases","slug":"/category/data-releases/","color":"#5fB8B1","icon":"/static/80e98fdc1b4550a2b9670e9dfc2e4f68/datareleases.svg"},"author":null,"thumbnail":null},{"id":"20147224-0d3b-54a9-8e2f-7a62656c999c","title":"Katuali analysis pipeline for preparing human datasets","slug":"/katuali_human_pipeline/","link":null,"excerpt":"Our recent  GM24385 data release  contains data from multiple\nflowcells and analytes for both the R…","timeToRead":4,"featured":null,"thumbnailText":null,"date":"September 22, 2020","category":{"id":"3d7ff61e-6053-5b03-ad1a-799991add6a0","name":"Data Releases","slug":"/category/data-releases/","color":"#5fB8B1","icon":"/static/80e98fdc1b4550a2b9670e9dfc2e4f68/datareleases.svg"},"author":null,"thumbnail":null},{"id":"4642a9ec-6df5-515c-91a0-f94053de3a2e","title":"GM24385 Dataset Release","slug":"/gm24385_2020.09/","link":null,"excerpt":"The R9.4.1 data referenced in this page have been superceded by the  June 2021  Guppy…","timeToRead":1,"featured":null,"thumbnailText":null,"date":"September 22, 2020","category":{"id":"3d7ff61e-6053-5b03-ad1a-799991add6a0","name":"Data Releases","slug":"/category/data-releases/","color":"#5fB8B1","icon":"/static/80e98fdc1b4550a2b9670e9dfc2e4f68/datareleases.svg"},"author":null,"thumbnail":null}],"pageInfo":{"pageCount":2,"hasPreviousPage":true,"hasNextPage":false,"currentPage":2},"totalCount":10}},"pageContext":{"slug":"/tag/human-cell-line/","limit":6,"skip":6,"collectionType":"tags","paginatePostsPage":true,"basePath":"/","services":{"algolia":true,"mailchimp":false,"disqus":false,"graphComment":false,"facebookComment":false},"siteUrl":"https://labs.epi2me.io","mobileMenu":{"title":"Topics","items":[{"name":"Announcements","slug":"/category/announcements/"},{"name":"Articles","slug":"/category/articles/"},{"name":"Data Releases","slug":"/category/data-releases/"},{"name":"How Tos","slug":"/category/how-tos/"},{"name":"Software Releases","slug":"/category/software-releases/"}]},"darkMode":true,"includeExcerpt":true,"includeTimeToRead":true,"includeTableOfContents":true,"imageQuality":75}},
    "staticQueryHashes": ["1992822086","2409295108","2893703372","3667468360"]}