{
    "componentChunkName": "component---packages-blog-gatsby-blog-core-src-templates-collection-author-js",
    "path": "/author/chris-wright/page/3/",
    "result": {"data":{"collectionInfo":{"id":"0b3a136b-fea1-5331-9088-737059663859","name":"Chris Wright","slug":"/author/chris-wright/","title":"Director Customer Workflows","description":"I co-ordinate the activities of the Customer Workflows Group at Oxford Nanopore Technologies. Previously I worked in the Research division at ONT leading the Scientific Data Analysis Group.","skills":["Scientific software design","Computational biology","Consensus and variant calling"],"social":[{"name":"Twitter","url":"https://twitter.com/chrisnrg"}],"thumbnail":{"__typename":"ImageSharp","ImageSharp_small":{"layout":"fixed","placeholder":{"fallback":"data:image/svg+xml,%3csvg%20xmlns='http://www.w3.org/2000/svg'%20width='48'%20height='48'%20viewBox='0%200%2048%2048'%20preserveAspectRatio='none'%3e%3cpath%20d='M22%203c-2%201-3%204-4%207l-2%205c-2%202-2%202-2-1l-2-3c-1%200-1%202%202%208%200%202%202%203%204%204%202%200%203%202%203%203h1c1-1%201-2-2-4l-4-5h1l2%201v-2c-2-1-2-1%200-1l2-2c0-6%204-9%2011-9%204%200%204%200%205%204v16c-1%201-1%201%200%200%202-3%203-11%201-19l-1-5h-6c-5%200-7%200-9%203m4%2023l3%202%203%201-2%203-2%203-4-4-5-4v21h18l-1-5c0-6%201-5%203%201l1%204v-5l-1-9c0-3-1-4-2-5-2-1-2-1-2%201%202%203%202%205%201%207-1%201-1-1-1-9%200-1-1-2-3-1l-4-1h-2'%20fill='%23d3d3d3'%20fill-rule='evenodd'/%3e%3c/svg%3e"},"images":{"fallback":{"src":"/static/011b3215b6b7e782f02d67aebfa4c319/a7a66/chris-wright.png","srcSet":"/static/011b3215b6b7e782f02d67aebfa4c319/a7a66/chris-wright.png 48w,\n/static/011b3215b6b7e782f02d67aebfa4c319/416a0/chris-wright.png 96w","sizes":"48px"},"sources":[{"srcSet":"/static/011b3215b6b7e782f02d67aebfa4c319/a3542/chris-wright.webp 48w,\n/static/011b3215b6b7e782f02d67aebfa4c319/0f66d/chris-wright.webp 96w","type":"image/webp","sizes":"48px"}]},"width":48,"height":48},"ImageSharp_regular":{"layout":"fixed","placeholder":{"fallback":"data:image/svg+xml,%3csvg%20xmlns='http://www.w3.org/2000/svg'%20width='48'%20height='48'%20viewBox='0%200%2048%2048'%20preserveAspectRatio='none'%3e%3cpath%20d='M22%203c-2%201-3%204-4%207l-2%205c-2%202-2%202-2-1l-2-3c-1%200-1%202%202%208%200%202%202%203%204%204%202%200%203%202%203%203h1c1-1%201-2-2-4l-4-5h1l2%201v-2c-2-1-2-1%200-1l2-2c0-6%204-9%2011-9%204%200%204%200%205%204v16c-1%201-1%201%200%200%202-3%203-11%201-19l-1-5h-6c-5%200-7%200-9%203m4%2023l3%202%203%201-2%203-2%203-4-4-5-4v21h18l-1-5c0-6%201-5%203%201l1%204v-5l-1-9c0-3-1-4-2-5-2-1-2-1-2%201%202%203%202%205%201%207-1%201-1-1-1-9%200-1-1-2-3-1l-4-1h-2'%20fill='%23d3d3d3'%20fill-rule='evenodd'/%3e%3c/svg%3e"},"images":{"fallback":{"src":"/static/011b3215b6b7e782f02d67aebfa4c319/46e60/chris-wright.png","srcSet":"/static/011b3215b6b7e782f02d67aebfa4c319/46e60/chris-wright.png 150w,\n/static/011b3215b6b7e782f02d67aebfa4c319/d612b/chris-wright.png 300w","sizes":"150px"},"sources":[{"srcSet":"/static/011b3215b6b7e782f02d67aebfa4c319/ae23d/chris-wright.webp 150w,\n/static/011b3215b6b7e782f02d67aebfa4c319/bd37b/chris-wright.webp 300w","type":"image/webp","sizes":"150px"}]},"width":150,"height":150}}},"posts":{"nodes":[{"id":"b968cc51-8525-5319-a878-5de5136b32a5","title":"EPI2ME Labs Blog Revamp","slug":"/epi2me-labs-blog-revamp/","link":null,"excerpt":"Previous users of this webpage will have noticed things have changed a little.\nGone is the purely…","timeToRead":1,"featured":null,"thumbnailText":null,"date":"May 17, 2021","category":{"id":"4ee73fa9-b004-517f-ab14-96a76985ec24","name":"Announcements","slug":"/category/announcements/","color":"#5fB8B1","icon":"/static/146b1cb44f3e1f046a63c3a8a7dc7f36/announcements.svg"},"author":{"id":"0b3a136b-fea1-5331-9088-737059663859","name":"Chris Wright","slug":"/author/chris-wright/","title":"Director Customer Workflows","description":"I co-ordinate the activities of the Customer Workflows Group at Oxford Nanopore Technologies. Previously I worked in the Research division at ONT leading the Scientific Data Analysis Group.","skills":["Scientific software design","Computational biology","Consensus and variant calling"],"social":[{"name":"Twitter","url":"https://twitter.com/chrisnrg"}],"thumbnail":{"__typename":"ImageSharp","ImageSharp_small":{"layout":"fixed","placeholder":{"fallback":"data:image/svg+xml,%3csvg%20xmlns='http://www.w3.org/2000/svg'%20width='48'%20height='48'%20viewBox='0%200%2048%2048'%20preserveAspectRatio='none'%3e%3cpath%20d='M22%203c-2%201-3%204-4%207l-2%205c-2%202-2%202-2-1l-2-3c-1%200-1%202%202%208%200%202%202%203%204%204%202%200%203%202%203%203h1c1-1%201-2-2-4l-4-5h1l2%201v-2c-2-1-2-1%200-1l2-2c0-6%204-9%2011-9%204%200%204%200%205%204v16c-1%201-1%201%200%200%202-3%203-11%201-19l-1-5h-6c-5%200-7%200-9%203m4%2023l3%202%203%201-2%203-2%203-4-4-5-4v21h18l-1-5c0-6%201-5%203%201l1%204v-5l-1-9c0-3-1-4-2-5-2-1-2-1-2%201%202%203%202%205%201%207-1%201-1-1-1-9%200-1-1-2-3-1l-4-1h-2'%20fill='%23d3d3d3'%20fill-rule='evenodd'/%3e%3c/svg%3e"},"images":{"fallback":{"src":"/static/011b3215b6b7e782f02d67aebfa4c319/a7a66/chris-wright.png","srcSet":"/static/011b3215b6b7e782f02d67aebfa4c319/a7a66/chris-wright.png 48w,\n/static/011b3215b6b7e782f02d67aebfa4c319/416a0/chris-wright.png 96w","sizes":"48px"},"sources":[{"srcSet":"/static/011b3215b6b7e782f02d67aebfa4c319/a3542/chris-wright.webp 48w,\n/static/011b3215b6b7e782f02d67aebfa4c319/0f66d/chris-wright.webp 96w","type":"image/webp","sizes":"48px"}]},"width":48,"height":48},"ImageSharp_regular":{"layout":"fixed","placeholder":{"fallback":"data:image/svg+xml,%3csvg%20xmlns='http://www.w3.org/2000/svg'%20width='48'%20height='48'%20viewBox='0%200%2048%2048'%20preserveAspectRatio='none'%3e%3cpath%20d='M22%203c-2%201-3%204-4%207l-2%205c-2%202-2%202-2-1l-2-3c-1%200-1%202%202%208%200%202%202%203%204%204%202%200%203%202%203%203h1c1-1%201-2-2-4l-4-5h1l2%201v-2c-2-1-2-1%200-1l2-2c0-6%204-9%2011-9%204%200%204%200%205%204v16c-1%201-1%201%200%200%202-3%203-11%201-19l-1-5h-6c-5%200-7%200-9%203m4%2023l3%202%203%201-2%203-2%203-4-4-5-4v21h18l-1-5c0-6%201-5%203%201l1%204v-5l-1-9c0-3-1-4-2-5-2-1-2-1-2%201%202%203%202%205%201%207-1%201-1-1-1-9%200-1-1-2-3-1l-4-1h-2'%20fill='%23d3d3d3'%20fill-rule='evenodd'/%3e%3c/svg%3e"},"images":{"fallback":{"src":"/static/011b3215b6b7e782f02d67aebfa4c319/46e60/chris-wright.png","srcSet":"/static/011b3215b6b7e782f02d67aebfa4c319/46e60/chris-wright.png 150w,\n/static/011b3215b6b7e782f02d67aebfa4c319/d612b/chris-wright.png 300w","sizes":"150px"},"sources":[{"srcSet":"/static/011b3215b6b7e782f02d67aebfa4c319/ae23d/chris-wright.webp 150w,\n/static/011b3215b6b7e782f02d67aebfa4c319/bd37b/chris-wright.webp 300w","type":"image/webp","sizes":"150px"}]},"width":150,"height":150}}},"thumbnail":null},{"id":"a887bb54-1085-51d4-b8d6-3ed89b8fdde9","title":"EPI2ME Labs Launcher Command-line interface","slug":"/epi2me-labs-launcher-command-line-interface/","link":null,"excerpt":"Feedback from EPI2ME Labs users revealed the desired for people to be able to control the\nrunning of…","timeToRead":1,"featured":null,"thumbnailText":null,"date":"March 17, 2021","category":{"id":"89790a88-92c4-5d3e-8c52-bd86ad326b97","name":"How Tos","slug":"/category/how-tos/","color":"#B8E986","icon":"/static/7259c9d3481cdab1f093943d7d0bc600/how-tos.svg"},"author":{"id":"0b3a136b-fea1-5331-9088-737059663859","name":"Chris Wright","slug":"/author/chris-wright/","title":"Director Customer Workflows","description":"I co-ordinate the activities of the Customer Workflows Group at Oxford Nanopore Technologies. Previously I worked in the Research division at ONT leading the Scientific Data Analysis Group.","skills":["Scientific software design","Computational biology","Consensus and variant calling"],"social":[{"name":"Twitter","url":"https://twitter.com/chrisnrg"}],"thumbnail":{"__typename":"ImageSharp","ImageSharp_small":{"layout":"fixed","placeholder":{"fallback":"data:image/svg+xml,%3csvg%20xmlns='http://www.w3.org/2000/svg'%20width='48'%20height='48'%20viewBox='0%200%2048%2048'%20preserveAspectRatio='none'%3e%3cpath%20d='M22%203c-2%201-3%204-4%207l-2%205c-2%202-2%202-2-1l-2-3c-1%200-1%202%202%208%200%202%202%203%204%204%202%200%203%202%203%203h1c1-1%201-2-2-4l-4-5h1l2%201v-2c-2-1-2-1%200-1l2-2c0-6%204-9%2011-9%204%200%204%200%205%204v16c-1%201-1%201%200%200%202-3%203-11%201-19l-1-5h-6c-5%200-7%200-9%203m4%2023l3%202%203%201-2%203-2%203-4-4-5-4v21h18l-1-5c0-6%201-5%203%201l1%204v-5l-1-9c0-3-1-4-2-5-2-1-2-1-2%201%202%203%202%205%201%207-1%201-1-1-1-9%200-1-1-2-3-1l-4-1h-2'%20fill='%23d3d3d3'%20fill-rule='evenodd'/%3e%3c/svg%3e"},"images":{"fallback":{"src":"/static/011b3215b6b7e782f02d67aebfa4c319/a7a66/chris-wright.png","srcSet":"/static/011b3215b6b7e782f02d67aebfa4c319/a7a66/chris-wright.png 48w,\n/static/011b3215b6b7e782f02d67aebfa4c319/416a0/chris-wright.png 96w","sizes":"48px"},"sources":[{"srcSet":"/static/011b3215b6b7e782f02d67aebfa4c319/a3542/chris-wright.webp 48w,\n/static/011b3215b6b7e782f02d67aebfa4c319/0f66d/chris-wright.webp 96w","type":"image/webp","sizes":"48px"}]},"width":48,"height":48},"ImageSharp_regular":{"layout":"fixed","placeholder":{"fallback":"data:image/svg+xml,%3csvg%20xmlns='http://www.w3.org/2000/svg'%20width='48'%20height='48'%20viewBox='0%200%2048%2048'%20preserveAspectRatio='none'%3e%3cpath%20d='M22%203c-2%201-3%204-4%207l-2%205c-2%202-2%202-2-1l-2-3c-1%200-1%202%202%208%200%202%202%203%204%204%202%200%203%202%203%203h1c1-1%201-2-2-4l-4-5h1l2%201v-2c-2-1-2-1%200-1l2-2c0-6%204-9%2011-9%204%200%204%200%205%204v16c-1%201-1%201%200%200%202-3%203-11%201-19l-1-5h-6c-5%200-7%200-9%203m4%2023l3%202%203%201-2%203-2%203-4-4-5-4v21h18l-1-5c0-6%201-5%203%201l1%204v-5l-1-9c0-3-1-4-2-5-2-1-2-1-2%201%202%203%202%205%201%207-1%201-1-1-1-9%200-1-1-2-3-1l-4-1h-2'%20fill='%23d3d3d3'%20fill-rule='evenodd'/%3e%3c/svg%3e"},"images":{"fallback":{"src":"/static/011b3215b6b7e782f02d67aebfa4c319/46e60/chris-wright.png","srcSet":"/static/011b3215b6b7e782f02d67aebfa4c319/46e60/chris-wright.png 150w,\n/static/011b3215b6b7e782f02d67aebfa4c319/d612b/chris-wright.png 300w","sizes":"150px"},"sources":[{"srcSet":"/static/011b3215b6b7e782f02d67aebfa4c319/ae23d/chris-wright.webp 150w,\n/static/011b3215b6b7e782f02d67aebfa4c319/bd37b/chris-wright.webp 300w","type":"image/webp","sizes":"150px"}]},"width":150,"height":150}}},"thumbnail":null},{"id":"8a0486b4-fceb-5091-ac8e-066929dd9ebc","title":"EPI2ME Labs Embraces Nextflow","slug":"/epi2me-labs-embraces-nextflow/","link":null,"excerpt":"We are excited to launch a new bioinformatics offering using the  Nextflow \nreactive workflow…","timeToRead":1,"featured":null,"thumbnailText":null,"date":"March 10, 2021","category":{"id":"4ee73fa9-b004-517f-ab14-96a76985ec24","name":"Announcements","slug":"/category/announcements/","color":"#5fB8B1","icon":"/static/146b1cb44f3e1f046a63c3a8a7dc7f36/announcements.svg"},"author":{"id":"0b3a136b-fea1-5331-9088-737059663859","name":"Chris Wright","slug":"/author/chris-wright/","title":"Director Customer Workflows","description":"I co-ordinate the activities of the Customer Workflows Group at Oxford Nanopore Technologies. Previously I worked in the Research division at ONT leading the Scientific Data Analysis Group.","skills":["Scientific software design","Computational biology","Consensus and variant calling"],"social":[{"name":"Twitter","url":"https://twitter.com/chrisnrg"}],"thumbnail":{"__typename":"ImageSharp","ImageSharp_small":{"layout":"fixed","placeholder":{"fallback":"data:image/svg+xml,%3csvg%20xmlns='http://www.w3.org/2000/svg'%20width='48'%20height='48'%20viewBox='0%200%2048%2048'%20preserveAspectRatio='none'%3e%3cpath%20d='M22%203c-2%201-3%204-4%207l-2%205c-2%202-2%202-2-1l-2-3c-1%200-1%202%202%208%200%202%202%203%204%204%202%200%203%202%203%203h1c1-1%201-2-2-4l-4-5h1l2%201v-2c-2-1-2-1%200-1l2-2c0-6%204-9%2011-9%204%200%204%200%205%204v16c-1%201-1%201%200%200%202-3%203-11%201-19l-1-5h-6c-5%200-7%200-9%203m4%2023l3%202%203%201-2%203-2%203-4-4-5-4v21h18l-1-5c0-6%201-5%203%201l1%204v-5l-1-9c0-3-1-4-2-5-2-1-2-1-2%201%202%203%202%205%201%207-1%201-1-1-1-9%200-1-1-2-3-1l-4-1h-2'%20fill='%23d3d3d3'%20fill-rule='evenodd'/%3e%3c/svg%3e"},"images":{"fallback":{"src":"/static/011b3215b6b7e782f02d67aebfa4c319/a7a66/chris-wright.png","srcSet":"/static/011b3215b6b7e782f02d67aebfa4c319/a7a66/chris-wright.png 48w,\n/static/011b3215b6b7e782f02d67aebfa4c319/416a0/chris-wright.png 96w","sizes":"48px"},"sources":[{"srcSet":"/static/011b3215b6b7e782f02d67aebfa4c319/a3542/chris-wright.webp 48w,\n/static/011b3215b6b7e782f02d67aebfa4c319/0f66d/chris-wright.webp 96w","type":"image/webp","sizes":"48px"}]},"width":48,"height":48},"ImageSharp_regular":{"layout":"fixed","placeholder":{"fallback":"data:image/svg+xml,%3csvg%20xmlns='http://www.w3.org/2000/svg'%20width='48'%20height='48'%20viewBox='0%200%2048%2048'%20preserveAspectRatio='none'%3e%3cpath%20d='M22%203c-2%201-3%204-4%207l-2%205c-2%202-2%202-2-1l-2-3c-1%200-1%202%202%208%200%202%202%203%204%204%202%200%203%202%203%203h1c1-1%201-2-2-4l-4-5h1l2%201v-2c-2-1-2-1%200-1l2-2c0-6%204-9%2011-9%204%200%204%200%205%204v16c-1%201-1%201%200%200%202-3%203-11%201-19l-1-5h-6c-5%200-7%200-9%203m4%2023l3%202%203%201-2%203-2%203-4-4-5-4v21h18l-1-5c0-6%201-5%203%201l1%204v-5l-1-9c0-3-1-4-2-5-2-1-2-1-2%201%202%203%202%205%201%207-1%201-1-1-1-9%200-1-1-2-3-1l-4-1h-2'%20fill='%23d3d3d3'%20fill-rule='evenodd'/%3e%3c/svg%3e"},"images":{"fallback":{"src":"/static/011b3215b6b7e782f02d67aebfa4c319/46e60/chris-wright.png","srcSet":"/static/011b3215b6b7e782f02d67aebfa4c319/46e60/chris-wright.png 150w,\n/static/011b3215b6b7e782f02d67aebfa4c319/d612b/chris-wright.png 300w","sizes":"150px"},"sources":[{"srcSet":"/static/011b3215b6b7e782f02d67aebfa4c319/ae23d/chris-wright.webp 150w,\n/static/011b3215b6b7e782f02d67aebfa4c319/bd37b/chris-wright.webp 300w","type":"image/webp","sizes":"150px"}]},"width":150,"height":150}}},"thumbnail":null},{"id":"20618b75-3084-57fb-996f-307298608618","title":"EPI2ME Labs Blog Launch","slug":"/epi2melabs-blog-launch/","link":null,"excerpt":"Welcome! On this site we hope to bring additional information regarding the EPI2MELabs notebook…","timeToRead":1,"featured":null,"thumbnailText":null,"date":"December 03, 2020","category":{"id":"4ee73fa9-b004-517f-ab14-96a76985ec24","name":"Announcements","slug":"/category/announcements/","color":"#5fB8B1","icon":"/static/146b1cb44f3e1f046a63c3a8a7dc7f36/announcements.svg"},"author":{"id":"0b3a136b-fea1-5331-9088-737059663859","name":"Chris Wright","slug":"/author/chris-wright/","title":"Director Customer Workflows","description":"I co-ordinate the activities of the Customer Workflows Group at Oxford Nanopore Technologies. Previously I worked in the Research division at ONT leading the Scientific Data Analysis Group.","skills":["Scientific software design","Computational biology","Consensus and variant calling"],"social":[{"name":"Twitter","url":"https://twitter.com/chrisnrg"}],"thumbnail":{"__typename":"ImageSharp","ImageSharp_small":{"layout":"fixed","placeholder":{"fallback":"data:image/svg+xml,%3csvg%20xmlns='http://www.w3.org/2000/svg'%20width='48'%20height='48'%20viewBox='0%200%2048%2048'%20preserveAspectRatio='none'%3e%3cpath%20d='M22%203c-2%201-3%204-4%207l-2%205c-2%202-2%202-2-1l-2-3c-1%200-1%202%202%208%200%202%202%203%204%204%202%200%203%202%203%203h1c1-1%201-2-2-4l-4-5h1l2%201v-2c-2-1-2-1%200-1l2-2c0-6%204-9%2011-9%204%200%204%200%205%204v16c-1%201-1%201%200%200%202-3%203-11%201-19l-1-5h-6c-5%200-7%200-9%203m4%2023l3%202%203%201-2%203-2%203-4-4-5-4v21h18l-1-5c0-6%201-5%203%201l1%204v-5l-1-9c0-3-1-4-2-5-2-1-2-1-2%201%202%203%202%205%201%207-1%201-1-1-1-9%200-1-1-2-3-1l-4-1h-2'%20fill='%23d3d3d3'%20fill-rule='evenodd'/%3e%3c/svg%3e"},"images":{"fallback":{"src":"/static/011b3215b6b7e782f02d67aebfa4c319/a7a66/chris-wright.png","srcSet":"/static/011b3215b6b7e782f02d67aebfa4c319/a7a66/chris-wright.png 48w,\n/static/011b3215b6b7e782f02d67aebfa4c319/416a0/chris-wright.png 96w","sizes":"48px"},"sources":[{"srcSet":"/static/011b3215b6b7e782f02d67aebfa4c319/a3542/chris-wright.webp 48w,\n/static/011b3215b6b7e782f02d67aebfa4c319/0f66d/chris-wright.webp 96w","type":"image/webp","sizes":"48px"}]},"width":48,"height":48},"ImageSharp_regular":{"layout":"fixed","placeholder":{"fallback":"data:image/svg+xml,%3csvg%20xmlns='http://www.w3.org/2000/svg'%20width='48'%20height='48'%20viewBox='0%200%2048%2048'%20preserveAspectRatio='none'%3e%3cpath%20d='M22%203c-2%201-3%204-4%207l-2%205c-2%202-2%202-2-1l-2-3c-1%200-1%202%202%208%200%202%202%203%204%204%202%200%203%202%203%203h1c1-1%201-2-2-4l-4-5h1l2%201v-2c-2-1-2-1%200-1l2-2c0-6%204-9%2011-9%204%200%204%200%205%204v16c-1%201-1%201%200%200%202-3%203-11%201-19l-1-5h-6c-5%200-7%200-9%203m4%2023l3%202%203%201-2%203-2%203-4-4-5-4v21h18l-1-5c0-6%201-5%203%201l1%204v-5l-1-9c0-3-1-4-2-5-2-1-2-1-2%201%202%203%202%205%201%207-1%201-1-1-1-9%200-1-1-2-3-1l-4-1h-2'%20fill='%23d3d3d3'%20fill-rule='evenodd'/%3e%3c/svg%3e"},"images":{"fallback":{"src":"/static/011b3215b6b7e782f02d67aebfa4c319/46e60/chris-wright.png","srcSet":"/static/011b3215b6b7e782f02d67aebfa4c319/46e60/chris-wright.png 150w,\n/static/011b3215b6b7e782f02d67aebfa4c319/d612b/chris-wright.png 300w","sizes":"150px"},"sources":[{"srcSet":"/static/011b3215b6b7e782f02d67aebfa4c319/ae23d/chris-wright.webp 150w,\n/static/011b3215b6b7e782f02d67aebfa4c319/bd37b/chris-wright.webp 300w","type":"image/webp","sizes":"150px"}]},"width":150,"height":150}}},"thumbnail":null},{"id":"4c6608d4-5ad9-5a5b-851a-57717b7f9aa6","title":"Structural variation calling with GM24385","slug":"/gm24385_2020.11_sv/","link":null,"excerpt":"In this blog post we will explore structural variant calling using the\n recently released  HG002 (GM…","timeToRead":1,"featured":null,"thumbnailText":null,"date":"December 01, 2020","category":{"id":"46ef9682-ca0a-571c-9afc-3055794fced8","name":"Data Releases","slug":"/category/data-releases/","color":"#5fB8B1","icon":"/static/c6ec5e88853fdf8d3271114c2629f774/datareleases.svg"},"author":{"id":"0b3a136b-fea1-5331-9088-737059663859","name":"Chris Wright","slug":"/author/chris-wright/","title":"Director Customer Workflows","description":"I co-ordinate the activities of the Customer Workflows Group at Oxford Nanopore Technologies. Previously I worked in the Research division at ONT leading the Scientific Data Analysis Group.","skills":["Scientific software design","Computational biology","Consensus and variant calling"],"social":[{"name":"Twitter","url":"https://twitter.com/chrisnrg"}],"thumbnail":{"__typename":"ImageSharp","ImageSharp_small":{"layout":"fixed","placeholder":{"fallback":"data:image/svg+xml,%3csvg%20xmlns='http://www.w3.org/2000/svg'%20width='48'%20height='48'%20viewBox='0%200%2048%2048'%20preserveAspectRatio='none'%3e%3cpath%20d='M22%203c-2%201-3%204-4%207l-2%205c-2%202-2%202-2-1l-2-3c-1%200-1%202%202%208%200%202%202%203%204%204%202%200%203%202%203%203h1c1-1%201-2-2-4l-4-5h1l2%201v-2c-2-1-2-1%200-1l2-2c0-6%204-9%2011-9%204%200%204%200%205%204v16c-1%201-1%201%200%200%202-3%203-11%201-19l-1-5h-6c-5%200-7%200-9%203m4%2023l3%202%203%201-2%203-2%203-4-4-5-4v21h18l-1-5c0-6%201-5%203%201l1%204v-5l-1-9c0-3-1-4-2-5-2-1-2-1-2%201%202%203%202%205%201%207-1%201-1-1-1-9%200-1-1-2-3-1l-4-1h-2'%20fill='%23d3d3d3'%20fill-rule='evenodd'/%3e%3c/svg%3e"},"images":{"fallback":{"src":"/static/011b3215b6b7e782f02d67aebfa4c319/a7a66/chris-wright.png","srcSet":"/static/011b3215b6b7e782f02d67aebfa4c319/a7a66/chris-wright.png 48w,\n/static/011b3215b6b7e782f02d67aebfa4c319/416a0/chris-wright.png 96w","sizes":"48px"},"sources":[{"srcSet":"/static/011b3215b6b7e782f02d67aebfa4c319/a3542/chris-wright.webp 48w,\n/static/011b3215b6b7e782f02d67aebfa4c319/0f66d/chris-wright.webp 96w","type":"image/webp","sizes":"48px"}]},"width":48,"height":48},"ImageSharp_regular":{"layout":"fixed","placeholder":{"fallback":"data:image/svg+xml,%3csvg%20xmlns='http://www.w3.org/2000/svg'%20width='48'%20height='48'%20viewBox='0%200%2048%2048'%20preserveAspectRatio='none'%3e%3cpath%20d='M22%203c-2%201-3%204-4%207l-2%205c-2%202-2%202-2-1l-2-3c-1%200-1%202%202%208%200%202%202%203%204%204%202%200%203%202%203%203h1c1-1%201-2-2-4l-4-5h1l2%201v-2c-2-1-2-1%200-1l2-2c0-6%204-9%2011-9%204%200%204%200%205%204v16c-1%201-1%201%200%200%202-3%203-11%201-19l-1-5h-6c-5%200-7%200-9%203m4%2023l3%202%203%201-2%203-2%203-4-4-5-4v21h18l-1-5c0-6%201-5%203%201l1%204v-5l-1-9c0-3-1-4-2-5-2-1-2-1-2%201%202%203%202%205%201%207-1%201-1-1-1-9%200-1-1-2-3-1l-4-1h-2'%20fill='%23d3d3d3'%20fill-rule='evenodd'/%3e%3c/svg%3e"},"images":{"fallback":{"src":"/static/011b3215b6b7e782f02d67aebfa4c319/46e60/chris-wright.png","srcSet":"/static/011b3215b6b7e782f02d67aebfa4c319/46e60/chris-wright.png 150w,\n/static/011b3215b6b7e782f02d67aebfa4c319/d612b/chris-wright.png 300w","sizes":"150px"},"sources":[{"srcSet":"/static/011b3215b6b7e782f02d67aebfa4c319/ae23d/chris-wright.webp 150w,\n/static/011b3215b6b7e782f02d67aebfa4c319/bd37b/chris-wright.webp 300w","type":"image/webp","sizes":"150px"}]},"width":150,"height":150}}},"thumbnail":null},{"id":"2bb53bd7-9650-5024-aef8-867fef8ca3a2","title":"November 2020 GM24385 Dataset Release","slug":"/gm24385_2020.11/","link":null,"excerpt":"The data referenced in this page have been superceded by the  June 2021  Guppy 5 rebasecalling We…","timeToRead":1,"featured":null,"thumbnailText":null,"date":"November 26, 2020","category":{"id":"46ef9682-ca0a-571c-9afc-3055794fced8","name":"Data Releases","slug":"/category/data-releases/","color":"#5fB8B1","icon":"/static/c6ec5e88853fdf8d3271114c2629f774/datareleases.svg"},"author":{"id":"0b3a136b-fea1-5331-9088-737059663859","name":"Chris Wright","slug":"/author/chris-wright/","title":"Director Customer Workflows","description":"I co-ordinate the activities of the Customer Workflows Group at Oxford Nanopore Technologies. Previously I worked in the Research division at ONT leading the Scientific Data Analysis Group.","skills":["Scientific software design","Computational biology","Consensus and variant calling"],"social":[{"name":"Twitter","url":"https://twitter.com/chrisnrg"}],"thumbnail":{"__typename":"ImageSharp","ImageSharp_small":{"layout":"fixed","placeholder":{"fallback":"data:image/svg+xml,%3csvg%20xmlns='http://www.w3.org/2000/svg'%20width='48'%20height='48'%20viewBox='0%200%2048%2048'%20preserveAspectRatio='none'%3e%3cpath%20d='M22%203c-2%201-3%204-4%207l-2%205c-2%202-2%202-2-1l-2-3c-1%200-1%202%202%208%200%202%202%203%204%204%202%200%203%202%203%203h1c1-1%201-2-2-4l-4-5h1l2%201v-2c-2-1-2-1%200-1l2-2c0-6%204-9%2011-9%204%200%204%200%205%204v16c-1%201-1%201%200%200%202-3%203-11%201-19l-1-5h-6c-5%200-7%200-9%203m4%2023l3%202%203%201-2%203-2%203-4-4-5-4v21h18l-1-5c0-6%201-5%203%201l1%204v-5l-1-9c0-3-1-4-2-5-2-1-2-1-2%201%202%203%202%205%201%207-1%201-1-1-1-9%200-1-1-2-3-1l-4-1h-2'%20fill='%23d3d3d3'%20fill-rule='evenodd'/%3e%3c/svg%3e"},"images":{"fallback":{"src":"/static/011b3215b6b7e782f02d67aebfa4c319/a7a66/chris-wright.png","srcSet":"/static/011b3215b6b7e782f02d67aebfa4c319/a7a66/chris-wright.png 48w,\n/static/011b3215b6b7e782f02d67aebfa4c319/416a0/chris-wright.png 96w","sizes":"48px"},"sources":[{"srcSet":"/static/011b3215b6b7e782f02d67aebfa4c319/a3542/chris-wright.webp 48w,\n/static/011b3215b6b7e782f02d67aebfa4c319/0f66d/chris-wright.webp 96w","type":"image/webp","sizes":"48px"}]},"width":48,"height":48},"ImageSharp_regular":{"layout":"fixed","placeholder":{"fallback":"data:image/svg+xml,%3csvg%20xmlns='http://www.w3.org/2000/svg'%20width='48'%20height='48'%20viewBox='0%200%2048%2048'%20preserveAspectRatio='none'%3e%3cpath%20d='M22%203c-2%201-3%204-4%207l-2%205c-2%202-2%202-2-1l-2-3c-1%200-1%202%202%208%200%202%202%203%204%204%202%200%203%202%203%203h1c1-1%201-2-2-4l-4-5h1l2%201v-2c-2-1-2-1%200-1l2-2c0-6%204-9%2011-9%204%200%204%200%205%204v16c-1%201-1%201%200%200%202-3%203-11%201-19l-1-5h-6c-5%200-7%200-9%203m4%2023l3%202%203%201-2%203-2%203-4-4-5-4v21h18l-1-5c0-6%201-5%203%201l1%204v-5l-1-9c0-3-1-4-2-5-2-1-2-1-2%201%202%203%202%205%201%207-1%201-1-1-1-9%200-1-1-2-3-1l-4-1h-2'%20fill='%23d3d3d3'%20fill-rule='evenodd'/%3e%3c/svg%3e"},"images":{"fallback":{"src":"/static/011b3215b6b7e782f02d67aebfa4c319/46e60/chris-wright.png","srcSet":"/static/011b3215b6b7e782f02d67aebfa4c319/46e60/chris-wright.png 150w,\n/static/011b3215b6b7e782f02d67aebfa4c319/d612b/chris-wright.png 300w","sizes":"150px"},"sources":[{"srcSet":"/static/011b3215b6b7e782f02d67aebfa4c319/ae23d/chris-wright.webp 150w,\n/static/011b3215b6b7e782f02d67aebfa4c319/bd37b/chris-wright.webp 300w","type":"image/webp","sizes":"150px"}]},"width":150,"height":150}}},"thumbnail":null}],"pageInfo":{"pageCount":4,"hasPreviousPage":true,"hasNextPage":true,"currentPage":3},"totalCount":22}},"pageContext":{"slug":"/author/chris-wright/","limit":6,"skip":12,"collectionType":"author","paginatePostsPage":true,"basePath":"/","services":{"algolia":true,"mailchimp":false,"disqus":false,"graphComment":false,"facebookComment":false},"siteUrl":"https://labs.epi2me.io","mobileMenu":{"title":"Topics","items":[{"name":"Announcements","slug":"/category/announcements/"},{"name":"Articles","slug":"/category/articles/"},{"name":"Data Releases","slug":"/category/data-releases/"},{"name":"How Tos","slug":"/category/how-tos/"},{"name":"Software Releases","slug":"/category/software-releases/"}]},"darkMode":true,"includeExcerpt":true,"includeTimeToRead":true,"includeTableOfContents":true,"imageQuality":75}},
    "staticQueryHashes": ["1992822086","2409295108","2893703372","3667468360"]}