{
    "componentChunkName": "component---packages-blog-gatsby-blog-core-src-templates-collection-tag-js",
    "path": "/tag/nextflow/page/2/",
    "result": {"data":{"collectionInfo":{"id":"655b0b96-d244-5ade-ab10-5c19a9e7501d","name":"#nextflow","slug":"/tag/nextflow/"},"posts":{"nodes":[{"id":"d846ab59-8d8f-5394-b6ab-b70c6120a118","title":"Nextflow and Jupyter Labs","slug":"/jupyterflow/","link":null,"excerpt":"We are pleased to introduce an update to our EPI2ME Labs product that now\nincludes the functionality…","timeToRead":2,"featured":null,"thumbnailText":null,"date":"February 09, 2022","category":{"id":"ae529267-a068-5b44-8d89-0e4b1135148d","name":"Articles","slug":"/category/articles/","color":"#A53F96","icon":"/static/a0eadc6b0bbda21a5e4290df3c07d3b4/articles.svg"},"author":{"id":"7c0504da-2830-5f14-bb2c-f4e711b317f7","name":"Stephen Rudd","slug":"/author/stephen-rudd/","title":"Bioinformatics product manager","description":"I engage with Oxford Nanopore Technologies' customers to understand their needs and turn these into EPI2ME Labs products.","skills":["Bioinformatics","Product Management"],"social":null,"thumbnail":{"__typename":"ImageSharp","ImageSharp_small":{"layout":"fixed","placeholder":{"fallback":"data:image/svg+xml,%3csvg%20xmlns='http://www.w3.org/2000/svg'%20width='48'%20height='48'%20viewBox='0%200%2048%2048'%20preserveAspectRatio='none'%3e%3cpath%20d='M33%2026v2l-2%201-1%203h1c3-4%206%204%203%208-1%201-1%201-1-1s-4-7-4-5-2%203-4%201c-1-2-3%201-3%205%201%203%201%204-1%203v2c3%203%204%203%204-1v-1h2v1l2%203c2%201%202%201%202-1-1-4%200-7%201-4%202%205%204%201%204-7%200-4%201-4%203-3h4l-4-2-3-4c-1-3-3-3-3%200'%20fill='%23d3d3d3'%20fill-rule='evenodd'/%3e%3c/svg%3e"},"images":{"fallback":{"src":"/static/22bac10296ba647ce8895d4edf886f0f/a7a66/stephen-rudd.png","srcSet":"/static/22bac10296ba647ce8895d4edf886f0f/a7a66/stephen-rudd.png 48w,\n/static/22bac10296ba647ce8895d4edf886f0f/416a0/stephen-rudd.png 96w","sizes":"48px"},"sources":[{"srcSet":"/static/22bac10296ba647ce8895d4edf886f0f/a3542/stephen-rudd.webp 48w,\n/static/22bac10296ba647ce8895d4edf886f0f/0f66d/stephen-rudd.webp 96w","type":"image/webp","sizes":"48px"}]},"width":48,"height":48},"ImageSharp_regular":{"layout":"fixed","placeholder":{"fallback":"data:image/svg+xml,%3csvg%20xmlns='http://www.w3.org/2000/svg'%20width='48'%20height='48'%20viewBox='0%200%2048%2048'%20preserveAspectRatio='none'%3e%3cpath%20d='M33%2026v2l-2%201-1%203h1c3-4%206%204%203%208-1%201-1%201-1-1s-4-7-4-5-2%203-4%201c-1-2-3%201-3%205%201%203%201%204-1%203v2c3%203%204%203%204-1v-1h2v1l2%203c2%201%202%201%202-1-1-4%200-7%201-4%202%205%204%201%204-7%200-4%201-4%203-3h4l-4-2-3-4c-1-3-3-3-3%200'%20fill='%23d3d3d3'%20fill-rule='evenodd'/%3e%3c/svg%3e"},"images":{"fallback":{"src":"/static/22bac10296ba647ce8895d4edf886f0f/46e60/stephen-rudd.png","srcSet":"/static/22bac10296ba647ce8895d4edf886f0f/46e60/stephen-rudd.png 150w,\n/static/22bac10296ba647ce8895d4edf886f0f/d612b/stephen-rudd.png 300w","sizes":"150px"},"sources":[{"srcSet":"/static/22bac10296ba647ce8895d4edf886f0f/ae23d/stephen-rudd.webp 150w,\n/static/22bac10296ba647ce8895d4edf886f0f/bd37b/stephen-rudd.webp 300w","type":"image/webp","sizes":"150px"}]},"width":150,"height":150}}},"thumbnail":null},{"id":"730ac7fd-8e8b-59b4-be01-eef74898cc90","title":"EPI2ME Labs 22.02.01 Release","slug":"/epi2me-labs-22.02.01-release/","link":null,"excerpt":"Dear Nanopore Community, We are pleased to introduce an update to our EPI2ME Labs product that now…","timeToRead":2,"featured":null,"thumbnailText":null,"date":"February 09, 2022","category":{"id":"813445e5-a76d-5747-bc55-c6bc78869edd","name":"Software Releases","slug":"/category/software-releases/","color":"#17BB75","icon":"/static/a7c604050eccf560e4c0749d79c6866b/softwarereleases.svg"},"author":{"id":"7c0504da-2830-5f14-bb2c-f4e711b317f7","name":"Stephen Rudd","slug":"/author/stephen-rudd/","title":"Bioinformatics product manager","description":"I engage with Oxford Nanopore Technologies' customers to understand their needs and turn these into EPI2ME Labs products.","skills":["Bioinformatics","Product Management"],"social":null,"thumbnail":{"__typename":"ImageSharp","ImageSharp_small":{"layout":"fixed","placeholder":{"fallback":"data:image/svg+xml,%3csvg%20xmlns='http://www.w3.org/2000/svg'%20width='48'%20height='48'%20viewBox='0%200%2048%2048'%20preserveAspectRatio='none'%3e%3cpath%20d='M33%2026v2l-2%201-1%203h1c3-4%206%204%203%208-1%201-1%201-1-1s-4-7-4-5-2%203-4%201c-1-2-3%201-3%205%201%203%201%204-1%203v2c3%203%204%203%204-1v-1h2v1l2%203c2%201%202%201%202-1-1-4%200-7%201-4%202%205%204%201%204-7%200-4%201-4%203-3h4l-4-2-3-4c-1-3-3-3-3%200'%20fill='%23d3d3d3'%20fill-rule='evenodd'/%3e%3c/svg%3e"},"images":{"fallback":{"src":"/static/22bac10296ba647ce8895d4edf886f0f/a7a66/stephen-rudd.png","srcSet":"/static/22bac10296ba647ce8895d4edf886f0f/a7a66/stephen-rudd.png 48w,\n/static/22bac10296ba647ce8895d4edf886f0f/416a0/stephen-rudd.png 96w","sizes":"48px"},"sources":[{"srcSet":"/static/22bac10296ba647ce8895d4edf886f0f/a3542/stephen-rudd.webp 48w,\n/static/22bac10296ba647ce8895d4edf886f0f/0f66d/stephen-rudd.webp 96w","type":"image/webp","sizes":"48px"}]},"width":48,"height":48},"ImageSharp_regular":{"layout":"fixed","placeholder":{"fallback":"data:image/svg+xml,%3csvg%20xmlns='http://www.w3.org/2000/svg'%20width='48'%20height='48'%20viewBox='0%200%2048%2048'%20preserveAspectRatio='none'%3e%3cpath%20d='M33%2026v2l-2%201-1%203h1c3-4%206%204%203%208-1%201-1%201-1-1s-4-7-4-5-2%203-4%201c-1-2-3%201-3%205%201%203%201%204-1%203v2c3%203%204%203%204-1v-1h2v1l2%203c2%201%202%201%202-1-1-4%200-7%201-4%202%205%204%201%204-7%200-4%201-4%203-3h4l-4-2-3-4c-1-3-3-3-3%200'%20fill='%23d3d3d3'%20fill-rule='evenodd'/%3e%3c/svg%3e"},"images":{"fallback":{"src":"/static/22bac10296ba647ce8895d4edf886f0f/46e60/stephen-rudd.png","srcSet":"/static/22bac10296ba647ce8895d4edf886f0f/46e60/stephen-rudd.png 150w,\n/static/22bac10296ba647ce8895d4edf886f0f/d612b/stephen-rudd.png 300w","sizes":"150px"},"sources":[{"srcSet":"/static/22bac10296ba647ce8895d4edf886f0f/ae23d/stephen-rudd.webp 150w,\n/static/22bac10296ba647ce8895d4edf886f0f/bd37b/stephen-rudd.webp 300w","type":"image/webp","sizes":"150px"}]},"width":150,"height":150}}},"thumbnail":null},{"id":"df792a20-0433-50cd-8e9e-97a52457c28b","title":"EPI2ME Labs 22.01.01 Release","slug":"/epi2me-labs-22.01.01-release/","link":null,"excerpt":"Dear Nanopore Community, This Wednesday we have a trio of announcements; these include a new…","timeToRead":2,"featured":null,"thumbnailText":null,"date":"January 26, 2022","category":{"id":"813445e5-a76d-5747-bc55-c6bc78869edd","name":"Software Releases","slug":"/category/software-releases/","color":"#17BB75","icon":"/static/a7c604050eccf560e4c0749d79c6866b/softwarereleases.svg"},"author":{"id":"7c0504da-2830-5f14-bb2c-f4e711b317f7","name":"Stephen Rudd","slug":"/author/stephen-rudd/","title":"Bioinformatics product manager","description":"I engage with Oxford Nanopore Technologies' customers to understand their needs and turn these into EPI2ME Labs products.","skills":["Bioinformatics","Product Management"],"social":null,"thumbnail":{"__typename":"ImageSharp","ImageSharp_small":{"layout":"fixed","placeholder":{"fallback":"data:image/svg+xml,%3csvg%20xmlns='http://www.w3.org/2000/svg'%20width='48'%20height='48'%20viewBox='0%200%2048%2048'%20preserveAspectRatio='none'%3e%3cpath%20d='M33%2026v2l-2%201-1%203h1c3-4%206%204%203%208-1%201-1%201-1-1s-4-7-4-5-2%203-4%201c-1-2-3%201-3%205%201%203%201%204-1%203v2c3%203%204%203%204-1v-1h2v1l2%203c2%201%202%201%202-1-1-4%200-7%201-4%202%205%204%201%204-7%200-4%201-4%203-3h4l-4-2-3-4c-1-3-3-3-3%200'%20fill='%23d3d3d3'%20fill-rule='evenodd'/%3e%3c/svg%3e"},"images":{"fallback":{"src":"/static/22bac10296ba647ce8895d4edf886f0f/a7a66/stephen-rudd.png","srcSet":"/static/22bac10296ba647ce8895d4edf886f0f/a7a66/stephen-rudd.png 48w,\n/static/22bac10296ba647ce8895d4edf886f0f/416a0/stephen-rudd.png 96w","sizes":"48px"},"sources":[{"srcSet":"/static/22bac10296ba647ce8895d4edf886f0f/a3542/stephen-rudd.webp 48w,\n/static/22bac10296ba647ce8895d4edf886f0f/0f66d/stephen-rudd.webp 96w","type":"image/webp","sizes":"48px"}]},"width":48,"height":48},"ImageSharp_regular":{"layout":"fixed","placeholder":{"fallback":"data:image/svg+xml,%3csvg%20xmlns='http://www.w3.org/2000/svg'%20width='48'%20height='48'%20viewBox='0%200%2048%2048'%20preserveAspectRatio='none'%3e%3cpath%20d='M33%2026v2l-2%201-1%203h1c3-4%206%204%203%208-1%201-1%201-1-1s-4-7-4-5-2%203-4%201c-1-2-3%201-3%205%201%203%201%204-1%203v2c3%203%204%203%204-1v-1h2v1l2%203c2%201%202%201%202-1-1-4%200-7%201-4%202%205%204%201%204-7%200-4%201-4%203-3h4l-4-2-3-4c-1-3-3-3-3%200'%20fill='%23d3d3d3'%20fill-rule='evenodd'/%3e%3c/svg%3e"},"images":{"fallback":{"src":"/static/22bac10296ba647ce8895d4edf886f0f/46e60/stephen-rudd.png","srcSet":"/static/22bac10296ba647ce8895d4edf886f0f/46e60/stephen-rudd.png 150w,\n/static/22bac10296ba647ce8895d4edf886f0f/d612b/stephen-rudd.png 300w","sizes":"150px"},"sources":[{"srcSet":"/static/22bac10296ba647ce8895d4edf886f0f/ae23d/stephen-rudd.webp 150w,\n/static/22bac10296ba647ce8895d4edf886f0f/bd37b/stephen-rudd.webp 300w","type":"image/webp","sizes":"150px"}]},"width":150,"height":150}}},"thumbnail":null},{"id":"6c2850b3-7d1f-5a0b-9222-c1b663a063c3","title":"SARS-CoV-2 Midnight Analysis","slug":"/sarscov2-midnight-analysis/","link":null,"excerpt":"Introduction I wanted to write a blog post about SARS-CoV-2 sequencing data analysis to achieve two…","timeToRead":6,"featured":null,"thumbnailText":null,"date":"January 24, 2022","category":{"id":"c2018669-f02b-52f9-ad11-f6276eaff9f6","name":"How Tos","slug":"/category/how-tos/","color":"#B8E986","icon":"/static/7259c9d3481cdab1f093943d7d0bc600/how-tos.svg"},"author":{"id":"dd631256-080f-5d04-8609-031c7d6fe57b","name":"Matt Parker","slug":"/author/matt-parker/","title":"Clinical Bioinformatics Lead","description":"I focus on bioinformatics workflows for clinical applications, ensuring our workflows meet relevant standards.","skills":["Bioinformatics","Clinical Workflows"],"social":null,"thumbnail":{"__typename":"ImageSharp","ImageSharp_small":{"layout":"fixed","placeholder":{"fallback":"data:image/svg+xml,%3csvg%20xmlns='http://www.w3.org/2000/svg'%20width='48'%20height='48'%20viewBox='0%200%2048%2048'%20preserveAspectRatio='none'%3e%3cpath%20d='M21%2012l-4%202c-3%200-3%200-1%201l3%201%209%201%206%201h10c1-2%200-2-1-3l-4-1h-4c-1%202-6%201-7-1l-7-1m-9%209c2%2011%203%2014%208%2019%202%203%204%204%206%204%203%200%203%200%203%202-1%202%200%202%209%202%2010%200%2011-1%208-3-1-2-1-2%201-2s-1-2-5-2c-3-1-4-1-4-3%202-3%202-8%202-7-1%201-2%200-4-2-1-1-2-2-3-1h-3l-5%203-3%203-3-2c-3-3-5-9-5-13l-1-4-1%206'%20fill='%23d3d3d3'%20fill-rule='evenodd'/%3e%3c/svg%3e"},"images":{"fallback":{"src":"/static/e960a5c57f72b84c747215e272cc480e/a7a66/matt-parker.png","srcSet":"/static/e960a5c57f72b84c747215e272cc480e/a7a66/matt-parker.png 48w,\n/static/e960a5c57f72b84c747215e272cc480e/416a0/matt-parker.png 96w","sizes":"48px"},"sources":[{"srcSet":"/static/e960a5c57f72b84c747215e272cc480e/a3542/matt-parker.webp 48w,\n/static/e960a5c57f72b84c747215e272cc480e/0f66d/matt-parker.webp 96w","type":"image/webp","sizes":"48px"}]},"width":48,"height":48},"ImageSharp_regular":{"layout":"fixed","placeholder":{"fallback":"data:image/svg+xml,%3csvg%20xmlns='http://www.w3.org/2000/svg'%20width='48'%20height='48'%20viewBox='0%200%2048%2048'%20preserveAspectRatio='none'%3e%3cpath%20d='M21%2012l-4%202c-3%200-3%200-1%201l3%201%209%201%206%201h10c1-2%200-2-1-3l-4-1h-4c-1%202-6%201-7-1l-7-1m-9%209c2%2011%203%2014%208%2019%202%203%204%204%206%204%203%200%203%200%203%202-1%202%200%202%209%202%2010%200%2011-1%208-3-1-2-1-2%201-2s-1-2-5-2c-3-1-4-1-4-3%202-3%202-8%202-7-1%201-2%200-4-2-1-1-2-2-3-1h-3l-5%203-3%203-3-2c-3-3-5-9-5-13l-1-4-1%206'%20fill='%23d3d3d3'%20fill-rule='evenodd'/%3e%3c/svg%3e"},"images":{"fallback":{"src":"/static/e960a5c57f72b84c747215e272cc480e/46e60/matt-parker.png","srcSet":"/static/e960a5c57f72b84c747215e272cc480e/46e60/matt-parker.png 150w,\n/static/e960a5c57f72b84c747215e272cc480e/d612b/matt-parker.png 300w","sizes":"150px"},"sources":[{"srcSet":"/static/e960a5c57f72b84c747215e272cc480e/ae23d/matt-parker.webp 150w,\n/static/e960a5c57f72b84c747215e272cc480e/bd37b/matt-parker.webp 300w","type":"image/webp","sizes":"150px"}]},"width":150,"height":150}}},"thumbnail":null},{"id":"066e86b9-7e0a-5947-80ba-ebe029811e43","title":"Nextflow in Windows with WSL2","slug":"/nextflow-on-windows/","link":null,"excerpt":"It is easy to run and develop Nextflow workflows on Windows but there are some\nadditional set up…","timeToRead":3,"featured":null,"thumbnailText":null,"date":"October 20, 2021","category":{"id":"c2018669-f02b-52f9-ad11-f6276eaff9f6","name":"How Tos","slug":"/category/how-tos/","color":"#B8E986","icon":"/static/7259c9d3481cdab1f093943d7d0bc600/how-tos.svg"},"author":{"id":"43d4aa67-ac85-52e9-8de5-eea91504d671","name":"Sarah Griffiths","slug":"/author/sarah-griffiths/","title":"Bioinformatician","description":"I'm a bioinformatician working on creating new workflows and ensuring our analysis notebooks are maintained for all levels of EPI2ME Labs' users.","skills":["Bioinformatics","Data Visualization"],"social":null,"thumbnail":{"__typename":"ImageSharp","ImageSharp_small":{"layout":"fixed","placeholder":{"fallback":"data:image/svg+xml,%3csvg%20xmlns='http://www.w3.org/2000/svg'%20width='150'%20height='150'%20viewBox='0%200%20150%20150'%20preserveAspectRatio='none'%3e%3cpath%20d='M43%203c-12%209-16%2028-10%2056%202%2012%202%2017-3%2020-4%203-4%204%201%204h4l-1%205c0%206-1%208-4%208-3%201-3%202%201%203l3%201-5%204c-5%203-7%207-8%2018a581%20581%200%2001-5%2028c2%200%205-11%208-28%201-7%202-7%207-2%207%208%2011%2018%2010%2026v4h10c8%200%209%200%2011-2h3c2%202%2018%203%2016%201s-1-4%202-4c2%200%202%200%202%203-1%202%200%202%204%202l4-1c-1-2%201-4%203-4l1-2c0-2%201-3%203-2%203%200%202%203%200%204l-2%203c0%202%200%202%2014%202h13v-7a254%20254%200%2001-2-12c-2-1-2-14-1-14l1%206c0%209%202%2010%206%202l2-3%201%205a269%20269%200%20016%2021c0%202%203%203%203%201l-6-26c-1-2-2-5-1-7%200-6-3-10-14-15l-17-7c-9-2-9-2-6-5%201-1%201-2-4-2-8%200-12-1-18-6-5-4-6-2%200%202%203%203%208%205%2014%206%203%201%203%201%202%203s0%205%204%207c6%204%200%2011-10%2011-12%200-29-14-24-19l1-7%201-5%203%205c4%205%206%207%204%203l-2-3c-1%200-8-15-10-22-3-12-2-28%201-35C66%2011%2076%206%2086%209c6%202%206%201%201-1s-3-3%203-1c5%202%206%200%201-2L81%203l-9-1c-2-2-6-2-14-2-11%200-12%200-15%203m4%200C34%2013%2030%2030%2036%2058c2%2011%202%2014-1%2020l-2%203%203-1c2%200%202%200%201%2010-1%207%200%208%206%202%205-4%208-10%208-15%200-6-2-14-5-18-5-7-3-18%203-17%203%201%203%201%203-5%201-9%205-16%2013-24%207-6%207-7%205-6-8%201-17%209-21%2018l-2%203c0-3%205-12%2010-17l6-8%202-2h-7c-6%200-8%200-11%202m54%207c6%201%2010%204%2014%2010%205%209%206%2012%205%2037v15a1227%201227%200%20012-30c0-11%200-12-2-17-5-11-12-16-20-16h-3l4%201m-17%207c-4%203-9%2013-13%2025-4%2011-5%2027-3%2036%201%204%201%204%201-2-1-13%202-31%205-34l1-3c0-2%205-13%208-15l1-2c-2%200%200-3%203-4%202-1%205%200%205%201l1%201c2%200%201-1%200-2-3-4-6-4-9-1m29%2022v32c-2%205-8%2012-12%2014-3%202-1%203%203%201s9-8%2010-12c2-4%202-10%202-27-1-9-1-12-3-8M57%2074c-2%206-7%2015-9%2017l-2%203h2l7-2c6-2%206-3%205-12-1-7-2-9-3-6'%20fill='%23d3d3d3'%20fill-rule='evenodd'/%3e%3c/svg%3e"},"images":{"fallback":{"src":"/static/5cb00aaf799aa814728c4eba271ae9c1/a7a66/sarah-griffiths.png","srcSet":"/static/5cb00aaf799aa814728c4eba271ae9c1/a7a66/sarah-griffiths.png 48w,\n/static/5cb00aaf799aa814728c4eba271ae9c1/416a0/sarah-griffiths.png 96w","sizes":"48px"},"sources":[{"srcSet":"/static/5cb00aaf799aa814728c4eba271ae9c1/a3542/sarah-griffiths.webp 48w,\n/static/5cb00aaf799aa814728c4eba271ae9c1/0f66d/sarah-griffiths.webp 96w","type":"image/webp","sizes":"48px"}]},"width":48,"height":48},"ImageSharp_regular":{"layout":"fixed","placeholder":{"fallback":"data:image/svg+xml,%3csvg%20xmlns='http://www.w3.org/2000/svg'%20width='150'%20height='150'%20viewBox='0%200%20150%20150'%20preserveAspectRatio='none'%3e%3cpath%20d='M43%203c-12%209-16%2028-10%2056%202%2012%202%2017-3%2020-4%203-4%204%201%204h4l-1%205c0%206-1%208-4%208-3%201-3%202%201%203l3%201-5%204c-5%203-7%207-8%2018a581%20581%200%2001-5%2028c2%200%205-11%208-28%201-7%202-7%207-2%207%208%2011%2018%2010%2026v4h10c8%200%209%200%2011-2h3c2%202%2018%203%2016%201s-1-4%202-4c2%200%202%200%202%203-1%202%200%202%204%202l4-1c-1-2%201-4%203-4l1-2c0-2%201-3%203-2%203%200%202%203%200%204l-2%203c0%202%200%202%2014%202h13v-7a254%20254%200%2001-2-12c-2-1-2-14-1-14l1%206c0%209%202%2010%206%202l2-3%201%205a269%20269%200%20016%2021c0%202%203%203%203%201l-6-26c-1-2-2-5-1-7%200-6-3-10-14-15l-17-7c-9-2-9-2-6-5%201-1%201-2-4-2-8%200-12-1-18-6-5-4-6-2%200%202%203%203%208%205%2014%206%203%201%203%201%202%203s0%205%204%207c6%204%200%2011-10%2011-12%200-29-14-24-19l1-7%201-5%203%205c4%205%206%207%204%203l-2-3c-1%200-8-15-10-22-3-12-2-28%201-35C66%2011%2076%206%2086%209c6%202%206%201%201-1s-3-3%203-1c5%202%206%200%201-2L81%203l-9-1c-2-2-6-2-14-2-11%200-12%200-15%203m4%200C34%2013%2030%2030%2036%2058c2%2011%202%2014-1%2020l-2%203%203-1c2%200%202%200%201%2010-1%207%200%208%206%202%205-4%208-10%208-15%200-6-2-14-5-18-5-7-3-18%203-17%203%201%203%201%203-5%201-9%205-16%2013-24%207-6%207-7%205-6-8%201-17%209-21%2018l-2%203c0-3%205-12%2010-17l6-8%202-2h-7c-6%200-8%200-11%202m54%207c6%201%2010%204%2014%2010%205%209%206%2012%205%2037v15a1227%201227%200%20012-30c0-11%200-12-2-17-5-11-12-16-20-16h-3l4%201m-17%207c-4%203-9%2013-13%2025-4%2011-5%2027-3%2036%201%204%201%204%201-2-1-13%202-31%205-34l1-3c0-2%205-13%208-15l1-2c-2%200%200-3%203-4%202-1%205%200%205%201l1%201c2%200%201-1%200-2-3-4-6-4-9-1m29%2022v32c-2%205-8%2012-12%2014-3%202-1%203%203%201s9-8%2010-12c2-4%202-10%202-27-1-9-1-12-3-8M57%2074c-2%206-7%2015-9%2017l-2%203h2l7-2c6-2%206-3%205-12-1-7-2-9-3-6'%20fill='%23d3d3d3'%20fill-rule='evenodd'/%3e%3c/svg%3e"},"images":{"fallback":{"src":"/static/5cb00aaf799aa814728c4eba271ae9c1/46e60/sarah-griffiths.png","srcSet":"/static/5cb00aaf799aa814728c4eba271ae9c1/46e60/sarah-griffiths.png 150w,\n/static/5cb00aaf799aa814728c4eba271ae9c1/d612b/sarah-griffiths.png 300w","sizes":"150px"},"sources":[{"srcSet":"/static/5cb00aaf799aa814728c4eba271ae9c1/ae23d/sarah-griffiths.webp 150w,\n/static/5cb00aaf799aa814728c4eba271ae9c1/bd37b/sarah-griffiths.webp 300w","type":"image/webp","sizes":"150px"}]},"width":150,"height":150}}},"thumbnail":null},{"id":"34f6aa8a-a5a9-5890-8cbc-143c7aabed64","title":"EPI2ME Labs 21.07.02 Release","slug":"/epi2me-labs-21.07.02-release/","link":null,"excerpt":"Dear Nanopore Community, Our (second!) July 2021 EPI2ME Labs release includes various updates to…","timeToRead":2,"featured":null,"thumbnailText":null,"date":"July 29, 2021","category":{"id":"813445e5-a76d-5747-bc55-c6bc78869edd","name":"Software Releases","slug":"/category/software-releases/","color":"#17BB75","icon":"/static/a7c604050eccf560e4c0749d79c6866b/softwarereleases.svg"},"author":{"id":"7c0504da-2830-5f14-bb2c-f4e711b317f7","name":"Stephen Rudd","slug":"/author/stephen-rudd/","title":"Bioinformatics product manager","description":"I engage with Oxford Nanopore Technologies' customers to understand their needs and turn these into EPI2ME Labs products.","skills":["Bioinformatics","Product Management"],"social":null,"thumbnail":{"__typename":"ImageSharp","ImageSharp_small":{"layout":"fixed","placeholder":{"fallback":"data:image/svg+xml,%3csvg%20xmlns='http://www.w3.org/2000/svg'%20width='48'%20height='48'%20viewBox='0%200%2048%2048'%20preserveAspectRatio='none'%3e%3cpath%20d='M33%2026v2l-2%201-1%203h1c3-4%206%204%203%208-1%201-1%201-1-1s-4-7-4-5-2%203-4%201c-1-2-3%201-3%205%201%203%201%204-1%203v2c3%203%204%203%204-1v-1h2v1l2%203c2%201%202%201%202-1-1-4%200-7%201-4%202%205%204%201%204-7%200-4%201-4%203-3h4l-4-2-3-4c-1-3-3-3-3%200'%20fill='%23d3d3d3'%20fill-rule='evenodd'/%3e%3c/svg%3e"},"images":{"fallback":{"src":"/static/22bac10296ba647ce8895d4edf886f0f/a7a66/stephen-rudd.png","srcSet":"/static/22bac10296ba647ce8895d4edf886f0f/a7a66/stephen-rudd.png 48w,\n/static/22bac10296ba647ce8895d4edf886f0f/416a0/stephen-rudd.png 96w","sizes":"48px"},"sources":[{"srcSet":"/static/22bac10296ba647ce8895d4edf886f0f/a3542/stephen-rudd.webp 48w,\n/static/22bac10296ba647ce8895d4edf886f0f/0f66d/stephen-rudd.webp 96w","type":"image/webp","sizes":"48px"}]},"width":48,"height":48},"ImageSharp_regular":{"layout":"fixed","placeholder":{"fallback":"data:image/svg+xml,%3csvg%20xmlns='http://www.w3.org/2000/svg'%20width='48'%20height='48'%20viewBox='0%200%2048%2048'%20preserveAspectRatio='none'%3e%3cpath%20d='M33%2026v2l-2%201-1%203h1c3-4%206%204%203%208-1%201-1%201-1-1s-4-7-4-5-2%203-4%201c-1-2-3%201-3%205%201%203%201%204-1%203v2c3%203%204%203%204-1v-1h2v1l2%203c2%201%202%201%202-1-1-4%200-7%201-4%202%205%204%201%204-7%200-4%201-4%203-3h4l-4-2-3-4c-1-3-3-3-3%200'%20fill='%23d3d3d3'%20fill-rule='evenodd'/%3e%3c/svg%3e"},"images":{"fallback":{"src":"/static/22bac10296ba647ce8895d4edf886f0f/46e60/stephen-rudd.png","srcSet":"/static/22bac10296ba647ce8895d4edf886f0f/46e60/stephen-rudd.png 150w,\n/static/22bac10296ba647ce8895d4edf886f0f/d612b/stephen-rudd.png 300w","sizes":"150px"},"sources":[{"srcSet":"/static/22bac10296ba647ce8895d4edf886f0f/ae23d/stephen-rudd.webp 150w,\n/static/22bac10296ba647ce8895d4edf886f0f/bd37b/stephen-rudd.webp 300w","type":"image/webp","sizes":"150px"}]},"width":150,"height":150}}},"thumbnail":null}],"pageInfo":{"pageCount":3,"hasPreviousPage":true,"hasNextPage":true,"currentPage":2},"totalCount":18}},"pageContext":{"slug":"/tag/nextflow/","limit":6,"skip":6,"collectionType":"tags","paginatePostsPage":true,"basePath":"/","services":{"algolia":true,"mailchimp":false,"disqus":false,"graphComment":false,"facebookComment":false},"siteUrl":"https://labs.epi2me.io","mobileMenu":{"title":"Topics","items":[{"name":"Announcements","slug":"/category/announcements/"},{"name":"Articles","slug":"/category/articles/"},{"name":"Data Releases","slug":"/category/data-releases/"},{"name":"How Tos","slug":"/category/how-tos/"},{"name":"Software Releases","slug":"/category/software-releases/"}]},"darkMode":true,"includeExcerpt":true,"includeTimeToRead":true,"includeTableOfContents":true,"imageQuality":75}},
    "staticQueryHashes": ["1992822086","2409295108","2893703372","3667468360"]}