{
    "componentChunkName": "component---packages-blog-gatsby-blog-core-src-templates-collection-tag-js",
    "path": "/tag/releases/page/2/",
    "result": {"data":{"collectionInfo":{"id":"4df998fa-8d40-56e1-be21-073637c8ee74","name":"#releases","slug":"/tag/releases/"},"posts":{"nodes":[{"id":"2dcf379e-3de8-5c3b-9a41-1885593dc2cf","title":"EPI2ME Labs 22.05.01 Release","slug":"/epi2me-labs-22.05.01-release/","link":null,"excerpt":"Dear Nanopore Community, We are pleased to release a new version of the EPI2ME Labs software that…","timeToRead":2,"featured":null,"thumbnailText":null,"date":"May 04, 2022","category":{"id":"3f90a99b-9cbd-5778-bd83-04554cc41ded","name":"Software Releases","slug":"/category/software-releases/","color":"#17BB75","icon":"/static/a7c604050eccf560e4c0749d79c6866b/softwarereleases.svg"},"author":{"id":"13683b49-29eb-5e4d-88f8-5ee750094548","name":"Stephen Rudd","slug":"/author/stephen-rudd/","title":"Bioinformatics product manager","description":"I engage with Oxford Nanopore Technologies' customers to understand their needs and turn these into EPI2ME Labs products.","skills":["Bioinformatics","Product Management"],"social":null,"thumbnail":{"__typename":"ImageSharp","ImageSharp_small":{"layout":"fixed","placeholder":{"fallback":"data:image/svg+xml,%3csvg%20xmlns='http://www.w3.org/2000/svg'%20width='48'%20height='48'%20viewBox='0%200%2048%2048'%20preserveAspectRatio='none'%3e%3cpath%20d='M33%2026v2l-2%201-1%203h1c3-4%206%204%203%208-1%201-1%201-1-1s-4-7-4-5-2%203-4%201c-1-2-3%201-3%205%201%203%201%204-1%203v2c3%203%204%203%204-1v-1h2v1l2%203c2%201%202%201%202-1-1-4%200-7%201-4%202%205%204%201%204-7%200-4%201-4%203-3h4l-4-2-3-4c-1-3-3-3-3%200'%20fill='%23d3d3d3'%20fill-rule='evenodd'/%3e%3c/svg%3e"},"images":{"fallback":{"src":"/static/22bac10296ba647ce8895d4edf886f0f/a7a66/stephen-rudd.png","srcSet":"/static/22bac10296ba647ce8895d4edf886f0f/a7a66/stephen-rudd.png 48w,\n/static/22bac10296ba647ce8895d4edf886f0f/416a0/stephen-rudd.png 96w","sizes":"48px"},"sources":[{"srcSet":"/static/22bac10296ba647ce8895d4edf886f0f/a3542/stephen-rudd.webp 48w,\n/static/22bac10296ba647ce8895d4edf886f0f/0f66d/stephen-rudd.webp 96w","type":"image/webp","sizes":"48px"}]},"width":48,"height":48},"ImageSharp_regular":{"layout":"fixed","placeholder":{"fallback":"data:image/svg+xml,%3csvg%20xmlns='http://www.w3.org/2000/svg'%20width='48'%20height='48'%20viewBox='0%200%2048%2048'%20preserveAspectRatio='none'%3e%3cpath%20d='M33%2026v2l-2%201-1%203h1c3-4%206%204%203%208-1%201-1%201-1-1s-4-7-4-5-2%203-4%201c-1-2-3%201-3%205%201%203%201%204-1%203v2c3%203%204%203%204-1v-1h2v1l2%203c2%201%202%201%202-1-1-4%200-7%201-4%202%205%204%201%204-7%200-4%201-4%203-3h4l-4-2-3-4c-1-3-3-3-3%200'%20fill='%23d3d3d3'%20fill-rule='evenodd'/%3e%3c/svg%3e"},"images":{"fallback":{"src":"/static/22bac10296ba647ce8895d4edf886f0f/46e60/stephen-rudd.png","srcSet":"/static/22bac10296ba647ce8895d4edf886f0f/46e60/stephen-rudd.png 150w,\n/static/22bac10296ba647ce8895d4edf886f0f/d612b/stephen-rudd.png 300w","sizes":"150px"},"sources":[{"srcSet":"/static/22bac10296ba647ce8895d4edf886f0f/ae23d/stephen-rudd.webp 150w,\n/static/22bac10296ba647ce8895d4edf886f0f/bd37b/stephen-rudd.webp 300w","type":"image/webp","sizes":"150px"}]},"width":150,"height":150}}},"thumbnail":null},{"id":"9a13f595-a963-5022-81b3-67b18ab8ae6b","title":"EPI2ME Labs 22.03.01 Release","slug":"/epi2me-labs-22.03.01-release/","link":null,"excerpt":"Dear Nanopore Community This week the EPI2ME Labs team is delighted to release a new workflow,\nwf…","timeToRead":1,"featured":null,"thumbnailText":null,"date":"March 09, 2022","category":{"id":"3f90a99b-9cbd-5778-bd83-04554cc41ded","name":"Software Releases","slug":"/category/software-releases/","color":"#17BB75","icon":"/static/a7c604050eccf560e4c0749d79c6866b/softwarereleases.svg"},"author":{"id":"13683b49-29eb-5e4d-88f8-5ee750094548","name":"Stephen Rudd","slug":"/author/stephen-rudd/","title":"Bioinformatics product manager","description":"I engage with Oxford Nanopore Technologies' customers to understand their needs and turn these into EPI2ME Labs products.","skills":["Bioinformatics","Product Management"],"social":null,"thumbnail":{"__typename":"ImageSharp","ImageSharp_small":{"layout":"fixed","placeholder":{"fallback":"data:image/svg+xml,%3csvg%20xmlns='http://www.w3.org/2000/svg'%20width='48'%20height='48'%20viewBox='0%200%2048%2048'%20preserveAspectRatio='none'%3e%3cpath%20d='M33%2026v2l-2%201-1%203h1c3-4%206%204%203%208-1%201-1%201-1-1s-4-7-4-5-2%203-4%201c-1-2-3%201-3%205%201%203%201%204-1%203v2c3%203%204%203%204-1v-1h2v1l2%203c2%201%202%201%202-1-1-4%200-7%201-4%202%205%204%201%204-7%200-4%201-4%203-3h4l-4-2-3-4c-1-3-3-3-3%200'%20fill='%23d3d3d3'%20fill-rule='evenodd'/%3e%3c/svg%3e"},"images":{"fallback":{"src":"/static/22bac10296ba647ce8895d4edf886f0f/a7a66/stephen-rudd.png","srcSet":"/static/22bac10296ba647ce8895d4edf886f0f/a7a66/stephen-rudd.png 48w,\n/static/22bac10296ba647ce8895d4edf886f0f/416a0/stephen-rudd.png 96w","sizes":"48px"},"sources":[{"srcSet":"/static/22bac10296ba647ce8895d4edf886f0f/a3542/stephen-rudd.webp 48w,\n/static/22bac10296ba647ce8895d4edf886f0f/0f66d/stephen-rudd.webp 96w","type":"image/webp","sizes":"48px"}]},"width":48,"height":48},"ImageSharp_regular":{"layout":"fixed","placeholder":{"fallback":"data:image/svg+xml,%3csvg%20xmlns='http://www.w3.org/2000/svg'%20width='48'%20height='48'%20viewBox='0%200%2048%2048'%20preserveAspectRatio='none'%3e%3cpath%20d='M33%2026v2l-2%201-1%203h1c3-4%206%204%203%208-1%201-1%201-1-1s-4-7-4-5-2%203-4%201c-1-2-3%201-3%205%201%203%201%204-1%203v2c3%203%204%203%204-1v-1h2v1l2%203c2%201%202%201%202-1-1-4%200-7%201-4%202%205%204%201%204-7%200-4%201-4%203-3h4l-4-2-3-4c-1-3-3-3-3%200'%20fill='%23d3d3d3'%20fill-rule='evenodd'/%3e%3c/svg%3e"},"images":{"fallback":{"src":"/static/22bac10296ba647ce8895d4edf886f0f/46e60/stephen-rudd.png","srcSet":"/static/22bac10296ba647ce8895d4edf886f0f/46e60/stephen-rudd.png 150w,\n/static/22bac10296ba647ce8895d4edf886f0f/d612b/stephen-rudd.png 300w","sizes":"150px"},"sources":[{"srcSet":"/static/22bac10296ba647ce8895d4edf886f0f/ae23d/stephen-rudd.webp 150w,\n/static/22bac10296ba647ce8895d4edf886f0f/bd37b/stephen-rudd.webp 300w","type":"image/webp","sizes":"150px"}]},"width":150,"height":150}}},"thumbnail":null},{"id":"039ff06e-e135-573c-9ebc-2e9854a8be6a","title":"EPI2ME Labs 22.02.01 Release","slug":"/epi2me-labs-22.02.01-release/","link":null,"excerpt":"Dear Nanopore Community, We are pleased to introduce an update to our EPI2ME Labs product that now…","timeToRead":2,"featured":null,"thumbnailText":null,"date":"February 09, 2022","category":{"id":"3f90a99b-9cbd-5778-bd83-04554cc41ded","name":"Software Releases","slug":"/category/software-releases/","color":"#17BB75","icon":"/static/a7c604050eccf560e4c0749d79c6866b/softwarereleases.svg"},"author":{"id":"13683b49-29eb-5e4d-88f8-5ee750094548","name":"Stephen Rudd","slug":"/author/stephen-rudd/","title":"Bioinformatics product manager","description":"I engage with Oxford Nanopore Technologies' customers to understand their needs and turn these into EPI2ME Labs products.","skills":["Bioinformatics","Product Management"],"social":null,"thumbnail":{"__typename":"ImageSharp","ImageSharp_small":{"layout":"fixed","placeholder":{"fallback":"data:image/svg+xml,%3csvg%20xmlns='http://www.w3.org/2000/svg'%20width='48'%20height='48'%20viewBox='0%200%2048%2048'%20preserveAspectRatio='none'%3e%3cpath%20d='M33%2026v2l-2%201-1%203h1c3-4%206%204%203%208-1%201-1%201-1-1s-4-7-4-5-2%203-4%201c-1-2-3%201-3%205%201%203%201%204-1%203v2c3%203%204%203%204-1v-1h2v1l2%203c2%201%202%201%202-1-1-4%200-7%201-4%202%205%204%201%204-7%200-4%201-4%203-3h4l-4-2-3-4c-1-3-3-3-3%200'%20fill='%23d3d3d3'%20fill-rule='evenodd'/%3e%3c/svg%3e"},"images":{"fallback":{"src":"/static/22bac10296ba647ce8895d4edf886f0f/a7a66/stephen-rudd.png","srcSet":"/static/22bac10296ba647ce8895d4edf886f0f/a7a66/stephen-rudd.png 48w,\n/static/22bac10296ba647ce8895d4edf886f0f/416a0/stephen-rudd.png 96w","sizes":"48px"},"sources":[{"srcSet":"/static/22bac10296ba647ce8895d4edf886f0f/a3542/stephen-rudd.webp 48w,\n/static/22bac10296ba647ce8895d4edf886f0f/0f66d/stephen-rudd.webp 96w","type":"image/webp","sizes":"48px"}]},"width":48,"height":48},"ImageSharp_regular":{"layout":"fixed","placeholder":{"fallback":"data:image/svg+xml,%3csvg%20xmlns='http://www.w3.org/2000/svg'%20width='48'%20height='48'%20viewBox='0%200%2048%2048'%20preserveAspectRatio='none'%3e%3cpath%20d='M33%2026v2l-2%201-1%203h1c3-4%206%204%203%208-1%201-1%201-1-1s-4-7-4-5-2%203-4%201c-1-2-3%201-3%205%201%203%201%204-1%203v2c3%203%204%203%204-1v-1h2v1l2%203c2%201%202%201%202-1-1-4%200-7%201-4%202%205%204%201%204-7%200-4%201-4%203-3h4l-4-2-3-4c-1-3-3-3-3%200'%20fill='%23d3d3d3'%20fill-rule='evenodd'/%3e%3c/svg%3e"},"images":{"fallback":{"src":"/static/22bac10296ba647ce8895d4edf886f0f/46e60/stephen-rudd.png","srcSet":"/static/22bac10296ba647ce8895d4edf886f0f/46e60/stephen-rudd.png 150w,\n/static/22bac10296ba647ce8895d4edf886f0f/d612b/stephen-rudd.png 300w","sizes":"150px"},"sources":[{"srcSet":"/static/22bac10296ba647ce8895d4edf886f0f/ae23d/stephen-rudd.webp 150w,\n/static/22bac10296ba647ce8895d4edf886f0f/bd37b/stephen-rudd.webp 300w","type":"image/webp","sizes":"150px"}]},"width":150,"height":150}}},"thumbnail":null},{"id":"e6c2bc05-e04e-52ba-8f09-98fb0850388c","title":"EPI2ME Labs 22.01.01 Release","slug":"/epi2me-labs-22.01.01-release/","link":null,"excerpt":"Dear Nanopore Community, This Wednesday we have a trio of announcements; these include a new…","timeToRead":2,"featured":null,"thumbnailText":null,"date":"January 26, 2022","category":{"id":"3f90a99b-9cbd-5778-bd83-04554cc41ded","name":"Software Releases","slug":"/category/software-releases/","color":"#17BB75","icon":"/static/a7c604050eccf560e4c0749d79c6866b/softwarereleases.svg"},"author":{"id":"13683b49-29eb-5e4d-88f8-5ee750094548","name":"Stephen Rudd","slug":"/author/stephen-rudd/","title":"Bioinformatics product manager","description":"I engage with Oxford Nanopore Technologies' customers to understand their needs and turn these into EPI2ME Labs products.","skills":["Bioinformatics","Product Management"],"social":null,"thumbnail":{"__typename":"ImageSharp","ImageSharp_small":{"layout":"fixed","placeholder":{"fallback":"data:image/svg+xml,%3csvg%20xmlns='http://www.w3.org/2000/svg'%20width='48'%20height='48'%20viewBox='0%200%2048%2048'%20preserveAspectRatio='none'%3e%3cpath%20d='M33%2026v2l-2%201-1%203h1c3-4%206%204%203%208-1%201-1%201-1-1s-4-7-4-5-2%203-4%201c-1-2-3%201-3%205%201%203%201%204-1%203v2c3%203%204%203%204-1v-1h2v1l2%203c2%201%202%201%202-1-1-4%200-7%201-4%202%205%204%201%204-7%200-4%201-4%203-3h4l-4-2-3-4c-1-3-3-3-3%200'%20fill='%23d3d3d3'%20fill-rule='evenodd'/%3e%3c/svg%3e"},"images":{"fallback":{"src":"/static/22bac10296ba647ce8895d4edf886f0f/a7a66/stephen-rudd.png","srcSet":"/static/22bac10296ba647ce8895d4edf886f0f/a7a66/stephen-rudd.png 48w,\n/static/22bac10296ba647ce8895d4edf886f0f/416a0/stephen-rudd.png 96w","sizes":"48px"},"sources":[{"srcSet":"/static/22bac10296ba647ce8895d4edf886f0f/a3542/stephen-rudd.webp 48w,\n/static/22bac10296ba647ce8895d4edf886f0f/0f66d/stephen-rudd.webp 96w","type":"image/webp","sizes":"48px"}]},"width":48,"height":48},"ImageSharp_regular":{"layout":"fixed","placeholder":{"fallback":"data:image/svg+xml,%3csvg%20xmlns='http://www.w3.org/2000/svg'%20width='48'%20height='48'%20viewBox='0%200%2048%2048'%20preserveAspectRatio='none'%3e%3cpath%20d='M33%2026v2l-2%201-1%203h1c3-4%206%204%203%208-1%201-1%201-1-1s-4-7-4-5-2%203-4%201c-1-2-3%201-3%205%201%203%201%204-1%203v2c3%203%204%203%204-1v-1h2v1l2%203c2%201%202%201%202-1-1-4%200-7%201-4%202%205%204%201%204-7%200-4%201-4%203-3h4l-4-2-3-4c-1-3-3-3-3%200'%20fill='%23d3d3d3'%20fill-rule='evenodd'/%3e%3c/svg%3e"},"images":{"fallback":{"src":"/static/22bac10296ba647ce8895d4edf886f0f/46e60/stephen-rudd.png","srcSet":"/static/22bac10296ba647ce8895d4edf886f0f/46e60/stephen-rudd.png 150w,\n/static/22bac10296ba647ce8895d4edf886f0f/d612b/stephen-rudd.png 300w","sizes":"150px"},"sources":[{"srcSet":"/static/22bac10296ba647ce8895d4edf886f0f/ae23d/stephen-rudd.webp 150w,\n/static/22bac10296ba647ce8895d4edf886f0f/bd37b/stephen-rudd.webp 300w","type":"image/webp","sizes":"150px"}]},"width":150,"height":150}}},"thumbnail":null},{"id":"90789a1c-31eb-5025-b07f-730bbe5c7e2b","title":"EPI2ME Labs 21.07.02 Release","slug":"/epi2me-labs-21.07.02-release/","link":null,"excerpt":"Dear Nanopore Community, Our (second!) July 2021 EPI2ME Labs release includes various updates to…","timeToRead":2,"featured":null,"thumbnailText":null,"date":"July 29, 2021","category":{"id":"3f90a99b-9cbd-5778-bd83-04554cc41ded","name":"Software Releases","slug":"/category/software-releases/","color":"#17BB75","icon":"/static/a7c604050eccf560e4c0749d79c6866b/softwarereleases.svg"},"author":{"id":"13683b49-29eb-5e4d-88f8-5ee750094548","name":"Stephen Rudd","slug":"/author/stephen-rudd/","title":"Bioinformatics product manager","description":"I engage with Oxford Nanopore Technologies' customers to understand their needs and turn these into EPI2ME Labs products.","skills":["Bioinformatics","Product Management"],"social":null,"thumbnail":{"__typename":"ImageSharp","ImageSharp_small":{"layout":"fixed","placeholder":{"fallback":"data:image/svg+xml,%3csvg%20xmlns='http://www.w3.org/2000/svg'%20width='48'%20height='48'%20viewBox='0%200%2048%2048'%20preserveAspectRatio='none'%3e%3cpath%20d='M33%2026v2l-2%201-1%203h1c3-4%206%204%203%208-1%201-1%201-1-1s-4-7-4-5-2%203-4%201c-1-2-3%201-3%205%201%203%201%204-1%203v2c3%203%204%203%204-1v-1h2v1l2%203c2%201%202%201%202-1-1-4%200-7%201-4%202%205%204%201%204-7%200-4%201-4%203-3h4l-4-2-3-4c-1-3-3-3-3%200'%20fill='%23d3d3d3'%20fill-rule='evenodd'/%3e%3c/svg%3e"},"images":{"fallback":{"src":"/static/22bac10296ba647ce8895d4edf886f0f/a7a66/stephen-rudd.png","srcSet":"/static/22bac10296ba647ce8895d4edf886f0f/a7a66/stephen-rudd.png 48w,\n/static/22bac10296ba647ce8895d4edf886f0f/416a0/stephen-rudd.png 96w","sizes":"48px"},"sources":[{"srcSet":"/static/22bac10296ba647ce8895d4edf886f0f/a3542/stephen-rudd.webp 48w,\n/static/22bac10296ba647ce8895d4edf886f0f/0f66d/stephen-rudd.webp 96w","type":"image/webp","sizes":"48px"}]},"width":48,"height":48},"ImageSharp_regular":{"layout":"fixed","placeholder":{"fallback":"data:image/svg+xml,%3csvg%20xmlns='http://www.w3.org/2000/svg'%20width='48'%20height='48'%20viewBox='0%200%2048%2048'%20preserveAspectRatio='none'%3e%3cpath%20d='M33%2026v2l-2%201-1%203h1c3-4%206%204%203%208-1%201-1%201-1-1s-4-7-4-5-2%203-4%201c-1-2-3%201-3%205%201%203%201%204-1%203v2c3%203%204%203%204-1v-1h2v1l2%203c2%201%202%201%202-1-1-4%200-7%201-4%202%205%204%201%204-7%200-4%201-4%203-3h4l-4-2-3-4c-1-3-3-3-3%200'%20fill='%23d3d3d3'%20fill-rule='evenodd'/%3e%3c/svg%3e"},"images":{"fallback":{"src":"/static/22bac10296ba647ce8895d4edf886f0f/46e60/stephen-rudd.png","srcSet":"/static/22bac10296ba647ce8895d4edf886f0f/46e60/stephen-rudd.png 150w,\n/static/22bac10296ba647ce8895d4edf886f0f/d612b/stephen-rudd.png 300w","sizes":"150px"},"sources":[{"srcSet":"/static/22bac10296ba647ce8895d4edf886f0f/ae23d/stephen-rudd.webp 150w,\n/static/22bac10296ba647ce8895d4edf886f0f/bd37b/stephen-rudd.webp 300w","type":"image/webp","sizes":"150px"}]},"width":150,"height":150}}},"thumbnail":null},{"id":"8a0ab973-65c6-54f8-93ff-ea07e7fb004a","title":"EPI2ME Labs 21.07 Release","slug":"/epi2me-labs-21.07-release/","link":null,"excerpt":"Dear EPI2ME Labs Users This release Wednesday we are pleased to launch  wf-human-sv , a new Nextflow…","timeToRead":2,"featured":null,"thumbnailText":null,"date":"June 30, 2021","category":{"id":"3f90a99b-9cbd-5778-bd83-04554cc41ded","name":"Software Releases","slug":"/category/software-releases/","color":"#17BB75","icon":"/static/a7c604050eccf560e4c0749d79c6866b/softwarereleases.svg"},"author":{"id":"13683b49-29eb-5e4d-88f8-5ee750094548","name":"Stephen Rudd","slug":"/author/stephen-rudd/","title":"Bioinformatics product manager","description":"I engage with Oxford Nanopore Technologies' customers to understand their needs and turn these into EPI2ME Labs products.","skills":["Bioinformatics","Product Management"],"social":null,"thumbnail":{"__typename":"ImageSharp","ImageSharp_small":{"layout":"fixed","placeholder":{"fallback":"data:image/svg+xml,%3csvg%20xmlns='http://www.w3.org/2000/svg'%20width='48'%20height='48'%20viewBox='0%200%2048%2048'%20preserveAspectRatio='none'%3e%3cpath%20d='M33%2026v2l-2%201-1%203h1c3-4%206%204%203%208-1%201-1%201-1-1s-4-7-4-5-2%203-4%201c-1-2-3%201-3%205%201%203%201%204-1%203v2c3%203%204%203%204-1v-1h2v1l2%203c2%201%202%201%202-1-1-4%200-7%201-4%202%205%204%201%204-7%200-4%201-4%203-3h4l-4-2-3-4c-1-3-3-3-3%200'%20fill='%23d3d3d3'%20fill-rule='evenodd'/%3e%3c/svg%3e"},"images":{"fallback":{"src":"/static/22bac10296ba647ce8895d4edf886f0f/a7a66/stephen-rudd.png","srcSet":"/static/22bac10296ba647ce8895d4edf886f0f/a7a66/stephen-rudd.png 48w,\n/static/22bac10296ba647ce8895d4edf886f0f/416a0/stephen-rudd.png 96w","sizes":"48px"},"sources":[{"srcSet":"/static/22bac10296ba647ce8895d4edf886f0f/a3542/stephen-rudd.webp 48w,\n/static/22bac10296ba647ce8895d4edf886f0f/0f66d/stephen-rudd.webp 96w","type":"image/webp","sizes":"48px"}]},"width":48,"height":48},"ImageSharp_regular":{"layout":"fixed","placeholder":{"fallback":"data:image/svg+xml,%3csvg%20xmlns='http://www.w3.org/2000/svg'%20width='48'%20height='48'%20viewBox='0%200%2048%2048'%20preserveAspectRatio='none'%3e%3cpath%20d='M33%2026v2l-2%201-1%203h1c3-4%206%204%203%208-1%201-1%201-1-1s-4-7-4-5-2%203-4%201c-1-2-3%201-3%205%201%203%201%204-1%203v2c3%203%204%203%204-1v-1h2v1l2%203c2%201%202%201%202-1-1-4%200-7%201-4%202%205%204%201%204-7%200-4%201-4%203-3h4l-4-2-3-4c-1-3-3-3-3%200'%20fill='%23d3d3d3'%20fill-rule='evenodd'/%3e%3c/svg%3e"},"images":{"fallback":{"src":"/static/22bac10296ba647ce8895d4edf886f0f/46e60/stephen-rudd.png","srcSet":"/static/22bac10296ba647ce8895d4edf886f0f/46e60/stephen-rudd.png 150w,\n/static/22bac10296ba647ce8895d4edf886f0f/d612b/stephen-rudd.png 300w","sizes":"150px"},"sources":[{"srcSet":"/static/22bac10296ba647ce8895d4edf886f0f/ae23d/stephen-rudd.webp 150w,\n/static/22bac10296ba647ce8895d4edf886f0f/bd37b/stephen-rudd.webp 300w","type":"image/webp","sizes":"150px"}]},"width":150,"height":150}}},"thumbnail":null}],"pageInfo":{"pageCount":3,"hasPreviousPage":true,"hasNextPage":true,"currentPage":2},"totalCount":14}},"pageContext":{"slug":"/tag/releases/","limit":6,"skip":6,"collectionType":"tags","paginatePostsPage":true,"basePath":"/","services":{"algolia":true,"mailchimp":false,"disqus":false,"graphComment":false,"facebookComment":false},"siteUrl":"https://labs.epi2me.io","mobileMenu":{"title":"Topics","items":[{"name":"Announcements","slug":"/category/announcements/"},{"name":"Articles","slug":"/category/articles/"},{"name":"Data Releases","slug":"/category/data-releases/"},{"name":"How Tos","slug":"/category/how-tos/"},{"name":"Software Releases","slug":"/category/software-releases/"}]},"darkMode":true,"includeExcerpt":true,"includeTimeToRead":true,"includeTableOfContents":true,"imageQuality":75}},
    "staticQueryHashes": ["1992822086","2409295108","2893703372","3667468360"]}