{
    "componentChunkName": "component---packages-blog-gatsby-blog-core-src-templates-collection-category-js",
    "path": "/category/data-releases/page/3/",
    "result": {"data":{"collectionInfo":{"id":"25e50e00-8dc4-5869-8c58-db9ae83bd547","name":"Data Releases","slug":"/category/data-releases/","description":"Oxford Nanopore Technologies Open Data Releases"},"posts":{"nodes":[{"id":"e9351fe0-3d0f-5b98-b171-7a16b9c590be","title":"ONT Open Datasets Launch","slug":"/ont-open-datasets-launch/","link":null,"excerpt":"The ont-open-data registry provides reference sequencing data from Oxford\nNanopore Technologies to…","timeToRead":1,"featured":null,"thumbnailText":null,"date":"September 22, 2020","category":{"id":"25e50e00-8dc4-5869-8c58-db9ae83bd547","name":"Data Releases","slug":"/category/data-releases/","color":"#5fB8B1","icon":"/static/80e98fdc1b4550a2b9670e9dfc2e4f68/datareleases.svg"},"author":null,"thumbnail":null}],"pageInfo":{"pageCount":3,"hasPreviousPage":true,"hasNextPage":false,"currentPage":3},"totalCount":13}},"pageContext":{"slug":"/category/data-releases/","limit":6,"skip":12,"collectionType":"category","paginatePostsPage":true,"basePath":"/","services":{"algolia":true,"mailchimp":false,"disqus":false,"graphComment":false,"facebookComment":false},"siteUrl":"https://labs.epi2me.io","mobileMenu":{"title":"Topics","items":[{"name":"Announcements","slug":"/category/announcements/"},{"name":"Articles","slug":"/category/articles/"},{"name":"Data Releases","slug":"/category/data-releases/"},{"name":"How Tos","slug":"/category/how-tos/"},{"name":"Software Releases","slug":"/category/software-releases/"}]},"darkMode":true,"includeExcerpt":true,"includeTimeToRead":true,"includeTableOfContents":true,"imageQuality":75}},
    "staticQueryHashes": ["1992822086","2409295108","2893703372","3667468360"]}