{"componentChunkName":"component---packages-blog-gatsby-blog-core-src-templates-collection-tag-js","path":"/tag/notebooks/","result":{"data":{"collectionInfo":{"id":"dd6a650b-a8bc-5a0a-b66e-5df475dec6fc","name":"#notebooks","slug":"/tag/notebooks/"},"posts":{"nodes":[{"id":"58195bc4-4ca5-53e4-98b4-e0f050612f6a","title":"EPI2ME Labs 21.05 Release","slug":"/epi2me-labs-21.05-release/","link":null,"excerpt":"Our May 2021 update to EPI2ME Labs brings a smörgåsbord of fixes, new\nfunctionality and a colourful…","timeToRead":2,"featured":null,"thumbnailText":null,"date":"May 17, 2021","category":{"id":"e96a123f-55ff-57bf-a8b3-71cc7e5e5ebd","name":"Software Releases","slug":"/category/software-releases/","color":"#17BB75","icon":"/static/a7c604050eccf560e4c0749d79c6866b/softwarereleases.svg"},"author":{"id":"c7f2f3ef-0225-5ca7-b545-0d9fcc3709f7","name":"Stephen Rudd","slug":"/author/stephen-rudd/","title":"Bioinformatics product manager","description":"I engage with Oxford Nanopore Technologies' customers to understand their needs and turn these into EPI2ME Labs products.","skills":["Bioinformatics","Product Management"],"social":null,"thumbnail":null},"thumbnail":null},{"id":"3d2ebef0-55e1-5d28-bf98-0678ad428d02","title":"EPI2ME Labs Launcher Command-line interface","slug":"/epi2me-labs-launcher-command-line-interface/","link":null,"excerpt":"Feedback from EPI2ME Labs users revealed the desired for people to be able to control the\nrunning of…","timeToRead":1,"featured":null,"thumbnailText":null,"date":"March 17, 2021","category":{"id":"3b57f748-b69a-5dd6-b23d-101bf590b928","name":"How Tos","slug":"/category/how-tos/","color":"#B8E986","icon":"/static/1de85bbd781531b61bf5a25b83d72d32/how-tos.svg"},"author":{"id":"922bf629-6b7c-55ad-90ca-1639f2d48429","name":"Chris Wright","slug":"/author/chris-wright/","title":"Director Customer Workflows","description":"I co-ordinate the activities of the Customer Workflows Group at Oxford Nanopore Technologies. Previously I worked in the Research division at ONT leading the Scientific Data Analysis Group.","skills":["Scientific software design","Computational biology","Consensus and variant calling"],"social":[{"name":"Twitter","url":"https://twitter.com/chrisnrg"}],"thumbnail":{"__typename":"ImageSharp","ImageSharp_small":{"layout":"fixed","placeholder":{"fallback":"data:image/svg+xml,%3csvg%20xmlns='http://www.w3.org/2000/svg'%20width='48'%20height='48'%20viewBox='0%200%2048%2048'%20preserveAspectRatio='none'%3e%3cpath%20d='M22%203c-2%201-3%204-4%207l-2%205c-2%202-2%202-2-1l-2-3c-1%200-1%202%202%208%200%202%202%203%204%204%202%200%203%202%203%203h1c1-1%201-2-2-4l-4-5h1l2%201v-2c-2-1-2-1%200-1l2-2c0-6%204-9%2011-9%204%200%204%200%205%204v16c-1%201-1%201%200%200%202-3%203-11%201-19l-1-5h-6c-5%200-7%200-9%203m4%2023l3%202%203%201-2%203-2%203-4-4-5-4v21h18l-1-5c0-6%201-5%203%201l1%204v-5l-1-9c0-3-1-4-2-5-2-1-2-1-2%201%202%203%202%205%201%207-1%201-1-1-1-9%200-1-1-2-3-1l-4-1h-2'%20fill='%23d3d3d3'%20fill-rule='evenodd'/%3e%3c/svg%3e"},"images":{"fallback":{"src":"/static/011b3215b6b7e782f02d67aebfa4c319/a7a66/chris-wright.png","srcSet":"/static/011b3215b6b7e782f02d67aebfa4c319/a7a66/chris-wright.png 48w,\n/static/011b3215b6b7e782f02d67aebfa4c319/416a0/chris-wright.png 96w","sizes":"48px"},"sources":[{"srcSet":"/static/011b3215b6b7e782f02d67aebfa4c319/a3542/chris-wright.webp 48w,\n/static/011b3215b6b7e782f02d67aebfa4c319/0f66d/chris-wright.webp 96w","type":"image/webp","sizes":"48px"}]},"width":48,"height":48},"ImageSharp_regular":{"layout":"fixed","placeholder":{"fallback":"data:image/svg+xml,%3csvg%20xmlns='http://www.w3.org/2000/svg'%20width='48'%20height='48'%20viewBox='0%200%2048%2048'%20preserveAspectRatio='none'%3e%3cpath%20d='M22%203c-2%201-3%204-4%207l-2%205c-2%202-2%202-2-1l-2-3c-1%200-1%202%202%208%200%202%202%203%204%204%202%200%203%202%203%203h1c1-1%201-2-2-4l-4-5h1l2%201v-2c-2-1-2-1%200-1l2-2c0-6%204-9%2011-9%204%200%204%200%205%204v16c-1%201-1%201%200%200%202-3%203-11%201-19l-1-5h-6c-5%200-7%200-9%203m4%2023l3%202%203%201-2%203-2%203-4-4-5-4v21h18l-1-5c0-6%201-5%203%201l1%204v-5l-1-9c0-3-1-4-2-5-2-1-2-1-2%201%202%203%202%205%201%207-1%201-1-1-1-9%200-1-1-2-3-1l-4-1h-2'%20fill='%23d3d3d3'%20fill-rule='evenodd'/%3e%3c/svg%3e"},"images":{"fallback":{"src":"/static/011b3215b6b7e782f02d67aebfa4c319/46e60/chris-wright.png","srcSet":"/static/011b3215b6b7e782f02d67aebfa4c319/46e60/chris-wright.png 150w,\n/static/011b3215b6b7e782f02d67aebfa4c319/d612b/chris-wright.png 300w","sizes":"150px"},"sources":[{"srcSet":"/static/011b3215b6b7e782f02d67aebfa4c319/ae23d/chris-wright.webp 150w,\n/static/011b3215b6b7e782f02d67aebfa4c319/bd37b/chris-wright.webp 300w","type":"image/webp","sizes":"150px"}]},"width":150,"height":150}}},"thumbnail":null},{"id":"fe986259-c813-5d21-8619-2b0cd0dc84ee","title":"Running EPI2ME Labs Notebooks on Remote Computers","slug":"/running-epi2me-labs-notebooks-on-remote-computers/","link":null,"excerpt":"This blog post is a short introduction to running epi2me labs on a remote machine that you have…","timeToRead":2,"featured":null,"thumbnailText":null,"date":"March 17, 2021","category":{"id":"3b57f748-b69a-5dd6-b23d-101bf590b928","name":"How Tos","slug":"/category/how-tos/","color":"#B8E986","icon":"/static/1de85bbd781531b61bf5a25b83d72d32/how-tos.svg"},"author":{"id":"81bbaf7c-c9b4-518d-a495-22ae2d5d2c5b","name":"Amber Wright","slug":"/author/amber-wright/","title":"Bioinformatican","description":"I work with ONT customer support staff to provide technical support for EPI2ME Labs products and improve user experience.","skills":["Bioinfo-mortician"],"social":null,"thumbnail":null},"thumbnail":null},{"id":"e7c4e67d-8529-50b3-8406-caa342983ceb","title":"EPI2ME Labs 21.02 Release","slug":"/epi2me-labs-21.02-release/","link":null,"excerpt":"We are delighted to release this month's update to EPI2ME Labs. The 2021-02.01\nrelease addresses…","timeToRead":2,"featured":null,"thumbnailText":null,"date":"February 10, 2021","category":{"id":"e96a123f-55ff-57bf-a8b3-71cc7e5e5ebd","name":"Software Releases","slug":"/category/software-releases/","color":"#17BB75","icon":"/static/a7c604050eccf560e4c0749d79c6866b/softwarereleases.svg"},"author":{"id":"c7f2f3ef-0225-5ca7-b545-0d9fcc3709f7","name":"Stephen Rudd","slug":"/author/stephen-rudd/","title":"Bioinformatics product manager","description":"I engage with Oxford Nanopore Technologies' customers to understand their needs and turn these into EPI2ME Labs products.","skills":["Bioinformatics","Product Management"],"social":null,"thumbnail":null},"thumbnail":null},{"id":"40bf01ab-eba4-53f7-8221-7400d2527902","title":"EPI2ME Labs 20.11 Release","slug":"/epi2me-labs-20.11-release/","link":null,"excerpt":"We are pleased to introduce a new release of our EPI2ME Labs. We are delighted to introduce new…","timeToRead":2,"featured":null,"thumbnailText":null,"date":"December 03, 2020","category":{"id":"e96a123f-55ff-57bf-a8b3-71cc7e5e5ebd","name":"Software Releases","slug":"/category/software-releases/","color":"#17BB75","icon":"/static/a7c604050eccf560e4c0749d79c6866b/softwarereleases.svg"},"author":{"id":"c7f2f3ef-0225-5ca7-b545-0d9fcc3709f7","name":"Stephen Rudd","slug":"/author/stephen-rudd/","title":"Bioinformatics product manager","description":"I engage with Oxford Nanopore Technologies' customers to understand their needs and turn these into EPI2ME Labs products.","skills":["Bioinformatics","Product Management"],"social":null,"thumbnail":null},"thumbnail":null},{"id":"114761ef-8fad-5c13-a017-37cc04ddfb03","title":"EPI2ME Labs 20.10 Release","slug":"/epi2me-labs-20.10-release/","link":null,"excerpt":"We are pleased to introduce a new release of our EPI2ME Labs. With this update we are now supporting…","timeToRead":1,"featured":null,"thumbnailText":null,"date":"October 26, 2020","category":{"id":"e96a123f-55ff-57bf-a8b3-71cc7e5e5ebd","name":"Software Releases","slug":"/category/software-releases/","color":"#17BB75","icon":"/static/a7c604050eccf560e4c0749d79c6866b/softwarereleases.svg"},"author":{"id":"c7f2f3ef-0225-5ca7-b545-0d9fcc3709f7","name":"Stephen Rudd","slug":"/author/stephen-rudd/","title":"Bioinformatics product manager","description":"I engage with Oxford Nanopore Technologies' customers to understand their needs and turn these into EPI2ME Labs products.","skills":["Bioinformatics","Product Management"],"social":null,"thumbnail":null},"thumbnail":null}],"pageInfo":{"pageCount":2,"hasPreviousPage":false,"hasNextPage":true,"currentPage":1},"totalCount":7}},"pageContext":{"slug":"/tag/notebooks/","limit":6,"skip":0,"collectionType":"tags","paginatePostsPage":true,"basePath":"/","services":{"algolia":false,"mailchimp":false,"disqus":false},"siteUrl":"https://labs.epi2me.io/","mobileMenu":{"title":"Topics","items":[{"name":"Announcements","slug":"/category/announcements/"},{"name":"Data Releases","slug":"/category/data-releases/"},{"name":"How Tos","slug":"/category/how-tos/"},{"name":"Software Releases","slug":"/category/software-releases/"}]},"darkMode":true}},"staticQueryHashes":["1434057858","1992822086"]}