{"componentChunkName":"component---packages-blog-gatsby-blog-core-src-templates-collection-tag-js","path":"/tag/r9.4.1/","result":{"data":{"collectionInfo":{"id":"d10fe1bb-e5dc-5277-89f6-76c531f54d1b","name":"#R9.4.1","slug":"/tag/r9.4.1/"},"posts":{"nodes":[{"id":"0e119af7-50fb-5cbd-998e-d4f4d0e0540b","title":"Detection of 5-methylcytosine modification in GM24385","slug":"/gm24385-5mc/","link":null,"excerpt":"Using nanopore sequencing, researchers have directly identified DNA and RNA base\nmodifications at…","timeToRead":4,"featured":null,"thumbnailText":null,"date":"August 27, 2021","category":{"id":"9be428b6-eb64-5b31-90c7-95d713f46839","name":"Articles","slug":"/category/articles/","color":"#A53F96","icon":"/static/a0eadc6b0bbda21a5e4290df3c07d3b4/articles.svg"},"author":{"id":"e249e936-5b1a-50bf-9224-9f51ef8a1040","name":"Chris Wright","slug":"/author/chris-wright/","title":"Director Customer Workflows","description":"I co-ordinate the activities of the Customer Workflows Group at Oxford Nanopore Technologies. Previously I worked in the Research division at ONT leading the Scientific Data Analysis Group.","skills":["Scientific software design","Computational biology","Consensus and variant calling"],"social":[{"name":"Twitter","url":"https://twitter.com/chrisnrg"}],"thumbnail":{"__typename":"ImageSharp","ImageSharp_small":{"layout":"fixed","placeholder":{"fallback":"data:image/svg+xml,%3csvg%20xmlns='http://www.w3.org/2000/svg'%20width='150'%20height='150'%20viewBox='0%200%20150%20150'%20preserveAspectRatio='none'%3e%3cpath%20d='M48%202c-5%203-12%2014-15%2024-1%205%200%2011%204%2015l2%205%202%208%202%207c1%206%207%2010%2015%2010%205%200%2011%206%209%208l-1%204c0%202%202%201%203-1l3-3c2%200%201-2-3-5l-7-7c-2-3-3-4-5-4-5%200-9-8-6-13%202-3%206-4%209-3%203%203%205%200%205-5-1-4%200-10%203-13l5-7c4-7%207-8%2022-9%2016-1%2017-1%2020%205%205%2011%206%2037%203%2048-6%2017-22%2024-33%2015-4-3-6-3-3%200s9%206%2014%206l4%201-10%2019-3%204-6-6a179%20179%200%2001-19-21l-1%202v7l-2%2031v26h56l-1-5a1097%201097%200%2000-6-59l3-4c12-10%2016-44%207-64l-3-10c0-8%200-8-14-8-20%200-30%204-37%2013-4%207-8%2017-9%2025l-1%206c-3%200-6%205-7%209v4l-3-5c-2-5-2-7-2-15%200-9-1-10-3-2l-1%204-1-3c-2-4-2-10%202-18%205-9%209-13%2016-16l5-2h-4l-8%202m10%2085l-6%201c-19%203-36%2023-45%2054-2%208-2%208%200%208%201%200%202-1%203-6%208-28%2024-49%2042-54l3-1-3%202c-6%208-7%2013-4%2025l2%207-2%204-4%207c-2%204-1%2016%201%2016l1-6c0-5%201-8%204-14l3-7-2-9c-4-10-3-15%204-23l4-5-1%201m51%202l3%206c4%206%204%2010%203%2016-1%205-1%206%201%2011%203%207%206%2019%206%2024%200%203%200%204%202%204%204%200%202-17-3-29-2-4-3-6-2-11%200-6%200-8-4-15-1-3%207%203%2011%207%207%208%2011%2020%2015%2041%201%206%202%207%203%207%203%200%203-1-1-16-6-25-13-36-25-40-2-1-5-2-6-4l-3-1'%20fill='%23d3d3d3'%20fill-rule='evenodd'/%3e%3c/svg%3e"},"images":{"fallback":{"src":"/static/011b3215b6b7e782f02d67aebfa4c319/a7a66/chris-wright.png","srcSet":"/static/011b3215b6b7e782f02d67aebfa4c319/a7a66/chris-wright.png 48w,\n/static/011b3215b6b7e782f02d67aebfa4c319/416a0/chris-wright.png 96w","sizes":"48px"},"sources":[{"srcSet":"/static/011b3215b6b7e782f02d67aebfa4c319/a3542/chris-wright.webp 48w,\n/static/011b3215b6b7e782f02d67aebfa4c319/0f66d/chris-wright.webp 96w","type":"image/webp","sizes":"48px"}]},"width":48,"height":48},"ImageSharp_regular":{"layout":"fixed","placeholder":{"fallback":"data:image/svg+xml,%3csvg%20xmlns='http://www.w3.org/2000/svg'%20width='150'%20height='150'%20viewBox='0%200%20150%20150'%20preserveAspectRatio='none'%3e%3cpath%20d='M48%202c-5%203-12%2014-15%2024-1%205%200%2011%204%2015l2%205%202%208%202%207c1%206%207%2010%2015%2010%205%200%2011%206%209%208l-1%204c0%202%202%201%203-1l3-3c2%200%201-2-3-5l-7-7c-2-3-3-4-5-4-5%200-9-8-6-13%202-3%206-4%209-3%203%203%205%200%205-5-1-4%200-10%203-13l5-7c4-7%207-8%2022-9%2016-1%2017-1%2020%205%205%2011%206%2037%203%2048-6%2017-22%2024-33%2015-4-3-6-3-3%200s9%206%2014%206l4%201-10%2019-3%204-6-6a179%20179%200%2001-19-21l-1%202v7l-2%2031v26h56l-1-5a1097%201097%200%2000-6-59l3-4c12-10%2016-44%207-64l-3-10c0-8%200-8-14-8-20%200-30%204-37%2013-4%207-8%2017-9%2025l-1%206c-3%200-6%205-7%209v4l-3-5c-2-5-2-7-2-15%200-9-1-10-3-2l-1%204-1-3c-2-4-2-10%202-18%205-9%209-13%2016-16l5-2h-4l-8%202m10%2085l-6%201c-19%203-36%2023-45%2054-2%208-2%208%200%208%201%200%202-1%203-6%208-28%2024-49%2042-54l3-1-3%202c-6%208-7%2013-4%2025l2%207-2%204-4%207c-2%204-1%2016%201%2016l1-6c0-5%201-8%204-14l3-7-2-9c-4-10-3-15%204-23l4-5-1%201m51%202l3%206c4%206%204%2010%203%2016-1%205-1%206%201%2011%203%207%206%2019%206%2024%200%203%200%204%202%204%204%200%202-17-3-29-2-4-3-6-2-11%200-6%200-8-4-15-1-3%207%203%2011%207%207%208%2011%2020%2015%2041%201%206%202%207%203%207%203%200%203-1-1-16-6-25-13-36-25-40-2-1-5-2-6-4l-3-1'%20fill='%23d3d3d3'%20fill-rule='evenodd'/%3e%3c/svg%3e"},"images":{"fallback":{"src":"/static/011b3215b6b7e782f02d67aebfa4c319/46e60/chris-wright.png","srcSet":"/static/011b3215b6b7e782f02d67aebfa4c319/46e60/chris-wright.png 150w,\n/static/011b3215b6b7e782f02d67aebfa4c319/d612b/chris-wright.png 300w","sizes":"150px"},"sources":[{"srcSet":"/static/011b3215b6b7e782f02d67aebfa4c319/ae23d/chris-wright.webp 150w,\n/static/011b3215b6b7e782f02d67aebfa4c319/bd37b/chris-wright.webp 300w","type":"image/webp","sizes":"150px"}]},"width":150,"height":150}}},"thumbnail":null},{"id":"e7583a71-be4e-54f0-8678-af7177aff276","title":"Rebasecalling of SRE and ULK GM24385 Dataset","slug":"/gm24385_2021.05/","link":null,"excerpt":"We are please to announce the addition of Guppy 5 basecalling results to our\nshort-read eliminator…","timeToRead":2,"featured":null,"thumbnailText":null,"date":"May 18, 2021","category":{"id":"3ff74572-1cb3-5ebc-b008-2f1c77e1e022","name":"Data Releases","slug":"/category/data-releases/","color":"#5fB8B1","icon":"/static/80e98fdc1b4550a2b9670e9dfc2e4f68/datareleases.svg"},"author":{"id":"e249e936-5b1a-50bf-9224-9f51ef8a1040","name":"Chris Wright","slug":"/author/chris-wright/","title":"Director Customer Workflows","description":"I co-ordinate the activities of the Customer Workflows Group at Oxford Nanopore Technologies. Previously I worked in the Research division at ONT leading the Scientific Data Analysis Group.","skills":["Scientific software design","Computational biology","Consensus and variant calling"],"social":[{"name":"Twitter","url":"https://twitter.com/chrisnrg"}],"thumbnail":{"__typename":"ImageSharp","ImageSharp_small":{"layout":"fixed","placeholder":{"fallback":"data:image/svg+xml,%3csvg%20xmlns='http://www.w3.org/2000/svg'%20width='150'%20height='150'%20viewBox='0%200%20150%20150'%20preserveAspectRatio='none'%3e%3cpath%20d='M48%202c-5%203-12%2014-15%2024-1%205%200%2011%204%2015l2%205%202%208%202%207c1%206%207%2010%2015%2010%205%200%2011%206%209%208l-1%204c0%202%202%201%203-1l3-3c2%200%201-2-3-5l-7-7c-2-3-3-4-5-4-5%200-9-8-6-13%202-3%206-4%209-3%203%203%205%200%205-5-1-4%200-10%203-13l5-7c4-7%207-8%2022-9%2016-1%2017-1%2020%205%205%2011%206%2037%203%2048-6%2017-22%2024-33%2015-4-3-6-3-3%200s9%206%2014%206l4%201-10%2019-3%204-6-6a179%20179%200%2001-19-21l-1%202v7l-2%2031v26h56l-1-5a1097%201097%200%2000-6-59l3-4c12-10%2016-44%207-64l-3-10c0-8%200-8-14-8-20%200-30%204-37%2013-4%207-8%2017-9%2025l-1%206c-3%200-6%205-7%209v4l-3-5c-2-5-2-7-2-15%200-9-1-10-3-2l-1%204-1-3c-2-4-2-10%202-18%205-9%209-13%2016-16l5-2h-4l-8%202m10%2085l-6%201c-19%203-36%2023-45%2054-2%208-2%208%200%208%201%200%202-1%203-6%208-28%2024-49%2042-54l3-1-3%202c-6%208-7%2013-4%2025l2%207-2%204-4%207c-2%204-1%2016%201%2016l1-6c0-5%201-8%204-14l3-7-2-9c-4-10-3-15%204-23l4-5-1%201m51%202l3%206c4%206%204%2010%203%2016-1%205-1%206%201%2011%203%207%206%2019%206%2024%200%203%200%204%202%204%204%200%202-17-3-29-2-4-3-6-2-11%200-6%200-8-4-15-1-3%207%203%2011%207%207%208%2011%2020%2015%2041%201%206%202%207%203%207%203%200%203-1-1-16-6-25-13-36-25-40-2-1-5-2-6-4l-3-1'%20fill='%23d3d3d3'%20fill-rule='evenodd'/%3e%3c/svg%3e"},"images":{"fallback":{"src":"/static/011b3215b6b7e782f02d67aebfa4c319/a7a66/chris-wright.png","srcSet":"/static/011b3215b6b7e782f02d67aebfa4c319/a7a66/chris-wright.png 48w,\n/static/011b3215b6b7e782f02d67aebfa4c319/416a0/chris-wright.png 96w","sizes":"48px"},"sources":[{"srcSet":"/static/011b3215b6b7e782f02d67aebfa4c319/a3542/chris-wright.webp 48w,\n/static/011b3215b6b7e782f02d67aebfa4c319/0f66d/chris-wright.webp 96w","type":"image/webp","sizes":"48px"}]},"width":48,"height":48},"ImageSharp_regular":{"layout":"fixed","placeholder":{"fallback":"data:image/svg+xml,%3csvg%20xmlns='http://www.w3.org/2000/svg'%20width='150'%20height='150'%20viewBox='0%200%20150%20150'%20preserveAspectRatio='none'%3e%3cpath%20d='M48%202c-5%203-12%2014-15%2024-1%205%200%2011%204%2015l2%205%202%208%202%207c1%206%207%2010%2015%2010%205%200%2011%206%209%208l-1%204c0%202%202%201%203-1l3-3c2%200%201-2-3-5l-7-7c-2-3-3-4-5-4-5%200-9-8-6-13%202-3%206-4%209-3%203%203%205%200%205-5-1-4%200-10%203-13l5-7c4-7%207-8%2022-9%2016-1%2017-1%2020%205%205%2011%206%2037%203%2048-6%2017-22%2024-33%2015-4-3-6-3-3%200s9%206%2014%206l4%201-10%2019-3%204-6-6a179%20179%200%2001-19-21l-1%202v7l-2%2031v26h56l-1-5a1097%201097%200%2000-6-59l3-4c12-10%2016-44%207-64l-3-10c0-8%200-8-14-8-20%200-30%204-37%2013-4%207-8%2017-9%2025l-1%206c-3%200-6%205-7%209v4l-3-5c-2-5-2-7-2-15%200-9-1-10-3-2l-1%204-1-3c-2-4-2-10%202-18%205-9%209-13%2016-16l5-2h-4l-8%202m10%2085l-6%201c-19%203-36%2023-45%2054-2%208-2%208%200%208%201%200%202-1%203-6%208-28%2024-49%2042-54l3-1-3%202c-6%208-7%2013-4%2025l2%207-2%204-4%207c-2%204-1%2016%201%2016l1-6c0-5%201-8%204-14l3-7-2-9c-4-10-3-15%204-23l4-5-1%201m51%202l3%206c4%206%204%2010%203%2016-1%205-1%206%201%2011%203%207%206%2019%206%2024%200%203%200%204%202%204%204%200%202-17-3-29-2-4-3-6-2-11%200-6%200-8-4-15-1-3%207%203%2011%207%207%208%2011%2020%2015%2041%201%206%202%207%203%207%203%200%203-1-1-16-6-25-13-36-25-40-2-1-5-2-6-4l-3-1'%20fill='%23d3d3d3'%20fill-rule='evenodd'/%3e%3c/svg%3e"},"images":{"fallback":{"src":"/static/011b3215b6b7e782f02d67aebfa4c319/46e60/chris-wright.png","srcSet":"/static/011b3215b6b7e782f02d67aebfa4c319/46e60/chris-wright.png 150w,\n/static/011b3215b6b7e782f02d67aebfa4c319/d612b/chris-wright.png 300w","sizes":"150px"},"sources":[{"srcSet":"/static/011b3215b6b7e782f02d67aebfa4c319/ae23d/chris-wright.webp 150w,\n/static/011b3215b6b7e782f02d67aebfa4c319/bd37b/chris-wright.webp 300w","type":"image/webp","sizes":"150px"}]},"width":150,"height":150}}},"thumbnail":null},{"id":"9cd9d2c6-69f5-5b96-aa28-ae61b167d863","title":"Structural variation calling with GM24385","slug":"/gm24385_2020.11_sv/","link":null,"excerpt":"In this blog post we will explore structural variant calling using the\n recently released  HG002 (GM…","timeToRead":1,"featured":null,"thumbnailText":null,"date":"December 01, 2020","category":{"id":"3ff74572-1cb3-5ebc-b008-2f1c77e1e022","name":"Data Releases","slug":"/category/data-releases/","color":"#5fB8B1","icon":"/static/80e98fdc1b4550a2b9670e9dfc2e4f68/datareleases.svg"},"author":null,"thumbnail":null},{"id":"6b091383-3396-5395-b664-e3d24f9d642d","title":"November 2020 GM24385 Dataset Release","slug":"/gm24385_2020.11/","link":null,"excerpt":"The data referenced in this page have been superceded by the  June 2021  Guppy 5 rebasecalling We…","timeToRead":1,"featured":null,"thumbnailText":null,"date":"November 26, 2020","category":{"id":"3ff74572-1cb3-5ebc-b008-2f1c77e1e022","name":"Data Releases","slug":"/category/data-releases/","color":"#5fB8B1","icon":"/static/80e98fdc1b4550a2b9670e9dfc2e4f68/datareleases.svg"},"author":null,"thumbnail":null},{"id":"3a8f8bfc-df89-5ed5-b9bc-58e4de736406","title":"Bonito basecalling with R9.4.1","slug":"/bonito/","link":null,"excerpt":"Updated 2020-10-30: This page was edited to reflect the formal release of Bonito v0.3.0 We are…","timeToRead":1,"featured":null,"thumbnailText":null,"date":"October 15, 2020","category":{"id":"3ff74572-1cb3-5ebc-b008-2f1c77e1e022","name":"Data Releases","slug":"/category/data-releases/","color":"#5fB8B1","icon":"/static/80e98fdc1b4550a2b9670e9dfc2e4f68/datareleases.svg"},"author":null,"thumbnail":null},{"id":"771751ac-8845-5dc1-82c5-509be156419f","title":"Small variant calling with GM24385","slug":"/gm24385_snp/","link":null,"excerpt":"In this blog post we will explore small variant calling using the  previously\nreleased  HG002 (GM…","timeToRead":3,"featured":null,"thumbnailText":null,"date":"October 15, 2020","category":{"id":"3ff74572-1cb3-5ebc-b008-2f1c77e1e022","name":"Data Releases","slug":"/category/data-releases/","color":"#5fB8B1","icon":"/static/80e98fdc1b4550a2b9670e9dfc2e4f68/datareleases.svg"},"author":null,"thumbnail":null}],"pageInfo":{"pageCount":2,"hasPreviousPage":false,"hasNextPage":true,"currentPage":1},"totalCount":7}},"pageContext":{"slug":"/tag/r9.4.1/","limit":6,"skip":0,"collectionType":"tags","paginatePostsPage":true,"basePath":"/","services":{"algolia":false,"mailchimp":false,"disqus":false},"siteUrl":"https://labs.epi2me.io/","mobileMenu":{"title":"Topics","items":[{"name":"Announcements","slug":"/category/announcements/"},{"name":"Articles","slug":"/category/articles/"},{"name":"Data Releases","slug":"/category/data-releases/"},{"name":"How Tos","slug":"/category/how-tos/"},{"name":"Software Releases","slug":"/category/software-releases/"}]},"darkMode":true}},"staticQueryHashes":["1135777976","1434057858","1992822086"]}