{"componentChunkName":"component---packages-blog-gatsby-blog-core-src-templates-collection-tag-js","path":"/tag/human-cell-line/","result":{"data":{"collectionInfo":{"id":"6b4f10c2-f4d6-5836-bd13-3a5b68750111","name":"#human cell-line","slug":"/tag/human-cell-line/"},"posts":{"nodes":[{"id":"b621602a-6200-50b8-ae49-42fa525efb9c","title":"Rebasecalling of SRE and ULK GM24385 Dataset","slug":"/gm24385_2021.05/","link":null,"excerpt":"We are please to announce the addition of Guppy 5 basecalling results to our\nshort-read eliminator…","timeToRead":2,"featured":null,"thumbnailText":null,"date":"May 18, 2021","category":{"id":"b10070ae-9346-5270-9137-514f942591f8","name":"Data Releases","slug":"/category/data-releases/","color":"#5fB8B1","icon":"/static/80e98fdc1b4550a2b9670e9dfc2e4f68/datareleases.svg"},"author":{"id":"c20495a8-5a3d-5b66-a061-74ab8f2d0105","name":"Chris Wright","slug":"/author/chris-wright/","title":"Director Customer Workflows","description":"I co-ordinate the activities of the Customer Workflows Group at Oxford Nanopore Technologies. Previously I worked in the Research division at ONT leading the Scientific Data Analysis Group.","skills":["Scientific software design","Computational biology","Consensus and variant calling"],"social":[{"name":"Twitter","url":"https://twitter.com/chrisnrg"}],"thumbnail":{"__typename":"ImageSharp","ImageSharp_small":{"layout":"fixed","placeholder":{"fallback":"data:image/svg+xml,%3csvg%20xmlns='http://www.w3.org/2000/svg'%20width='48'%20height='48'%20viewBox='0%200%2048%2048'%20preserveAspectRatio='none'%3e%3cpath%20d='M22%203c-2%201-3%204-4%207l-2%205c-2%202-2%202-2-1l-2-3c-1%200-1%202%202%208%200%202%202%203%204%204%202%200%203%202%203%203h1c1-1%201-2-2-4l-4-5h1l2%201v-2c-2-1-2-1%200-1l2-2c0-6%204-9%2011-9%204%200%204%200%205%204v16c-1%201-1%201%200%200%202-3%203-11%201-19l-1-5h-6c-5%200-7%200-9%203m4%2023l3%202%203%201-2%203-2%203-4-4-5-4v21h18l-1-5c0-6%201-5%203%201l1%204v-5l-1-9c0-3-1-4-2-5-2-1-2-1-2%201%202%203%202%205%201%207-1%201-1-1-1-9%200-1-1-2-3-1l-4-1h-2'%20fill='%23d3d3d3'%20fill-rule='evenodd'/%3e%3c/svg%3e"},"images":{"fallback":{"src":"/static/011b3215b6b7e782f02d67aebfa4c319/a7a66/chris-wright.png","srcSet":"/static/011b3215b6b7e782f02d67aebfa4c319/a7a66/chris-wright.png 48w,\n/static/011b3215b6b7e782f02d67aebfa4c319/416a0/chris-wright.png 96w","sizes":"48px"},"sources":[{"srcSet":"/static/011b3215b6b7e782f02d67aebfa4c319/a3542/chris-wright.webp 48w,\n/static/011b3215b6b7e782f02d67aebfa4c319/0f66d/chris-wright.webp 96w","type":"image/webp","sizes":"48px"}]},"width":48,"height":48},"ImageSharp_regular":{"layout":"fixed","placeholder":{"fallback":"data:image/svg+xml,%3csvg%20xmlns='http://www.w3.org/2000/svg'%20width='48'%20height='48'%20viewBox='0%200%2048%2048'%20preserveAspectRatio='none'%3e%3cpath%20d='M22%203c-2%201-3%204-4%207l-2%205c-2%202-2%202-2-1l-2-3c-1%200-1%202%202%208%200%202%202%203%204%204%202%200%203%202%203%203h1c1-1%201-2-2-4l-4-5h1l2%201v-2c-2-1-2-1%200-1l2-2c0-6%204-9%2011-9%204%200%204%200%205%204v16c-1%201-1%201%200%200%202-3%203-11%201-19l-1-5h-6c-5%200-7%200-9%203m4%2023l3%202%203%201-2%203-2%203-4-4-5-4v21h18l-1-5c0-6%201-5%203%201l1%204v-5l-1-9c0-3-1-4-2-5-2-1-2-1-2%201%202%203%202%205%201%207-1%201-1-1-1-9%200-1-1-2-3-1l-4-1h-2'%20fill='%23d3d3d3'%20fill-rule='evenodd'/%3e%3c/svg%3e"},"images":{"fallback":{"src":"/static/011b3215b6b7e782f02d67aebfa4c319/46e60/chris-wright.png","srcSet":"/static/011b3215b6b7e782f02d67aebfa4c319/46e60/chris-wright.png 150w,\n/static/011b3215b6b7e782f02d67aebfa4c319/d612b/chris-wright.png 300w","sizes":"150px"},"sources":[{"srcSet":"/static/011b3215b6b7e782f02d67aebfa4c319/ae23d/chris-wright.webp 150w,\n/static/011b3215b6b7e782f02d67aebfa4c319/bd37b/chris-wright.webp 300w","type":"image/webp","sizes":"150px"}]},"width":150,"height":150}}},"thumbnail":null},{"id":"d1b8f62b-12ef-58d9-9aee-4e515a5f4585","title":"Structural variation calling with GM24385","slug":"/gm24385_2020.11_sv/","link":null,"excerpt":"In this blog post we will explore structural variant calling using the\n recently released  HG002 (GM…","timeToRead":1,"featured":null,"thumbnailText":null,"date":"December 01, 2020","category":{"id":"b10070ae-9346-5270-9137-514f942591f8","name":"Data Releases","slug":"/category/data-releases/","color":"#5fB8B1","icon":"/static/80e98fdc1b4550a2b9670e9dfc2e4f68/datareleases.svg"},"author":null,"thumbnail":null},{"id":"84264949-6627-5d7b-8dc7-9f0bb77d1a5f","title":"November 2020 GM24385 Dataset Release","slug":"/gm24385_2020.11/","link":null,"excerpt":"The data referenced in this page have been superceded by the  June 2021  Guppy 5 rebasecalling We…","timeToRead":1,"featured":null,"thumbnailText":null,"date":"November 26, 2020","category":{"id":"b10070ae-9346-5270-9137-514f942591f8","name":"Data Releases","slug":"/category/data-releases/","color":"#5fB8B1","icon":"/static/80e98fdc1b4550a2b9670e9dfc2e4f68/datareleases.svg"},"author":null,"thumbnail":null},{"id":"e07d1c51-b724-557c-9761-0bbf9c4eabed","title":"Bonito basecalling with R9.4.1","slug":"/bonito/","link":null,"excerpt":"Updated 2020-10-30: This page was edited to reflect the formal release of Bonito v0.3.0 We are…","timeToRead":1,"featured":null,"thumbnailText":null,"date":"October 15, 2020","category":{"id":"b10070ae-9346-5270-9137-514f942591f8","name":"Data Releases","slug":"/category/data-releases/","color":"#5fB8B1","icon":"/static/80e98fdc1b4550a2b9670e9dfc2e4f68/datareleases.svg"},"author":null,"thumbnail":null},{"id":"65e1f0cc-98fa-5be0-9d80-72b764932d6f","title":"Small variant calling with GM24385","slug":"/gm24385_snp/","link":null,"excerpt":"In this blog post we will explore small variant calling using the  previously\nreleased  HG002 (GM…","timeToRead":3,"featured":null,"thumbnailText":null,"date":"October 15, 2020","category":{"id":"b10070ae-9346-5270-9137-514f942591f8","name":"Data Releases","slug":"/category/data-releases/","color":"#5fB8B1","icon":"/static/80e98fdc1b4550a2b9670e9dfc2e4f68/datareleases.svg"},"author":null,"thumbnail":null},{"id":"a6c19370-9275-53da-905d-92cfed1b992d","title":"Katuali analysis pipeline for preparing human datasets","slug":"/katuali_human_pipeline/","link":null,"excerpt":"Our recent  GM24385 data release  contains data from multiple\nflowcells and analytes for both the R…","timeToRead":4,"featured":null,"thumbnailText":null,"date":"September 22, 2020","category":{"id":"b10070ae-9346-5270-9137-514f942591f8","name":"Data Releases","slug":"/category/data-releases/","color":"#5fB8B1","icon":"/static/80e98fdc1b4550a2b9670e9dfc2e4f68/datareleases.svg"},"author":null,"thumbnail":null}],"pageInfo":{"pageCount":2,"hasPreviousPage":false,"hasNextPage":true,"currentPage":1},"totalCount":7}},"pageContext":{"slug":"/tag/human-cell-line/","limit":6,"skip":0,"collectionType":"tags","paginatePostsPage":true,"basePath":"/","services":{"algolia":false,"mailchimp":false,"disqus":false},"siteUrl":"https://labs.epi2me.io/","mobileMenu":{"title":"Topics","items":[{"name":"Announcements","slug":"/category/announcements/"},{"name":"Articles","slug":"/category/articles/"},{"name":"Data Releases","slug":"/category/data-releases/"},{"name":"How Tos","slug":"/category/how-tos/"},{"name":"Software Releases","slug":"/category/software-releases/"}]},"darkMode":true}},"staticQueryHashes":["1135777976","1434057858","1992822086"]}