{
    "componentChunkName": "component---packages-blog-gatsby-blog-core-src-templates-collection-category-js",
    "path": "/category/how-tos/",
    "result": {"data":{"collectionInfo":{"id":"c2018669-f02b-52f9-ad11-f6276eaff9f6","name":"How Tos","slug":"/category/how-tos/","description":"Short information articles decribing how to do interesting things with EPI2ME Labs software."},"posts":{"nodes":[{"id":"748536d9-841a-58d7-b67e-e1d90e545f04","title":"Monkeypox Workflow","slug":"/basic-monkeypox-workflow/","link":null,"excerpt":"Monkeypox (MPX) is a double-stranded DNA virus. There is an ongoing outbreak of the West African…","timeToRead":2,"featured":null,"thumbnailText":null,"date":"June 01, 2022","category":{"id":"c2018669-f02b-52f9-ad11-f6276eaff9f6","name":"How Tos","slug":"/category/how-tos/","color":"#B8E986","icon":"/static/7259c9d3481cdab1f093943d7d0bc600/how-tos.svg"},"author":{"id":"dd631256-080f-5d04-8609-031c7d6fe57b","name":"Matt Parker","slug":"/author/matt-parker/","title":"Clinical Bioinformatics Lead","description":"I focus on bioinformatics workflows for clinical applications, ensuring our workflows meet relevant standards.","skills":["Bioinformatics","Clinical Workflows"],"social":null,"thumbnail":{"__typename":"ImageSharp","ImageSharp_small":{"layout":"fixed","placeholder":{"fallback":"data:image/svg+xml,%3csvg%20xmlns='http://www.w3.org/2000/svg'%20width='48'%20height='48'%20viewBox='0%200%2048%2048'%20preserveAspectRatio='none'%3e%3cpath%20d='M21%2012l-4%202c-3%200-3%200-1%201l3%201%209%201%206%201h10c1-2%200-2-1-3l-4-1h-4c-1%202-6%201-7-1l-7-1m-9%209c2%2011%203%2014%208%2019%202%203%204%204%206%204%203%200%203%200%203%202-1%202%200%202%209%202%2010%200%2011-1%208-3-1-2-1-2%201-2s-1-2-5-2c-3-1-4-1-4-3%202-3%202-8%202-7-1%201-2%200-4-2-1-1-2-2-3-1h-3l-5%203-3%203-3-2c-3-3-5-9-5-13l-1-4-1%206'%20fill='%23d3d3d3'%20fill-rule='evenodd'/%3e%3c/svg%3e"},"images":{"fallback":{"src":"/static/e960a5c57f72b84c747215e272cc480e/a7a66/matt-parker.png","srcSet":"/static/e960a5c57f72b84c747215e272cc480e/a7a66/matt-parker.png 48w,\n/static/e960a5c57f72b84c747215e272cc480e/416a0/matt-parker.png 96w","sizes":"48px"},"sources":[{"srcSet":"/static/e960a5c57f72b84c747215e272cc480e/a3542/matt-parker.webp 48w,\n/static/e960a5c57f72b84c747215e272cc480e/0f66d/matt-parker.webp 96w","type":"image/webp","sizes":"48px"}]},"width":48,"height":48},"ImageSharp_regular":{"layout":"fixed","placeholder":{"fallback":"data:image/svg+xml,%3csvg%20xmlns='http://www.w3.org/2000/svg'%20width='48'%20height='48'%20viewBox='0%200%2048%2048'%20preserveAspectRatio='none'%3e%3cpath%20d='M21%2012l-4%202c-3%200-3%200-1%201l3%201%209%201%206%201h10c1-2%200-2-1-3l-4-1h-4c-1%202-6%201-7-1l-7-1m-9%209c2%2011%203%2014%208%2019%202%203%204%204%206%204%203%200%203%200%203%202-1%202%200%202%209%202%2010%200%2011-1%208-3-1-2-1-2%201-2s-1-2-5-2c-3-1-4-1-4-3%202-3%202-8%202-7-1%201-2%200-4-2-1-1-2-2-3-1h-3l-5%203-3%203-3-2c-3-3-5-9-5-13l-1-4-1%206'%20fill='%23d3d3d3'%20fill-rule='evenodd'/%3e%3c/svg%3e"},"images":{"fallback":{"src":"/static/e960a5c57f72b84c747215e272cc480e/46e60/matt-parker.png","srcSet":"/static/e960a5c57f72b84c747215e272cc480e/46e60/matt-parker.png 150w,\n/static/e960a5c57f72b84c747215e272cc480e/d612b/matt-parker.png 300w","sizes":"150px"},"sources":[{"srcSet":"/static/e960a5c57f72b84c747215e272cc480e/ae23d/matt-parker.webp 150w,\n/static/e960a5c57f72b84c747215e272cc480e/bd37b/matt-parker.webp 300w","type":"image/webp","sizes":"150px"}]},"width":150,"height":150}}},"thumbnail":{"__typename":"ImageSharp","ImageSharp_vertical":{"layout":"constrained","backgroundColor":"#284868","images":{"fallback":{"src":"/static/ba3161227865caebdbeca546d6284ee2/144fe/AdobeStock_506172741.jpg","srcSet":"/static/ba3161227865caebdbeca546d6284ee2/9d7b9/AdobeStock_506172741.jpg 190w,\n/static/ba3161227865caebdbeca546d6284ee2/144fe/AdobeStock_506172741.jpg 380w","sizes":"(min-width: 380px) 380px, 100vw"},"sources":[{"srcSet":"/static/ba3161227865caebdbeca546d6284ee2/228d6/AdobeStock_506172741.webp 190w,\n/static/ba3161227865caebdbeca546d6284ee2/6b99c/AdobeStock_506172741.webp 380w","type":"image/webp","sizes":"(min-width: 380px) 380px, 100vw"}]},"width":380,"height":290},"ImageSharp_hero":{"layout":"constrained","backgroundColor":"#284868","images":{"fallback":{"src":"/static/ba3161227865caebdbeca546d6284ee2/5e493/AdobeStock_506172741.jpg","srcSet":"/static/ba3161227865caebdbeca546d6284ee2/696c0/AdobeStock_506172741.jpg 800w,\n/static/ba3161227865caebdbeca546d6284ee2/5e493/AdobeStock_506172741.jpg 1600w","sizes":"(min-width: 1600px) 1600px, 100vw"},"sources":[{"srcSet":"/static/ba3161227865caebdbeca546d6284ee2/c9f06/AdobeStock_506172741.webp 800w,\n/static/ba3161227865caebdbeca546d6284ee2/f47df/AdobeStock_506172741.webp 1600w","type":"image/webp","sizes":"(min-width: 1600px) 1600px, 100vw"}]},"width":1600,"height":650}}},{"id":"2064e565-5f32-54a9-8d45-7885730c06f2","title":"Data access within EPI2ME Labs","slug":"/mount-folder-labslauncher/","link":null,"excerpt":"The  Data Mount  folder is the location within notebooks tutorials available for reading and writing…","timeToRead":1,"featured":null,"thumbnailText":null,"date":"May 23, 2022","category":{"id":"c2018669-f02b-52f9-ad11-f6276eaff9f6","name":"How Tos","slug":"/category/how-tos/","color":"#B8E986","icon":"/static/7259c9d3481cdab1f093943d7d0bc600/how-tos.svg"},"author":{"id":"5293917f-c80a-52a1-806a-1ba73b066652","name":"Neil Horner","slug":"/author/neil-horner/","title":"Bioinformatician","description":"My focus is on developing and maintaining various EPI2ME Labs workflows.","skills":["Bioinformatics","Microbiology"],"social":null,"thumbnail":{"__typename":"ImageSharp","ImageSharp_small":{"layout":"fixed","placeholder":{"fallback":"data:image/svg+xml,%3csvg%20xmlns='http://www.w3.org/2000/svg'%20width='48'%20height='48'%20viewBox='0%200%2048%2048'%20preserveAspectRatio='none'%3e%3cpath%20d='M12%2030c1%206%206%2012%2010%2012%202%200%203%201%203%202h2c1-2%204-3%204%200l-2%203%208%201h9c0-1-11-8-13-8l1-3c2-4%203-8%201-6h-2c0-3-3-4-8-3-6%200-7%201-7%203%200%204%200%204-3%200l-3-5v4'%20fill='%23d3d3d3'%20fill-rule='evenodd'/%3e%3c/svg%3e"},"images":{"fallback":{"src":"/static/3e6b6906027e89b5e7b2b0c9caffafb8/a7a66/neil-horner.png","srcSet":"/static/3e6b6906027e89b5e7b2b0c9caffafb8/a7a66/neil-horner.png 48w,\n/static/3e6b6906027e89b5e7b2b0c9caffafb8/416a0/neil-horner.png 96w","sizes":"48px"},"sources":[{"srcSet":"/static/3e6b6906027e89b5e7b2b0c9caffafb8/a3542/neil-horner.webp 48w,\n/static/3e6b6906027e89b5e7b2b0c9caffafb8/0f66d/neil-horner.webp 96w","type":"image/webp","sizes":"48px"}]},"width":48,"height":48},"ImageSharp_regular":{"layout":"fixed","placeholder":{"fallback":"data:image/svg+xml,%3csvg%20xmlns='http://www.w3.org/2000/svg'%20width='48'%20height='48'%20viewBox='0%200%2048%2048'%20preserveAspectRatio='none'%3e%3cpath%20d='M12%2030c1%206%206%2012%2010%2012%202%200%203%201%203%202h2c1-2%204-3%204%200l-2%203%208%201h9c0-1-11-8-13-8l1-3c2-4%203-8%201-6h-2c0-3-3-4-8-3-6%200-7%201-7%203%200%204%200%204-3%200l-3-5v4'%20fill='%23d3d3d3'%20fill-rule='evenodd'/%3e%3c/svg%3e"},"images":{"fallback":{"src":"/static/3e6b6906027e89b5e7b2b0c9caffafb8/46e60/neil-horner.png","srcSet":"/static/3e6b6906027e89b5e7b2b0c9caffafb8/46e60/neil-horner.png 150w,\n/static/3e6b6906027e89b5e7b2b0c9caffafb8/d612b/neil-horner.png 300w","sizes":"150px"},"sources":[{"srcSet":"/static/3e6b6906027e89b5e7b2b0c9caffafb8/ae23d/neil-horner.webp 150w,\n/static/3e6b6906027e89b5e7b2b0c9caffafb8/bd37b/neil-horner.webp 300w","type":"image/webp","sizes":"150px"}]},"width":150,"height":150}}},"thumbnail":null},{"id":"865abef9-98e6-57cd-9297-e659656a0710","title":"SARS-CoV-2 Midnight Scheme Update","slug":"/ont-midnight-scheme-update/","link":null,"excerpt":"Introduction This blog post will explain the changes we are making to the primer scheme naming in…","timeToRead":3,"featured":null,"thumbnailText":null,"date":"April 15, 2022","category":{"id":"c2018669-f02b-52f9-ad11-f6276eaff9f6","name":"How Tos","slug":"/category/how-tos/","color":"#B8E986","icon":"/static/7259c9d3481cdab1f093943d7d0bc600/how-tos.svg"},"author":{"id":"dd631256-080f-5d04-8609-031c7d6fe57b","name":"Matt Parker","slug":"/author/matt-parker/","title":"Clinical Bioinformatics Lead","description":"I focus on bioinformatics workflows for clinical applications, ensuring our workflows meet relevant standards.","skills":["Bioinformatics","Clinical Workflows"],"social":null,"thumbnail":{"__typename":"ImageSharp","ImageSharp_small":{"layout":"fixed","placeholder":{"fallback":"data:image/svg+xml,%3csvg%20xmlns='http://www.w3.org/2000/svg'%20width='48'%20height='48'%20viewBox='0%200%2048%2048'%20preserveAspectRatio='none'%3e%3cpath%20d='M21%2012l-4%202c-3%200-3%200-1%201l3%201%209%201%206%201h10c1-2%200-2-1-3l-4-1h-4c-1%202-6%201-7-1l-7-1m-9%209c2%2011%203%2014%208%2019%202%203%204%204%206%204%203%200%203%200%203%202-1%202%200%202%209%202%2010%200%2011-1%208-3-1-2-1-2%201-2s-1-2-5-2c-3-1-4-1-4-3%202-3%202-8%202-7-1%201-2%200-4-2-1-1-2-2-3-1h-3l-5%203-3%203-3-2c-3-3-5-9-5-13l-1-4-1%206'%20fill='%23d3d3d3'%20fill-rule='evenodd'/%3e%3c/svg%3e"},"images":{"fallback":{"src":"/static/e960a5c57f72b84c747215e272cc480e/a7a66/matt-parker.png","srcSet":"/static/e960a5c57f72b84c747215e272cc480e/a7a66/matt-parker.png 48w,\n/static/e960a5c57f72b84c747215e272cc480e/416a0/matt-parker.png 96w","sizes":"48px"},"sources":[{"srcSet":"/static/e960a5c57f72b84c747215e272cc480e/a3542/matt-parker.webp 48w,\n/static/e960a5c57f72b84c747215e272cc480e/0f66d/matt-parker.webp 96w","type":"image/webp","sizes":"48px"}]},"width":48,"height":48},"ImageSharp_regular":{"layout":"fixed","placeholder":{"fallback":"data:image/svg+xml,%3csvg%20xmlns='http://www.w3.org/2000/svg'%20width='48'%20height='48'%20viewBox='0%200%2048%2048'%20preserveAspectRatio='none'%3e%3cpath%20d='M21%2012l-4%202c-3%200-3%200-1%201l3%201%209%201%206%201h10c1-2%200-2-1-3l-4-1h-4c-1%202-6%201-7-1l-7-1m-9%209c2%2011%203%2014%208%2019%202%203%204%204%206%204%203%200%203%200%203%202-1%202%200%202%209%202%2010%200%2011-1%208-3-1-2-1-2%201-2s-1-2-5-2c-3-1-4-1-4-3%202-3%202-8%202-7-1%201-2%200-4-2-1-1-2-2-3-1h-3l-5%203-3%203-3-2c-3-3-5-9-5-13l-1-4-1%206'%20fill='%23d3d3d3'%20fill-rule='evenodd'/%3e%3c/svg%3e"},"images":{"fallback":{"src":"/static/e960a5c57f72b84c747215e272cc480e/46e60/matt-parker.png","srcSet":"/static/e960a5c57f72b84c747215e272cc480e/46e60/matt-parker.png 150w,\n/static/e960a5c57f72b84c747215e272cc480e/d612b/matt-parker.png 300w","sizes":"150px"},"sources":[{"srcSet":"/static/e960a5c57f72b84c747215e272cc480e/ae23d/matt-parker.webp 150w,\n/static/e960a5c57f72b84c747215e272cc480e/bd37b/matt-parker.webp 300w","type":"image/webp","sizes":"150px"}]},"width":150,"height":150}}},"thumbnail":null},{"id":"6c2850b3-7d1f-5a0b-9222-c1b663a063c3","title":"SARS-CoV-2 Midnight Analysis","slug":"/sarscov2-midnight-analysis/","link":null,"excerpt":"Introduction I wanted to write a blog post about SARS-CoV-2 sequencing data analysis to achieve two…","timeToRead":6,"featured":null,"thumbnailText":null,"date":"January 24, 2022","category":{"id":"c2018669-f02b-52f9-ad11-f6276eaff9f6","name":"How Tos","slug":"/category/how-tos/","color":"#B8E986","icon":"/static/7259c9d3481cdab1f093943d7d0bc600/how-tos.svg"},"author":{"id":"dd631256-080f-5d04-8609-031c7d6fe57b","name":"Matt Parker","slug":"/author/matt-parker/","title":"Clinical Bioinformatics Lead","description":"I focus on bioinformatics workflows for clinical applications, ensuring our workflows meet relevant standards.","skills":["Bioinformatics","Clinical Workflows"],"social":null,"thumbnail":{"__typename":"ImageSharp","ImageSharp_small":{"layout":"fixed","placeholder":{"fallback":"data:image/svg+xml,%3csvg%20xmlns='http://www.w3.org/2000/svg'%20width='48'%20height='48'%20viewBox='0%200%2048%2048'%20preserveAspectRatio='none'%3e%3cpath%20d='M21%2012l-4%202c-3%200-3%200-1%201l3%201%209%201%206%201h10c1-2%200-2-1-3l-4-1h-4c-1%202-6%201-7-1l-7-1m-9%209c2%2011%203%2014%208%2019%202%203%204%204%206%204%203%200%203%200%203%202-1%202%200%202%209%202%2010%200%2011-1%208-3-1-2-1-2%201-2s-1-2-5-2c-3-1-4-1-4-3%202-3%202-8%202-7-1%201-2%200-4-2-1-1-2-2-3-1h-3l-5%203-3%203-3-2c-3-3-5-9-5-13l-1-4-1%206'%20fill='%23d3d3d3'%20fill-rule='evenodd'/%3e%3c/svg%3e"},"images":{"fallback":{"src":"/static/e960a5c57f72b84c747215e272cc480e/a7a66/matt-parker.png","srcSet":"/static/e960a5c57f72b84c747215e272cc480e/a7a66/matt-parker.png 48w,\n/static/e960a5c57f72b84c747215e272cc480e/416a0/matt-parker.png 96w","sizes":"48px"},"sources":[{"srcSet":"/static/e960a5c57f72b84c747215e272cc480e/a3542/matt-parker.webp 48w,\n/static/e960a5c57f72b84c747215e272cc480e/0f66d/matt-parker.webp 96w","type":"image/webp","sizes":"48px"}]},"width":48,"height":48},"ImageSharp_regular":{"layout":"fixed","placeholder":{"fallback":"data:image/svg+xml,%3csvg%20xmlns='http://www.w3.org/2000/svg'%20width='48'%20height='48'%20viewBox='0%200%2048%2048'%20preserveAspectRatio='none'%3e%3cpath%20d='M21%2012l-4%202c-3%200-3%200-1%201l3%201%209%201%206%201h10c1-2%200-2-1-3l-4-1h-4c-1%202-6%201-7-1l-7-1m-9%209c2%2011%203%2014%208%2019%202%203%204%204%206%204%203%200%203%200%203%202-1%202%200%202%209%202%2010%200%2011-1%208-3-1-2-1-2%201-2s-1-2-5-2c-3-1-4-1-4-3%202-3%202-8%202-7-1%201-2%200-4-2-1-1-2-2-3-1h-3l-5%203-3%203-3-2c-3-3-5-9-5-13l-1-4-1%206'%20fill='%23d3d3d3'%20fill-rule='evenodd'/%3e%3c/svg%3e"},"images":{"fallback":{"src":"/static/e960a5c57f72b84c747215e272cc480e/46e60/matt-parker.png","srcSet":"/static/e960a5c57f72b84c747215e272cc480e/46e60/matt-parker.png 150w,\n/static/e960a5c57f72b84c747215e272cc480e/d612b/matt-parker.png 300w","sizes":"150px"},"sources":[{"srcSet":"/static/e960a5c57f72b84c747215e272cc480e/ae23d/matt-parker.webp 150w,\n/static/e960a5c57f72b84c747215e272cc480e/bd37b/matt-parker.webp 300w","type":"image/webp","sizes":"150px"}]},"width":150,"height":150}}},"thumbnail":null},{"id":"c5d9ce20-4931-574c-90f3-09ec8c93d857","title":"Changing Location of Workflow Container Images","slug":"/docker-storage/","link":null,"excerpt":"We've noticed that common struggle from GridION and PromethION users of EPI2ME Labs\nNextflow…","timeToRead":2,"featured":null,"thumbnailText":null,"date":"October 20, 2021","category":{"id":"c2018669-f02b-52f9-ad11-f6276eaff9f6","name":"How Tos","slug":"/category/how-tos/","color":"#B8E986","icon":"/static/7259c9d3481cdab1f093943d7d0bc600/how-tos.svg"},"author":{"id":"5d4e9505-8234-5e6d-bcac-6e18fd7afc90","name":"Chris Wright","slug":"/author/chris-wright/","title":"Director Customer Workflows","description":"I co-ordinate the activities of the Customer Workflows Group at Oxford Nanopore Technologies. Previously I worked in the Research division at ONT leading the Scientific Data Analysis Group.","skills":["Scientific software design","Computational biology","Consensus and variant calling"],"social":[{"name":"Twitter","url":"https://twitter.com/chrisnrg"}],"thumbnail":{"__typename":"ImageSharp","ImageSharp_small":{"layout":"fixed","placeholder":{"fallback":"data:image/svg+xml,%3csvg%20xmlns='http://www.w3.org/2000/svg'%20width='150'%20height='150'%20viewBox='0%200%20150%20150'%20preserveAspectRatio='none'%3e%3cpath%20d='M48%202c-5%203-12%2014-15%2024-1%205%200%2011%204%2015l2%205%202%208%202%207c1%206%207%2010%2015%2010%205%200%2011%206%209%208l-1%204c0%202%202%201%203-1l3-3c2%200%201-2-3-5l-7-7c-2-3-3-4-5-4-5%200-9-8-6-13%202-3%206-4%209-3%203%203%205%200%205-5-1-4%200-10%203-13l5-7c4-7%207-8%2022-9%2016-1%2017-1%2020%205%205%2011%206%2037%203%2048-6%2017-22%2024-33%2015-4-3-6-3-3%200s9%206%2014%206l4%201-10%2019-3%204-6-6a179%20179%200%2001-19-21l-1%202v7l-2%2031v26h56l-1-5a1097%201097%200%2000-6-59l3-4c12-10%2016-44%207-64l-3-10c0-8%200-8-14-8-20%200-30%204-37%2013-4%207-8%2017-9%2025l-1%206c-3%200-6%205-7%209v4l-3-5c-2-5-2-7-2-15%200-9-1-10-3-2l-1%204-1-3c-2-4-2-10%202-18%205-9%209-13%2016-16l5-2h-4l-8%202m10%2085l-6%201c-19%203-36%2023-45%2054-2%208-2%208%200%208%201%200%202-1%203-6%208-28%2024-49%2042-54l3-1-3%202c-6%208-7%2013-4%2025l2%207-2%204-4%207c-2%204-1%2016%201%2016l1-6c0-5%201-8%204-14l3-7-2-9c-4-10-3-15%204-23l4-5-1%201m51%202l3%206c4%206%204%2010%203%2016-1%205-1%206%201%2011%203%207%206%2019%206%2024%200%203%200%204%202%204%204%200%202-17-3-29-2-4-3-6-2-11%200-6%200-8-4-15-1-3%207%203%2011%207%207%208%2011%2020%2015%2041%201%206%202%207%203%207%203%200%203-1-1-16-6-25-13-36-25-40-2-1-5-2-6-4l-3-1'%20fill='%23d3d3d3'%20fill-rule='evenodd'/%3e%3c/svg%3e"},"images":{"fallback":{"src":"/static/011b3215b6b7e782f02d67aebfa4c319/a7a66/chris-wright.png","srcSet":"/static/011b3215b6b7e782f02d67aebfa4c319/a7a66/chris-wright.png 48w,\n/static/011b3215b6b7e782f02d67aebfa4c319/416a0/chris-wright.png 96w","sizes":"48px"},"sources":[{"srcSet":"/static/011b3215b6b7e782f02d67aebfa4c319/a3542/chris-wright.webp 48w,\n/static/011b3215b6b7e782f02d67aebfa4c319/0f66d/chris-wright.webp 96w","type":"image/webp","sizes":"48px"}]},"width":48,"height":48},"ImageSharp_regular":{"layout":"fixed","placeholder":{"fallback":"data:image/svg+xml,%3csvg%20xmlns='http://www.w3.org/2000/svg'%20width='150'%20height='150'%20viewBox='0%200%20150%20150'%20preserveAspectRatio='none'%3e%3cpath%20d='M48%202c-5%203-12%2014-15%2024-1%205%200%2011%204%2015l2%205%202%208%202%207c1%206%207%2010%2015%2010%205%200%2011%206%209%208l-1%204c0%202%202%201%203-1l3-3c2%200%201-2-3-5l-7-7c-2-3-3-4-5-4-5%200-9-8-6-13%202-3%206-4%209-3%203%203%205%200%205-5-1-4%200-10%203-13l5-7c4-7%207-8%2022-9%2016-1%2017-1%2020%205%205%2011%206%2037%203%2048-6%2017-22%2024-33%2015-4-3-6-3-3%200s9%206%2014%206l4%201-10%2019-3%204-6-6a179%20179%200%2001-19-21l-1%202v7l-2%2031v26h56l-1-5a1097%201097%200%2000-6-59l3-4c12-10%2016-44%207-64l-3-10c0-8%200-8-14-8-20%200-30%204-37%2013-4%207-8%2017-9%2025l-1%206c-3%200-6%205-7%209v4l-3-5c-2-5-2-7-2-15%200-9-1-10-3-2l-1%204-1-3c-2-4-2-10%202-18%205-9%209-13%2016-16l5-2h-4l-8%202m10%2085l-6%201c-19%203-36%2023-45%2054-2%208-2%208%200%208%201%200%202-1%203-6%208-28%2024-49%2042-54l3-1-3%202c-6%208-7%2013-4%2025l2%207-2%204-4%207c-2%204-1%2016%201%2016l1-6c0-5%201-8%204-14l3-7-2-9c-4-10-3-15%204-23l4-5-1%201m51%202l3%206c4%206%204%2010%203%2016-1%205-1%206%201%2011%203%207%206%2019%206%2024%200%203%200%204%202%204%204%200%202-17-3-29-2-4-3-6-2-11%200-6%200-8-4-15-1-3%207%203%2011%207%207%208%2011%2020%2015%2041%201%206%202%207%203%207%203%200%203-1-1-16-6-25-13-36-25-40-2-1-5-2-6-4l-3-1'%20fill='%23d3d3d3'%20fill-rule='evenodd'/%3e%3c/svg%3e"},"images":{"fallback":{"src":"/static/011b3215b6b7e782f02d67aebfa4c319/46e60/chris-wright.png","srcSet":"/static/011b3215b6b7e782f02d67aebfa4c319/46e60/chris-wright.png 150w,\n/static/011b3215b6b7e782f02d67aebfa4c319/d612b/chris-wright.png 300w","sizes":"150px"},"sources":[{"srcSet":"/static/011b3215b6b7e782f02d67aebfa4c319/ae23d/chris-wright.webp 150w,\n/static/011b3215b6b7e782f02d67aebfa4c319/bd37b/chris-wright.webp 300w","type":"image/webp","sizes":"150px"}]},"width":150,"height":150}}},"thumbnail":null},{"id":"066e86b9-7e0a-5947-80ba-ebe029811e43","title":"Nextflow in Windows with WSL2","slug":"/nextflow-on-windows/","link":null,"excerpt":"It is easy to run and develop Nextflow workflows on Windows but there are some\nadditional set up…","timeToRead":3,"featured":null,"thumbnailText":null,"date":"October 20, 2021","category":{"id":"c2018669-f02b-52f9-ad11-f6276eaff9f6","name":"How Tos","slug":"/category/how-tos/","color":"#B8E986","icon":"/static/7259c9d3481cdab1f093943d7d0bc600/how-tos.svg"},"author":{"id":"43d4aa67-ac85-52e9-8de5-eea91504d671","name":"Sarah Griffiths","slug":"/author/sarah-griffiths/","title":"Bioinformatician","description":"I'm a bioinformatician working on creating new workflows and ensuring our analysis notebooks are maintained for all levels of EPI2ME Labs' users.","skills":["Bioinformatics","Data Visualization"],"social":null,"thumbnail":{"__typename":"ImageSharp","ImageSharp_small":{"layout":"fixed","placeholder":{"fallback":"data:image/svg+xml,%3csvg%20xmlns='http://www.w3.org/2000/svg'%20width='150'%20height='150'%20viewBox='0%200%20150%20150'%20preserveAspectRatio='none'%3e%3cpath%20d='M43%203c-12%209-16%2028-10%2056%202%2012%202%2017-3%2020-4%203-4%204%201%204h4l-1%205c0%206-1%208-4%208-3%201-3%202%201%203l3%201-5%204c-5%203-7%207-8%2018a581%20581%200%2001-5%2028c2%200%205-11%208-28%201-7%202-7%207-2%207%208%2011%2018%2010%2026v4h10c8%200%209%200%2011-2h3c2%202%2018%203%2016%201s-1-4%202-4c2%200%202%200%202%203-1%202%200%202%204%202l4-1c-1-2%201-4%203-4l1-2c0-2%201-3%203-2%203%200%202%203%200%204l-2%203c0%202%200%202%2014%202h13v-7a254%20254%200%2001-2-12c-2-1-2-14-1-14l1%206c0%209%202%2010%206%202l2-3%201%205a269%20269%200%20016%2021c0%202%203%203%203%201l-6-26c-1-2-2-5-1-7%200-6-3-10-14-15l-17-7c-9-2-9-2-6-5%201-1%201-2-4-2-8%200-12-1-18-6-5-4-6-2%200%202%203%203%208%205%2014%206%203%201%203%201%202%203s0%205%204%207c6%204%200%2011-10%2011-12%200-29-14-24-19l1-7%201-5%203%205c4%205%206%207%204%203l-2-3c-1%200-8-15-10-22-3-12-2-28%201-35C66%2011%2076%206%2086%209c6%202%206%201%201-1s-3-3%203-1c5%202%206%200%201-2L81%203l-9-1c-2-2-6-2-14-2-11%200-12%200-15%203m4%200C34%2013%2030%2030%2036%2058c2%2011%202%2014-1%2020l-2%203%203-1c2%200%202%200%201%2010-1%207%200%208%206%202%205-4%208-10%208-15%200-6-2-14-5-18-5-7-3-18%203-17%203%201%203%201%203-5%201-9%205-16%2013-24%207-6%207-7%205-6-8%201-17%209-21%2018l-2%203c0-3%205-12%2010-17l6-8%202-2h-7c-6%200-8%200-11%202m54%207c6%201%2010%204%2014%2010%205%209%206%2012%205%2037v15a1227%201227%200%20012-30c0-11%200-12-2-17-5-11-12-16-20-16h-3l4%201m-17%207c-4%203-9%2013-13%2025-4%2011-5%2027-3%2036%201%204%201%204%201-2-1-13%202-31%205-34l1-3c0-2%205-13%208-15l1-2c-2%200%200-3%203-4%202-1%205%200%205%201l1%201c2%200%201-1%200-2-3-4-6-4-9-1m29%2022v32c-2%205-8%2012-12%2014-3%202-1%203%203%201s9-8%2010-12c2-4%202-10%202-27-1-9-1-12-3-8M57%2074c-2%206-7%2015-9%2017l-2%203h2l7-2c6-2%206-3%205-12-1-7-2-9-3-6'%20fill='%23d3d3d3'%20fill-rule='evenodd'/%3e%3c/svg%3e"},"images":{"fallback":{"src":"/static/5cb00aaf799aa814728c4eba271ae9c1/a7a66/sarah-griffiths.png","srcSet":"/static/5cb00aaf799aa814728c4eba271ae9c1/a7a66/sarah-griffiths.png 48w,\n/static/5cb00aaf799aa814728c4eba271ae9c1/416a0/sarah-griffiths.png 96w","sizes":"48px"},"sources":[{"srcSet":"/static/5cb00aaf799aa814728c4eba271ae9c1/a3542/sarah-griffiths.webp 48w,\n/static/5cb00aaf799aa814728c4eba271ae9c1/0f66d/sarah-griffiths.webp 96w","type":"image/webp","sizes":"48px"}]},"width":48,"height":48},"ImageSharp_regular":{"layout":"fixed","placeholder":{"fallback":"data:image/svg+xml,%3csvg%20xmlns='http://www.w3.org/2000/svg'%20width='150'%20height='150'%20viewBox='0%200%20150%20150'%20preserveAspectRatio='none'%3e%3cpath%20d='M43%203c-12%209-16%2028-10%2056%202%2012%202%2017-3%2020-4%203-4%204%201%204h4l-1%205c0%206-1%208-4%208-3%201-3%202%201%203l3%201-5%204c-5%203-7%207-8%2018a581%20581%200%2001-5%2028c2%200%205-11%208-28%201-7%202-7%207-2%207%208%2011%2018%2010%2026v4h10c8%200%209%200%2011-2h3c2%202%2018%203%2016%201s-1-4%202-4c2%200%202%200%202%203-1%202%200%202%204%202l4-1c-1-2%201-4%203-4l1-2c0-2%201-3%203-2%203%200%202%203%200%204l-2%203c0%202%200%202%2014%202h13v-7a254%20254%200%2001-2-12c-2-1-2-14-1-14l1%206c0%209%202%2010%206%202l2-3%201%205a269%20269%200%20016%2021c0%202%203%203%203%201l-6-26c-1-2-2-5-1-7%200-6-3-10-14-15l-17-7c-9-2-9-2-6-5%201-1%201-2-4-2-8%200-12-1-18-6-5-4-6-2%200%202%203%203%208%205%2014%206%203%201%203%201%202%203s0%205%204%207c6%204%200%2011-10%2011-12%200-29-14-24-19l1-7%201-5%203%205c4%205%206%207%204%203l-2-3c-1%200-8-15-10-22-3-12-2-28%201-35C66%2011%2076%206%2086%209c6%202%206%201%201-1s-3-3%203-1c5%202%206%200%201-2L81%203l-9-1c-2-2-6-2-14-2-11%200-12%200-15%203m4%200C34%2013%2030%2030%2036%2058c2%2011%202%2014-1%2020l-2%203%203-1c2%200%202%200%201%2010-1%207%200%208%206%202%205-4%208-10%208-15%200-6-2-14-5-18-5-7-3-18%203-17%203%201%203%201%203-5%201-9%205-16%2013-24%207-6%207-7%205-6-8%201-17%209-21%2018l-2%203c0-3%205-12%2010-17l6-8%202-2h-7c-6%200-8%200-11%202m54%207c6%201%2010%204%2014%2010%205%209%206%2012%205%2037v15a1227%201227%200%20012-30c0-11%200-12-2-17-5-11-12-16-20-16h-3l4%201m-17%207c-4%203-9%2013-13%2025-4%2011-5%2027-3%2036%201%204%201%204%201-2-1-13%202-31%205-34l1-3c0-2%205-13%208-15l1-2c-2%200%200-3%203-4%202-1%205%200%205%201l1%201c2%200%201-1%200-2-3-4-6-4-9-1m29%2022v32c-2%205-8%2012-12%2014-3%202-1%203%203%201s9-8%2010-12c2-4%202-10%202-27-1-9-1-12-3-8M57%2074c-2%206-7%2015-9%2017l-2%203h2l7-2c6-2%206-3%205-12-1-7-2-9-3-6'%20fill='%23d3d3d3'%20fill-rule='evenodd'/%3e%3c/svg%3e"},"images":{"fallback":{"src":"/static/5cb00aaf799aa814728c4eba271ae9c1/46e60/sarah-griffiths.png","srcSet":"/static/5cb00aaf799aa814728c4eba271ae9c1/46e60/sarah-griffiths.png 150w,\n/static/5cb00aaf799aa814728c4eba271ae9c1/d612b/sarah-griffiths.png 300w","sizes":"150px"},"sources":[{"srcSet":"/static/5cb00aaf799aa814728c4eba271ae9c1/ae23d/sarah-griffiths.webp 150w,\n/static/5cb00aaf799aa814728c4eba271ae9c1/bd37b/sarah-griffiths.webp 300w","type":"image/webp","sizes":"150px"}]},"width":150,"height":150}}},"thumbnail":null}],"pageInfo":{"pageCount":2,"hasPreviousPage":false,"hasNextPage":true,"currentPage":1},"totalCount":10}},"pageContext":{"slug":"/category/how-tos/","limit":6,"skip":0,"collectionType":"category","paginatePostsPage":true,"basePath":"/","services":{"algolia":true,"mailchimp":false,"disqus":false,"graphComment":false,"facebookComment":false},"siteUrl":"https://labs.epi2me.io","mobileMenu":{"title":"Topics","items":[{"name":"Announcements","slug":"/category/announcements/"},{"name":"Articles","slug":"/category/articles/"},{"name":"Data Releases","slug":"/category/data-releases/"},{"name":"How Tos","slug":"/category/how-tos/"},{"name":"Software Releases","slug":"/category/software-releases/"}]},"darkMode":true,"includeExcerpt":true,"includeTimeToRead":true,"includeTableOfContents":true,"imageQuality":75}},
    "staticQueryHashes": ["1992822086","2409295108","2893703372","3667468360"]}