{
    "componentChunkName": "component---packages-blog-gatsby-blog-core-src-templates-collection-author-js",
    "path": "/author/chris-wright/page/2/",
    "result": {"data":{"collectionInfo":{"id":"2f3db1da-3d70-5c91-8cb3-986053b30ff8","name":"Chris Wright","slug":"/author/chris-wright/","title":"Director Customer Workflows","description":"I co-ordinate the activities of the Customer Workflows Group at Oxford Nanopore Technologies. Previously I worked in the Research division at ONT leading the Scientific Data Analysis Group.","skills":["Scientific software design","Computational biology","Consensus and variant calling"],"social":[{"name":"Twitter","url":"https://twitter.com/chrisnrg"}],"thumbnail":{"__typename":"ImageSharp","ImageSharp_small":{"layout":"fixed","placeholder":{"fallback":"data:image/svg+xml,%3csvg%20xmlns='http://www.w3.org/2000/svg'%20width='48'%20height='48'%20viewBox='0%200%2048%2048'%20preserveAspectRatio='none'%3e%3cpath%20d='M22%203c-2%201-3%204-4%207l-2%205c-2%202-2%202-2-1l-2-3c-1%200-1%202%202%208%200%202%202%203%204%204%202%200%203%202%203%203h1c1-1%201-2-2-4l-4-5h1l2%201v-2c-2-1-2-1%200-1l2-2c0-6%204-9%2011-9%204%200%204%200%205%204v16c-1%201-1%201%200%200%202-3%203-11%201-19l-1-5h-6c-5%200-7%200-9%203m4%2023l3%202%203%201-2%203-2%203-4-4-5-4v21h18l-1-5c0-6%201-5%203%201l1%204v-5l-1-9c0-3-1-4-2-5-2-1-2-1-2%201%202%203%202%205%201%207-1%201-1-1-1-9%200-1-1-2-3-1l-4-1h-2'%20fill='%23d3d3d3'%20fill-rule='evenodd'/%3e%3c/svg%3e"},"images":{"fallback":{"src":"/static/011b3215b6b7e782f02d67aebfa4c319/a7a66/chris-wright.png","srcSet":"/static/011b3215b6b7e782f02d67aebfa4c319/a7a66/chris-wright.png 48w,\n/static/011b3215b6b7e782f02d67aebfa4c319/416a0/chris-wright.png 96w","sizes":"48px"},"sources":[{"srcSet":"/static/011b3215b6b7e782f02d67aebfa4c319/a3542/chris-wright.webp 48w,\n/static/011b3215b6b7e782f02d67aebfa4c319/0f66d/chris-wright.webp 96w","type":"image/webp","sizes":"48px"}]},"width":48,"height":48},"ImageSharp_regular":{"layout":"fixed","placeholder":{"fallback":"data:image/svg+xml,%3csvg%20xmlns='http://www.w3.org/2000/svg'%20width='48'%20height='48'%20viewBox='0%200%2048%2048'%20preserveAspectRatio='none'%3e%3cpath%20d='M22%203c-2%201-3%204-4%207l-2%205c-2%202-2%202-2-1l-2-3c-1%200-1%202%202%208%200%202%202%203%204%204%202%200%203%202%203%203h1c1-1%201-2-2-4l-4-5h1l2%201v-2c-2-1-2-1%200-1l2-2c0-6%204-9%2011-9%204%200%204%200%205%204v16c-1%201-1%201%200%200%202-3%203-11%201-19l-1-5h-6c-5%200-7%200-9%203m4%2023l3%202%203%201-2%203-2%203-4-4-5-4v21h18l-1-5c0-6%201-5%203%201l1%204v-5l-1-9c0-3-1-4-2-5-2-1-2-1-2%201%202%203%202%205%201%207-1%201-1-1-1-9%200-1-1-2-3-1l-4-1h-2'%20fill='%23d3d3d3'%20fill-rule='evenodd'/%3e%3c/svg%3e"},"images":{"fallback":{"src":"/static/011b3215b6b7e782f02d67aebfa4c319/46e60/chris-wright.png","srcSet":"/static/011b3215b6b7e782f02d67aebfa4c319/46e60/chris-wright.png 150w,\n/static/011b3215b6b7e782f02d67aebfa4c319/d612b/chris-wright.png 300w","sizes":"150px"},"sources":[{"srcSet":"/static/011b3215b6b7e782f02d67aebfa4c319/ae23d/chris-wright.webp 150w,\n/static/011b3215b6b7e782f02d67aebfa4c319/bd37b/chris-wright.webp 300w","type":"image/webp","sizes":"150px"}]},"width":150,"height":150}}},"posts":{"nodes":[{"id":"7bda88a0-91a0-531f-a623-9f53b37bb19b","title":"Normalizing fastq data","slug":"/introducing-fastcat/","link":null,"excerpt":"Oxford Nanopore Sequencing devices output RNA and DNA read sequences in batched\n fastq  files. This…","timeToRead":2,"featured":null,"thumbnailText":null,"date":"July 07, 2021","category":{"id":"3671f138-33ed-5adb-ba7e-17d76d9b6da2","name":"Articles","slug":"/category/articles/","color":"#A53F96","icon":"/static/a0eadc6b0bbda21a5e4290df3c07d3b4/articles.svg"},"author":{"id":"2f3db1da-3d70-5c91-8cb3-986053b30ff8","name":"Chris Wright","slug":"/author/chris-wright/","title":"Director Customer Workflows","description":"I co-ordinate the activities of the Customer Workflows Group at Oxford Nanopore Technologies. Previously I worked in the Research division at ONT leading the Scientific Data Analysis Group.","skills":["Scientific software design","Computational biology","Consensus and variant calling"],"social":[{"name":"Twitter","url":"https://twitter.com/chrisnrg"}],"thumbnail":{"__typename":"ImageSharp","ImageSharp_small":{"layout":"fixed","placeholder":{"fallback":"data:image/svg+xml,%3csvg%20xmlns='http://www.w3.org/2000/svg'%20width='48'%20height='48'%20viewBox='0%200%2048%2048'%20preserveAspectRatio='none'%3e%3cpath%20d='M22%203c-2%201-3%204-4%207l-2%205c-2%202-2%202-2-1l-2-3c-1%200-1%202%202%208%200%202%202%203%204%204%202%200%203%202%203%203h1c1-1%201-2-2-4l-4-5h1l2%201v-2c-2-1-2-1%200-1l2-2c0-6%204-9%2011-9%204%200%204%200%205%204v16c-1%201-1%201%200%200%202-3%203-11%201-19l-1-5h-6c-5%200-7%200-9%203m4%2023l3%202%203%201-2%203-2%203-4-4-5-4v21h18l-1-5c0-6%201-5%203%201l1%204v-5l-1-9c0-3-1-4-2-5-2-1-2-1-2%201%202%203%202%205%201%207-1%201-1-1-1-9%200-1-1-2-3-1l-4-1h-2'%20fill='%23d3d3d3'%20fill-rule='evenodd'/%3e%3c/svg%3e"},"images":{"fallback":{"src":"/static/011b3215b6b7e782f02d67aebfa4c319/a7a66/chris-wright.png","srcSet":"/static/011b3215b6b7e782f02d67aebfa4c319/a7a66/chris-wright.png 48w,\n/static/011b3215b6b7e782f02d67aebfa4c319/416a0/chris-wright.png 96w","sizes":"48px"},"sources":[{"srcSet":"/static/011b3215b6b7e782f02d67aebfa4c319/a3542/chris-wright.webp 48w,\n/static/011b3215b6b7e782f02d67aebfa4c319/0f66d/chris-wright.webp 96w","type":"image/webp","sizes":"48px"}]},"width":48,"height":48},"ImageSharp_regular":{"layout":"fixed","placeholder":{"fallback":"data:image/svg+xml,%3csvg%20xmlns='http://www.w3.org/2000/svg'%20width='48'%20height='48'%20viewBox='0%200%2048%2048'%20preserveAspectRatio='none'%3e%3cpath%20d='M22%203c-2%201-3%204-4%207l-2%205c-2%202-2%202-2-1l-2-3c-1%200-1%202%202%208%200%202%202%203%204%204%202%200%203%202%203%203h1c1-1%201-2-2-4l-4-5h1l2%201v-2c-2-1-2-1%200-1l2-2c0-6%204-9%2011-9%204%200%204%200%205%204v16c-1%201-1%201%200%200%202-3%203-11%201-19l-1-5h-6c-5%200-7%200-9%203m4%2023l3%202%203%201-2%203-2%203-4-4-5-4v21h18l-1-5c0-6%201-5%203%201l1%204v-5l-1-9c0-3-1-4-2-5-2-1-2-1-2%201%202%203%202%205%201%207-1%201-1-1-1-9%200-1-1-2-3-1l-4-1h-2'%20fill='%23d3d3d3'%20fill-rule='evenodd'/%3e%3c/svg%3e"},"images":{"fallback":{"src":"/static/011b3215b6b7e782f02d67aebfa4c319/46e60/chris-wright.png","srcSet":"/static/011b3215b6b7e782f02d67aebfa4c319/46e60/chris-wright.png 150w,\n/static/011b3215b6b7e782f02d67aebfa4c319/d612b/chris-wright.png 300w","sizes":"150px"},"sources":[{"srcSet":"/static/011b3215b6b7e782f02d67aebfa4c319/ae23d/chris-wright.webp 150w,\n/static/011b3215b6b7e782f02d67aebfa4c319/bd37b/chris-wright.webp 300w","type":"image/webp","sizes":"150px"}]},"width":150,"height":150}}},"thumbnail":null},{"id":"e385ecb7-0863-5d31-a916-0de0f19a962b","title":"Managing EPI2ME Labs workflows with the nextflow command-line interface","slug":"/managing-epi2me-labs-workflows-with-the-nextflow-command-line-interface/","link":null,"excerpt":"Our  EPI2ME Labs Workflows  are designed to provide reproducible analysis\nresults and be deployed…","timeToRead":2,"featured":null,"thumbnailText":null,"date":"June 24, 2021","category":{"id":"f2b11058-5669-58d3-b278-907a4e2cde31","name":"How Tos","slug":"/category/how-tos/","color":"#B8E986","icon":"/static/7259c9d3481cdab1f093943d7d0bc600/how-tos.svg"},"author":{"id":"2f3db1da-3d70-5c91-8cb3-986053b30ff8","name":"Chris Wright","slug":"/author/chris-wright/","title":"Director Customer Workflows","description":"I co-ordinate the activities of the Customer Workflows Group at Oxford Nanopore Technologies. Previously I worked in the Research division at ONT leading the Scientific Data Analysis Group.","skills":["Scientific software design","Computational biology","Consensus and variant calling"],"social":[{"name":"Twitter","url":"https://twitter.com/chrisnrg"}],"thumbnail":{"__typename":"ImageSharp","ImageSharp_small":{"layout":"fixed","placeholder":{"fallback":"data:image/svg+xml,%3csvg%20xmlns='http://www.w3.org/2000/svg'%20width='48'%20height='48'%20viewBox='0%200%2048%2048'%20preserveAspectRatio='none'%3e%3cpath%20d='M22%203c-2%201-3%204-4%207l-2%205c-2%202-2%202-2-1l-2-3c-1%200-1%202%202%208%200%202%202%203%204%204%202%200%203%202%203%203h1c1-1%201-2-2-4l-4-5h1l2%201v-2c-2-1-2-1%200-1l2-2c0-6%204-9%2011-9%204%200%204%200%205%204v16c-1%201-1%201%200%200%202-3%203-11%201-19l-1-5h-6c-5%200-7%200-9%203m4%2023l3%202%203%201-2%203-2%203-4-4-5-4v21h18l-1-5c0-6%201-5%203%201l1%204v-5l-1-9c0-3-1-4-2-5-2-1-2-1-2%201%202%203%202%205%201%207-1%201-1-1-1-9%200-1-1-2-3-1l-4-1h-2'%20fill='%23d3d3d3'%20fill-rule='evenodd'/%3e%3c/svg%3e"},"images":{"fallback":{"src":"/static/011b3215b6b7e782f02d67aebfa4c319/a7a66/chris-wright.png","srcSet":"/static/011b3215b6b7e782f02d67aebfa4c319/a7a66/chris-wright.png 48w,\n/static/011b3215b6b7e782f02d67aebfa4c319/416a0/chris-wright.png 96w","sizes":"48px"},"sources":[{"srcSet":"/static/011b3215b6b7e782f02d67aebfa4c319/a3542/chris-wright.webp 48w,\n/static/011b3215b6b7e782f02d67aebfa4c319/0f66d/chris-wright.webp 96w","type":"image/webp","sizes":"48px"}]},"width":48,"height":48},"ImageSharp_regular":{"layout":"fixed","placeholder":{"fallback":"data:image/svg+xml,%3csvg%20xmlns='http://www.w3.org/2000/svg'%20width='48'%20height='48'%20viewBox='0%200%2048%2048'%20preserveAspectRatio='none'%3e%3cpath%20d='M22%203c-2%201-3%204-4%207l-2%205c-2%202-2%202-2-1l-2-3c-1%200-1%202%202%208%200%202%202%203%204%204%202%200%203%202%203%203h1c1-1%201-2-2-4l-4-5h1l2%201v-2c-2-1-2-1%200-1l2-2c0-6%204-9%2011-9%204%200%204%200%205%204v16c-1%201-1%201%200%200%202-3%203-11%201-19l-1-5h-6c-5%200-7%200-9%203m4%2023l3%202%203%201-2%203-2%203-4-4-5-4v21h18l-1-5c0-6%201-5%203%201l1%204v-5l-1-9c0-3-1-4-2-5-2-1-2-1-2%201%202%203%202%205%201%207-1%201-1-1-1-9%200-1-1-2-3-1l-4-1h-2'%20fill='%23d3d3d3'%20fill-rule='evenodd'/%3e%3c/svg%3e"},"images":{"fallback":{"src":"/static/011b3215b6b7e782f02d67aebfa4c319/46e60/chris-wright.png","srcSet":"/static/011b3215b6b7e782f02d67aebfa4c319/46e60/chris-wright.png 150w,\n/static/011b3215b6b7e782f02d67aebfa4c319/d612b/chris-wright.png 300w","sizes":"150px"},"sources":[{"srcSet":"/static/011b3215b6b7e782f02d67aebfa4c319/ae23d/chris-wright.webp 150w,\n/static/011b3215b6b7e782f02d67aebfa4c319/bd37b/chris-wright.webp 300w","type":"image/webp","sizes":"150px"}]},"width":150,"height":150}}},"thumbnail":null},{"id":"4e24ce56-0318-51ad-8a73-86eca88c3698","title":"Creating interactive, clean and functional graphics with aplanat","slug":"/developing-aplanat/","link":null,"excerpt":"When we started creating bioinformatics tutorials for the EPI2ME Labs Notebooks\nenvironment the…","timeToRead":6,"featured":null,"thumbnailText":null,"date":"June 08, 2021","category":{"id":"3671f138-33ed-5adb-ba7e-17d76d9b6da2","name":"Articles","slug":"/category/articles/","color":"#A53F96","icon":"/static/a0eadc6b0bbda21a5e4290df3c07d3b4/articles.svg"},"author":{"id":"2f3db1da-3d70-5c91-8cb3-986053b30ff8","name":"Chris Wright","slug":"/author/chris-wright/","title":"Director Customer Workflows","description":"I co-ordinate the activities of the Customer Workflows Group at Oxford Nanopore Technologies. Previously I worked in the Research division at ONT leading the Scientific Data Analysis Group.","skills":["Scientific software design","Computational biology","Consensus and variant calling"],"social":[{"name":"Twitter","url":"https://twitter.com/chrisnrg"}],"thumbnail":{"__typename":"ImageSharp","ImageSharp_small":{"layout":"fixed","placeholder":{"fallback":"data:image/svg+xml,%3csvg%20xmlns='http://www.w3.org/2000/svg'%20width='48'%20height='48'%20viewBox='0%200%2048%2048'%20preserveAspectRatio='none'%3e%3cpath%20d='M22%203c-2%201-3%204-4%207l-2%205c-2%202-2%202-2-1l-2-3c-1%200-1%202%202%208%200%202%202%203%204%204%202%200%203%202%203%203h1c1-1%201-2-2-4l-4-5h1l2%201v-2c-2-1-2-1%200-1l2-2c0-6%204-9%2011-9%204%200%204%200%205%204v16c-1%201-1%201%200%200%202-3%203-11%201-19l-1-5h-6c-5%200-7%200-9%203m4%2023l3%202%203%201-2%203-2%203-4-4-5-4v21h18l-1-5c0-6%201-5%203%201l1%204v-5l-1-9c0-3-1-4-2-5-2-1-2-1-2%201%202%203%202%205%201%207-1%201-1-1-1-9%200-1-1-2-3-1l-4-1h-2'%20fill='%23d3d3d3'%20fill-rule='evenodd'/%3e%3c/svg%3e"},"images":{"fallback":{"src":"/static/011b3215b6b7e782f02d67aebfa4c319/a7a66/chris-wright.png","srcSet":"/static/011b3215b6b7e782f02d67aebfa4c319/a7a66/chris-wright.png 48w,\n/static/011b3215b6b7e782f02d67aebfa4c319/416a0/chris-wright.png 96w","sizes":"48px"},"sources":[{"srcSet":"/static/011b3215b6b7e782f02d67aebfa4c319/a3542/chris-wright.webp 48w,\n/static/011b3215b6b7e782f02d67aebfa4c319/0f66d/chris-wright.webp 96w","type":"image/webp","sizes":"48px"}]},"width":48,"height":48},"ImageSharp_regular":{"layout":"fixed","placeholder":{"fallback":"data:image/svg+xml,%3csvg%20xmlns='http://www.w3.org/2000/svg'%20width='48'%20height='48'%20viewBox='0%200%2048%2048'%20preserveAspectRatio='none'%3e%3cpath%20d='M22%203c-2%201-3%204-4%207l-2%205c-2%202-2%202-2-1l-2-3c-1%200-1%202%202%208%200%202%202%203%204%204%202%200%203%202%203%203h1c1-1%201-2-2-4l-4-5h1l2%201v-2c-2-1-2-1%200-1l2-2c0-6%204-9%2011-9%204%200%204%200%205%204v16c-1%201-1%201%200%200%202-3%203-11%201-19l-1-5h-6c-5%200-7%200-9%203m4%2023l3%202%203%201-2%203-2%203-4-4-5-4v21h18l-1-5c0-6%201-5%203%201l1%204v-5l-1-9c0-3-1-4-2-5-2-1-2-1-2%201%202%203%202%205%201%207-1%201-1-1-1-9%200-1-1-2-3-1l-4-1h-2'%20fill='%23d3d3d3'%20fill-rule='evenodd'/%3e%3c/svg%3e"},"images":{"fallback":{"src":"/static/011b3215b6b7e782f02d67aebfa4c319/46e60/chris-wright.png","srcSet":"/static/011b3215b6b7e782f02d67aebfa4c319/46e60/chris-wright.png 150w,\n/static/011b3215b6b7e782f02d67aebfa4c319/d612b/chris-wright.png 300w","sizes":"150px"},"sources":[{"srcSet":"/static/011b3215b6b7e782f02d67aebfa4c319/ae23d/chris-wright.webp 150w,\n/static/011b3215b6b7e782f02d67aebfa4c319/bd37b/chris-wright.webp 300w","type":"image/webp","sizes":"150px"}]},"width":150,"height":150}}},"thumbnail":null},{"id":"988fd2b6-2c76-59c2-bc65-22ab9eb6184b","title":"Q20 single-read accuracy with ultra-long CliveOME dataset","slug":"/cliveome_2010.05/","link":null,"excerpt":"We are pleased to announce a fresh release of the CliveOME using the latest Q20 pre-release…","timeToRead":1,"featured":null,"thumbnailText":null,"date":"May 21, 2021","category":{"id":"16df6bf1-2546-5c00-a3fa-4d27e7d53c32","name":"Data Releases","slug":"/category/data-releases/","color":"#5fB8B1","icon":"/static/c6ec5e88853fdf8d3271114c2629f774/datareleases.svg"},"author":{"id":"2f3db1da-3d70-5c91-8cb3-986053b30ff8","name":"Chris Wright","slug":"/author/chris-wright/","title":"Director Customer Workflows","description":"I co-ordinate the activities of the Customer Workflows Group at Oxford Nanopore Technologies. Previously I worked in the Research division at ONT leading the Scientific Data Analysis Group.","skills":["Scientific software design","Computational biology","Consensus and variant calling"],"social":[{"name":"Twitter","url":"https://twitter.com/chrisnrg"}],"thumbnail":{"__typename":"ImageSharp","ImageSharp_small":{"layout":"fixed","placeholder":{"fallback":"data:image/svg+xml,%3csvg%20xmlns='http://www.w3.org/2000/svg'%20width='48'%20height='48'%20viewBox='0%200%2048%2048'%20preserveAspectRatio='none'%3e%3cpath%20d='M22%203c-2%201-3%204-4%207l-2%205c-2%202-2%202-2-1l-2-3c-1%200-1%202%202%208%200%202%202%203%204%204%202%200%203%202%203%203h1c1-1%201-2-2-4l-4-5h1l2%201v-2c-2-1-2-1%200-1l2-2c0-6%204-9%2011-9%204%200%204%200%205%204v16c-1%201-1%201%200%200%202-3%203-11%201-19l-1-5h-6c-5%200-7%200-9%203m4%2023l3%202%203%201-2%203-2%203-4-4-5-4v21h18l-1-5c0-6%201-5%203%201l1%204v-5l-1-9c0-3-1-4-2-5-2-1-2-1-2%201%202%203%202%205%201%207-1%201-1-1-1-9%200-1-1-2-3-1l-4-1h-2'%20fill='%23d3d3d3'%20fill-rule='evenodd'/%3e%3c/svg%3e"},"images":{"fallback":{"src":"/static/011b3215b6b7e782f02d67aebfa4c319/a7a66/chris-wright.png","srcSet":"/static/011b3215b6b7e782f02d67aebfa4c319/a7a66/chris-wright.png 48w,\n/static/011b3215b6b7e782f02d67aebfa4c319/416a0/chris-wright.png 96w","sizes":"48px"},"sources":[{"srcSet":"/static/011b3215b6b7e782f02d67aebfa4c319/a3542/chris-wright.webp 48w,\n/static/011b3215b6b7e782f02d67aebfa4c319/0f66d/chris-wright.webp 96w","type":"image/webp","sizes":"48px"}]},"width":48,"height":48},"ImageSharp_regular":{"layout":"fixed","placeholder":{"fallback":"data:image/svg+xml,%3csvg%20xmlns='http://www.w3.org/2000/svg'%20width='48'%20height='48'%20viewBox='0%200%2048%2048'%20preserveAspectRatio='none'%3e%3cpath%20d='M22%203c-2%201-3%204-4%207l-2%205c-2%202-2%202-2-1l-2-3c-1%200-1%202%202%208%200%202%202%203%204%204%202%200%203%202%203%203h1c1-1%201-2-2-4l-4-5h1l2%201v-2c-2-1-2-1%200-1l2-2c0-6%204-9%2011-9%204%200%204%200%205%204v16c-1%201-1%201%200%200%202-3%203-11%201-19l-1-5h-6c-5%200-7%200-9%203m4%2023l3%202%203%201-2%203-2%203-4-4-5-4v21h18l-1-5c0-6%201-5%203%201l1%204v-5l-1-9c0-3-1-4-2-5-2-1-2-1-2%201%202%203%202%205%201%207-1%201-1-1-1-9%200-1-1-2-3-1l-4-1h-2'%20fill='%23d3d3d3'%20fill-rule='evenodd'/%3e%3c/svg%3e"},"images":{"fallback":{"src":"/static/011b3215b6b7e782f02d67aebfa4c319/46e60/chris-wright.png","srcSet":"/static/011b3215b6b7e782f02d67aebfa4c319/46e60/chris-wright.png 150w,\n/static/011b3215b6b7e782f02d67aebfa4c319/d612b/chris-wright.png 300w","sizes":"150px"},"sources":[{"srcSet":"/static/011b3215b6b7e782f02d67aebfa4c319/ae23d/chris-wright.webp 150w,\n/static/011b3215b6b7e782f02d67aebfa4c319/bd37b/chris-wright.webp 300w","type":"image/webp","sizes":"150px"}]},"width":150,"height":150}}},"thumbnail":null},{"id":"5cc57ba2-bd87-53a1-b6b7-902ad2834af6","title":"Rebasecalling of SRE and ULK GM24385 Dataset","slug":"/gm24385_2021.05/","link":null,"excerpt":"We are please to announce the addition of Guppy 5 basecalling results to our\nshort-read eliminator…","timeToRead":2,"featured":null,"thumbnailText":null,"date":"May 18, 2021","category":{"id":"16df6bf1-2546-5c00-a3fa-4d27e7d53c32","name":"Data Releases","slug":"/category/data-releases/","color":"#5fB8B1","icon":"/static/c6ec5e88853fdf8d3271114c2629f774/datareleases.svg"},"author":{"id":"2f3db1da-3d70-5c91-8cb3-986053b30ff8","name":"Chris Wright","slug":"/author/chris-wright/","title":"Director Customer Workflows","description":"I co-ordinate the activities of the Customer Workflows Group at Oxford Nanopore Technologies. Previously I worked in the Research division at ONT leading the Scientific Data Analysis Group.","skills":["Scientific software design","Computational biology","Consensus and variant calling"],"social":[{"name":"Twitter","url":"https://twitter.com/chrisnrg"}],"thumbnail":{"__typename":"ImageSharp","ImageSharp_small":{"layout":"fixed","placeholder":{"fallback":"data:image/svg+xml,%3csvg%20xmlns='http://www.w3.org/2000/svg'%20width='48'%20height='48'%20viewBox='0%200%2048%2048'%20preserveAspectRatio='none'%3e%3cpath%20d='M22%203c-2%201-3%204-4%207l-2%205c-2%202-2%202-2-1l-2-3c-1%200-1%202%202%208%200%202%202%203%204%204%202%200%203%202%203%203h1c1-1%201-2-2-4l-4-5h1l2%201v-2c-2-1-2-1%200-1l2-2c0-6%204-9%2011-9%204%200%204%200%205%204v16c-1%201-1%201%200%200%202-3%203-11%201-19l-1-5h-6c-5%200-7%200-9%203m4%2023l3%202%203%201-2%203-2%203-4-4-5-4v21h18l-1-5c0-6%201-5%203%201l1%204v-5l-1-9c0-3-1-4-2-5-2-1-2-1-2%201%202%203%202%205%201%207-1%201-1-1-1-9%200-1-1-2-3-1l-4-1h-2'%20fill='%23d3d3d3'%20fill-rule='evenodd'/%3e%3c/svg%3e"},"images":{"fallback":{"src":"/static/011b3215b6b7e782f02d67aebfa4c319/a7a66/chris-wright.png","srcSet":"/static/011b3215b6b7e782f02d67aebfa4c319/a7a66/chris-wright.png 48w,\n/static/011b3215b6b7e782f02d67aebfa4c319/416a0/chris-wright.png 96w","sizes":"48px"},"sources":[{"srcSet":"/static/011b3215b6b7e782f02d67aebfa4c319/a3542/chris-wright.webp 48w,\n/static/011b3215b6b7e782f02d67aebfa4c319/0f66d/chris-wright.webp 96w","type":"image/webp","sizes":"48px"}]},"width":48,"height":48},"ImageSharp_regular":{"layout":"fixed","placeholder":{"fallback":"data:image/svg+xml,%3csvg%20xmlns='http://www.w3.org/2000/svg'%20width='48'%20height='48'%20viewBox='0%200%2048%2048'%20preserveAspectRatio='none'%3e%3cpath%20d='M22%203c-2%201-3%204-4%207l-2%205c-2%202-2%202-2-1l-2-3c-1%200-1%202%202%208%200%202%202%203%204%204%202%200%203%202%203%203h1c1-1%201-2-2-4l-4-5h1l2%201v-2c-2-1-2-1%200-1l2-2c0-6%204-9%2011-9%204%200%204%200%205%204v16c-1%201-1%201%200%200%202-3%203-11%201-19l-1-5h-6c-5%200-7%200-9%203m4%2023l3%202%203%201-2%203-2%203-4-4-5-4v21h18l-1-5c0-6%201-5%203%201l1%204v-5l-1-9c0-3-1-4-2-5-2-1-2-1-2%201%202%203%202%205%201%207-1%201-1-1-1-9%200-1-1-2-3-1l-4-1h-2'%20fill='%23d3d3d3'%20fill-rule='evenodd'/%3e%3c/svg%3e"},"images":{"fallback":{"src":"/static/011b3215b6b7e782f02d67aebfa4c319/46e60/chris-wright.png","srcSet":"/static/011b3215b6b7e782f02d67aebfa4c319/46e60/chris-wright.png 150w,\n/static/011b3215b6b7e782f02d67aebfa4c319/d612b/chris-wright.png 300w","sizes":"150px"},"sources":[{"srcSet":"/static/011b3215b6b7e782f02d67aebfa4c319/ae23d/chris-wright.webp 150w,\n/static/011b3215b6b7e782f02d67aebfa4c319/bd37b/chris-wright.webp 300w","type":"image/webp","sizes":"150px"}]},"width":150,"height":150}}},"thumbnail":null},{"id":"5a814180-d746-551b-9fd6-bdd1eae47eb6","title":"EPI2ME Labs Blog Revamp","slug":"/epi2me-labs-blog-revamp/","link":null,"excerpt":"Previous users of this webpage will have noticed things have changed a little.\nGone is the purely…","timeToRead":1,"featured":null,"thumbnailText":null,"date":"May 17, 2021","category":{"id":"120c4396-79eb-5a59-813d-341f9acb511f","name":"Announcements","slug":"/category/announcements/","color":"#5fB8B1","icon":"/static/146b1cb44f3e1f046a63c3a8a7dc7f36/announcements.svg"},"author":{"id":"2f3db1da-3d70-5c91-8cb3-986053b30ff8","name":"Chris Wright","slug":"/author/chris-wright/","title":"Director Customer Workflows","description":"I co-ordinate the activities of the Customer Workflows Group at Oxford Nanopore Technologies. Previously I worked in the Research division at ONT leading the Scientific Data Analysis Group.","skills":["Scientific software design","Computational biology","Consensus and variant calling"],"social":[{"name":"Twitter","url":"https://twitter.com/chrisnrg"}],"thumbnail":{"__typename":"ImageSharp","ImageSharp_small":{"layout":"fixed","placeholder":{"fallback":"data:image/svg+xml,%3csvg%20xmlns='http://www.w3.org/2000/svg'%20width='48'%20height='48'%20viewBox='0%200%2048%2048'%20preserveAspectRatio='none'%3e%3cpath%20d='M22%203c-2%201-3%204-4%207l-2%205c-2%202-2%202-2-1l-2-3c-1%200-1%202%202%208%200%202%202%203%204%204%202%200%203%202%203%203h1c1-1%201-2-2-4l-4-5h1l2%201v-2c-2-1-2-1%200-1l2-2c0-6%204-9%2011-9%204%200%204%200%205%204v16c-1%201-1%201%200%200%202-3%203-11%201-19l-1-5h-6c-5%200-7%200-9%203m4%2023l3%202%203%201-2%203-2%203-4-4-5-4v21h18l-1-5c0-6%201-5%203%201l1%204v-5l-1-9c0-3-1-4-2-5-2-1-2-1-2%201%202%203%202%205%201%207-1%201-1-1-1-9%200-1-1-2-3-1l-4-1h-2'%20fill='%23d3d3d3'%20fill-rule='evenodd'/%3e%3c/svg%3e"},"images":{"fallback":{"src":"/static/011b3215b6b7e782f02d67aebfa4c319/a7a66/chris-wright.png","srcSet":"/static/011b3215b6b7e782f02d67aebfa4c319/a7a66/chris-wright.png 48w,\n/static/011b3215b6b7e782f02d67aebfa4c319/416a0/chris-wright.png 96w","sizes":"48px"},"sources":[{"srcSet":"/static/011b3215b6b7e782f02d67aebfa4c319/a3542/chris-wright.webp 48w,\n/static/011b3215b6b7e782f02d67aebfa4c319/0f66d/chris-wright.webp 96w","type":"image/webp","sizes":"48px"}]},"width":48,"height":48},"ImageSharp_regular":{"layout":"fixed","placeholder":{"fallback":"data:image/svg+xml,%3csvg%20xmlns='http://www.w3.org/2000/svg'%20width='48'%20height='48'%20viewBox='0%200%2048%2048'%20preserveAspectRatio='none'%3e%3cpath%20d='M22%203c-2%201-3%204-4%207l-2%205c-2%202-2%202-2-1l-2-3c-1%200-1%202%202%208%200%202%202%203%204%204%202%200%203%202%203%203h1c1-1%201-2-2-4l-4-5h1l2%201v-2c-2-1-2-1%200-1l2-2c0-6%204-9%2011-9%204%200%204%200%205%204v16c-1%201-1%201%200%200%202-3%203-11%201-19l-1-5h-6c-5%200-7%200-9%203m4%2023l3%202%203%201-2%203-2%203-4-4-5-4v21h18l-1-5c0-6%201-5%203%201l1%204v-5l-1-9c0-3-1-4-2-5-2-1-2-1-2%201%202%203%202%205%201%207-1%201-1-1-1-9%200-1-1-2-3-1l-4-1h-2'%20fill='%23d3d3d3'%20fill-rule='evenodd'/%3e%3c/svg%3e"},"images":{"fallback":{"src":"/static/011b3215b6b7e782f02d67aebfa4c319/46e60/chris-wright.png","srcSet":"/static/011b3215b6b7e782f02d67aebfa4c319/46e60/chris-wright.png 150w,\n/static/011b3215b6b7e782f02d67aebfa4c319/d612b/chris-wright.png 300w","sizes":"150px"},"sources":[{"srcSet":"/static/011b3215b6b7e782f02d67aebfa4c319/ae23d/chris-wright.webp 150w,\n/static/011b3215b6b7e782f02d67aebfa4c319/bd37b/chris-wright.webp 300w","type":"image/webp","sizes":"150px"}]},"width":150,"height":150}}},"thumbnail":null}],"pageInfo":{"pageCount":4,"hasPreviousPage":true,"hasNextPage":true,"currentPage":2},"totalCount":21}},"pageContext":{"slug":"/author/chris-wright/","limit":6,"skip":6,"collectionType":"author","paginatePostsPage":true,"basePath":"/","services":{"algolia":true,"mailchimp":false,"disqus":false,"graphComment":false,"facebookComment":false},"siteUrl":"https://labs.epi2me.io","mobileMenu":{"title":"Topics","items":[{"name":"Announcements","slug":"/category/announcements/"},{"name":"Articles","slug":"/category/articles/"},{"name":"Data Releases","slug":"/category/data-releases/"},{"name":"How Tos","slug":"/category/how-tos/"},{"name":"Software Releases","slug":"/category/software-releases/"}]},"darkMode":true,"includeExcerpt":true,"includeTimeToRead":true,"includeTableOfContents":true,"imageQuality":75}},
    "staticQueryHashes": ["1992822086","2409295108","2893703372","3667468360"]}