{
    "componentChunkName": "component---packages-blog-gatsby-blog-core-src-templates-collection-tag-js",
    "path": "/tag/r9.4.1/page/2/",
    "result": {"data":{"collectionInfo":{"id":"d10fe1bb-e5dc-5277-89f6-76c531f54d1b","name":"#R9.4.1","slug":"/tag/r9.4.1/"},"posts":{"nodes":[{"id":"f52a21b9-14d9-5323-b4be-66cb237d2ab9","title":"Small variant calling with GM24385","slug":"/gm24385_snp/","link":null,"excerpt":"In this blog post we will explore small variant calling using the  previously\nreleased  HG002 (GM…","timeToRead":3,"featured":null,"thumbnailText":null,"date":"October 15, 2020","category":{"id":"078c0aa2-b2d9-535e-b754-aa65c0c096d3","name":"Data Releases","slug":"/category/data-releases/","color":"#5fB8B1","icon":"/static/80e98fdc1b4550a2b9670e9dfc2e4f68/datareleases.svg"},"author":null,"thumbnail":null},{"id":"4d4558e3-c630-57bb-b2ec-60eba023a378","title":"GM24385 Dataset Release","slug":"/gm24385_2020.09/","link":null,"excerpt":"The R9.4.1 data referenced in this page have been superceded by the  June 2021  Guppy…","timeToRead":1,"featured":null,"thumbnailText":null,"date":"September 22, 2020","category":{"id":"078c0aa2-b2d9-535e-b754-aa65c0c096d3","name":"Data Releases","slug":"/category/data-releases/","color":"#5fB8B1","icon":"/static/80e98fdc1b4550a2b9670e9dfc2e4f68/datareleases.svg"},"author":null,"thumbnail":null}],"pageInfo":{"pageCount":2,"hasPreviousPage":true,"hasNextPage":false,"currentPage":2},"totalCount":8}},"pageContext":{"slug":"/tag/r9.4.1/","limit":6,"skip":6,"collectionType":"tags","paginatePostsPage":true,"basePath":"/","services":{"algolia":true,"mailchimp":false,"disqus":false,"graphComment":false,"facebookComment":false},"siteUrl":"https://labs.epi2me.io","mobileMenu":{"title":"Topics","items":[{"name":"Announcements","slug":"/category/announcements/"},{"name":"Data Releases","slug":"/category/data-releases/"},{"name":"How Tos","slug":"/category/how-tos/"},{"name":"Software Releases","slug":"/category/software-releases/"},{"name":"Articles","slug":"/category/articles/"}]},"darkMode":true,"includeExcerpt":true,"includeTimeToRead":true,"includeTableOfContents":true,"imageQuality":75}},
    "staticQueryHashes": ["1992822086","2409295108","2893703372","3667468360"]}