{
    "componentChunkName": "component---packages-blog-gatsby-blog-core-src-templates-collection-tag-js",
    "path": "/tag/nextflow/page/3/",
    "result": {"data":{"collectionInfo":{"id":"655b0b96-d244-5ade-ab10-5c19a9e7501d","name":"#nextflow","slug":"/tag/nextflow/"},"posts":{"nodes":[{"id":"cc028e84-1818-5481-9981-dfa2c51750dc","title":"EPI2ME Labs 22.05.01 Release","slug":"/epi2me-labs-22.05.01-release/","link":null,"excerpt":"Dear Nanopore Community, We are pleased to release a new version of the EPI2ME Labs software that…","timeToRead":2,"featured":null,"thumbnailText":null,"date":"May 04, 2022","category":{"id":"b57c7536-c6f5-56b0-b952-5e9859a2ee04","name":"Software Releases","slug":"/category/software-releases/","color":"#17BB75","icon":"/static/a7c604050eccf560e4c0749d79c6866b/softwarereleases.svg"},"author":{"id":"56d82dd5-2305-5e9b-b127-25f6aa11fe23","name":"Stephen Rudd","slug":"/author/stephen-rudd/","title":"Bioinformatics product manager","description":"I engage with Oxford Nanopore Technologies' customers to understand their needs and turn these into EPI2ME Labs products.","skills":["Bioinformatics","Product Management"],"social":null,"thumbnail":{"__typename":"ImageSharp","ImageSharp_small":{"layout":"fixed","placeholder":{"fallback":"data:image/svg+xml,%3csvg%20xmlns='http://www.w3.org/2000/svg'%20width='48'%20height='48'%20viewBox='0%200%2048%2048'%20preserveAspectRatio='none'%3e%3cpath%20d='M33%2026v2l-2%201-1%203h1c3-4%206%204%203%208-1%201-1%201-1-1s-4-7-4-5-2%203-4%201c-1-2-3%201-3%205%201%203%201%204-1%203v2c3%203%204%203%204-1v-1h2v1l2%203c2%201%202%201%202-1-1-4%200-7%201-4%202%205%204%201%204-7%200-4%201-4%203-3h4l-4-2-3-4c-1-3-3-3-3%200'%20fill='%23d3d3d3'%20fill-rule='evenodd'/%3e%3c/svg%3e"},"images":{"fallback":{"src":"/static/22bac10296ba647ce8895d4edf886f0f/a7a66/stephen-rudd.png","srcSet":"/static/22bac10296ba647ce8895d4edf886f0f/a7a66/stephen-rudd.png 48w,\n/static/22bac10296ba647ce8895d4edf886f0f/416a0/stephen-rudd.png 96w","sizes":"48px"},"sources":[{"srcSet":"/static/22bac10296ba647ce8895d4edf886f0f/a3542/stephen-rudd.webp 48w,\n/static/22bac10296ba647ce8895d4edf886f0f/0f66d/stephen-rudd.webp 96w","type":"image/webp","sizes":"48px"}]},"width":48,"height":48},"ImageSharp_regular":{"layout":"fixed","placeholder":{"fallback":"data:image/svg+xml,%3csvg%20xmlns='http://www.w3.org/2000/svg'%20width='48'%20height='48'%20viewBox='0%200%2048%2048'%20preserveAspectRatio='none'%3e%3cpath%20d='M33%2026v2l-2%201-1%203h1c3-4%206%204%203%208-1%201-1%201-1-1s-4-7-4-5-2%203-4%201c-1-2-3%201-3%205%201%203%201%204-1%203v2c3%203%204%203%204-1v-1h2v1l2%203c2%201%202%201%202-1-1-4%200-7%201-4%202%205%204%201%204-7%200-4%201-4%203-3h4l-4-2-3-4c-1-3-3-3-3%200'%20fill='%23d3d3d3'%20fill-rule='evenodd'/%3e%3c/svg%3e"},"images":{"fallback":{"src":"/static/22bac10296ba647ce8895d4edf886f0f/46e60/stephen-rudd.png","srcSet":"/static/22bac10296ba647ce8895d4edf886f0f/46e60/stephen-rudd.png 150w,\n/static/22bac10296ba647ce8895d4edf886f0f/d612b/stephen-rudd.png 300w","sizes":"150px"},"sources":[{"srcSet":"/static/22bac10296ba647ce8895d4edf886f0f/ae23d/stephen-rudd.webp 150w,\n/static/22bac10296ba647ce8895d4edf886f0f/bd37b/stephen-rudd.webp 300w","type":"image/webp","sizes":"150px"}]},"width":150,"height":150}}},"thumbnail":null},{"id":"ee8a56c9-288a-525f-b731-791ca6404215","title":"EPI2ME Labs 22.03.01 Release","slug":"/epi2me-labs-22.03.01-release/","link":null,"excerpt":"Dear Nanopore Community This week the EPI2ME Labs team is delighted to release a new workflow,\nwf…","timeToRead":1,"featured":null,"thumbnailText":null,"date":"March 09, 2022","category":{"id":"b57c7536-c6f5-56b0-b952-5e9859a2ee04","name":"Software Releases","slug":"/category/software-releases/","color":"#17BB75","icon":"/static/a7c604050eccf560e4c0749d79c6866b/softwarereleases.svg"},"author":{"id":"56d82dd5-2305-5e9b-b127-25f6aa11fe23","name":"Stephen Rudd","slug":"/author/stephen-rudd/","title":"Bioinformatics product manager","description":"I engage with Oxford Nanopore Technologies' customers to understand their needs and turn these into EPI2ME Labs products.","skills":["Bioinformatics","Product Management"],"social":null,"thumbnail":{"__typename":"ImageSharp","ImageSharp_small":{"layout":"fixed","placeholder":{"fallback":"data:image/svg+xml,%3csvg%20xmlns='http://www.w3.org/2000/svg'%20width='48'%20height='48'%20viewBox='0%200%2048%2048'%20preserveAspectRatio='none'%3e%3cpath%20d='M33%2026v2l-2%201-1%203h1c3-4%206%204%203%208-1%201-1%201-1-1s-4-7-4-5-2%203-4%201c-1-2-3%201-3%205%201%203%201%204-1%203v2c3%203%204%203%204-1v-1h2v1l2%203c2%201%202%201%202-1-1-4%200-7%201-4%202%205%204%201%204-7%200-4%201-4%203-3h4l-4-2-3-4c-1-3-3-3-3%200'%20fill='%23d3d3d3'%20fill-rule='evenodd'/%3e%3c/svg%3e"},"images":{"fallback":{"src":"/static/22bac10296ba647ce8895d4edf886f0f/a7a66/stephen-rudd.png","srcSet":"/static/22bac10296ba647ce8895d4edf886f0f/a7a66/stephen-rudd.png 48w,\n/static/22bac10296ba647ce8895d4edf886f0f/416a0/stephen-rudd.png 96w","sizes":"48px"},"sources":[{"srcSet":"/static/22bac10296ba647ce8895d4edf886f0f/a3542/stephen-rudd.webp 48w,\n/static/22bac10296ba647ce8895d4edf886f0f/0f66d/stephen-rudd.webp 96w","type":"image/webp","sizes":"48px"}]},"width":48,"height":48},"ImageSharp_regular":{"layout":"fixed","placeholder":{"fallback":"data:image/svg+xml,%3csvg%20xmlns='http://www.w3.org/2000/svg'%20width='48'%20height='48'%20viewBox='0%200%2048%2048'%20preserveAspectRatio='none'%3e%3cpath%20d='M33%2026v2l-2%201-1%203h1c3-4%206%204%203%208-1%201-1%201-1-1s-4-7-4-5-2%203-4%201c-1-2-3%201-3%205%201%203%201%204-1%203v2c3%203%204%203%204-1v-1h2v1l2%203c2%201%202%201%202-1-1-4%200-7%201-4%202%205%204%201%204-7%200-4%201-4%203-3h4l-4-2-3-4c-1-3-3-3-3%200'%20fill='%23d3d3d3'%20fill-rule='evenodd'/%3e%3c/svg%3e"},"images":{"fallback":{"src":"/static/22bac10296ba647ce8895d4edf886f0f/46e60/stephen-rudd.png","srcSet":"/static/22bac10296ba647ce8895d4edf886f0f/46e60/stephen-rudd.png 150w,\n/static/22bac10296ba647ce8895d4edf886f0f/d612b/stephen-rudd.png 300w","sizes":"150px"},"sources":[{"srcSet":"/static/22bac10296ba647ce8895d4edf886f0f/ae23d/stephen-rudd.webp 150w,\n/static/22bac10296ba647ce8895d4edf886f0f/bd37b/stephen-rudd.webp 300w","type":"image/webp","sizes":"150px"}]},"width":150,"height":150}}},"thumbnail":null},{"id":"9ab5cb3f-826e-51fb-8352-8fdee2719509","title":"EPI2ME Labs 22.02.01 Release","slug":"/epi2me-labs-22.02.01-release/","link":null,"excerpt":"Dear Nanopore Community, We are pleased to introduce an update to our EPI2ME Labs product that now…","timeToRead":2,"featured":null,"thumbnailText":null,"date":"February 09, 2022","category":{"id":"b57c7536-c6f5-56b0-b952-5e9859a2ee04","name":"Software Releases","slug":"/category/software-releases/","color":"#17BB75","icon":"/static/a7c604050eccf560e4c0749d79c6866b/softwarereleases.svg"},"author":{"id":"56d82dd5-2305-5e9b-b127-25f6aa11fe23","name":"Stephen Rudd","slug":"/author/stephen-rudd/","title":"Bioinformatics product manager","description":"I engage with Oxford Nanopore Technologies' customers to understand their needs and turn these into EPI2ME Labs products.","skills":["Bioinformatics","Product Management"],"social":null,"thumbnail":{"__typename":"ImageSharp","ImageSharp_small":{"layout":"fixed","placeholder":{"fallback":"data:image/svg+xml,%3csvg%20xmlns='http://www.w3.org/2000/svg'%20width='48'%20height='48'%20viewBox='0%200%2048%2048'%20preserveAspectRatio='none'%3e%3cpath%20d='M33%2026v2l-2%201-1%203h1c3-4%206%204%203%208-1%201-1%201-1-1s-4-7-4-5-2%203-4%201c-1-2-3%201-3%205%201%203%201%204-1%203v2c3%203%204%203%204-1v-1h2v1l2%203c2%201%202%201%202-1-1-4%200-7%201-4%202%205%204%201%204-7%200-4%201-4%203-3h4l-4-2-3-4c-1-3-3-3-3%200'%20fill='%23d3d3d3'%20fill-rule='evenodd'/%3e%3c/svg%3e"},"images":{"fallback":{"src":"/static/22bac10296ba647ce8895d4edf886f0f/a7a66/stephen-rudd.png","srcSet":"/static/22bac10296ba647ce8895d4edf886f0f/a7a66/stephen-rudd.png 48w,\n/static/22bac10296ba647ce8895d4edf886f0f/416a0/stephen-rudd.png 96w","sizes":"48px"},"sources":[{"srcSet":"/static/22bac10296ba647ce8895d4edf886f0f/a3542/stephen-rudd.webp 48w,\n/static/22bac10296ba647ce8895d4edf886f0f/0f66d/stephen-rudd.webp 96w","type":"image/webp","sizes":"48px"}]},"width":48,"height":48},"ImageSharp_regular":{"layout":"fixed","placeholder":{"fallback":"data:image/svg+xml,%3csvg%20xmlns='http://www.w3.org/2000/svg'%20width='48'%20height='48'%20viewBox='0%200%2048%2048'%20preserveAspectRatio='none'%3e%3cpath%20d='M33%2026v2l-2%201-1%203h1c3-4%206%204%203%208-1%201-1%201-1-1s-4-7-4-5-2%203-4%201c-1-2-3%201-3%205%201%203%201%204-1%203v2c3%203%204%203%204-1v-1h2v1l2%203c2%201%202%201%202-1-1-4%200-7%201-4%202%205%204%201%204-7%200-4%201-4%203-3h4l-4-2-3-4c-1-3-3-3-3%200'%20fill='%23d3d3d3'%20fill-rule='evenodd'/%3e%3c/svg%3e"},"images":{"fallback":{"src":"/static/22bac10296ba647ce8895d4edf886f0f/46e60/stephen-rudd.png","srcSet":"/static/22bac10296ba647ce8895d4edf886f0f/46e60/stephen-rudd.png 150w,\n/static/22bac10296ba647ce8895d4edf886f0f/d612b/stephen-rudd.png 300w","sizes":"150px"},"sources":[{"srcSet":"/static/22bac10296ba647ce8895d4edf886f0f/ae23d/stephen-rudd.webp 150w,\n/static/22bac10296ba647ce8895d4edf886f0f/bd37b/stephen-rudd.webp 300w","type":"image/webp","sizes":"150px"}]},"width":150,"height":150}}},"thumbnail":null},{"id":"53b7d67b-9f0a-5dad-a7ef-0fb542a0e2fa","title":"Nextflow and Jupyter Labs","slug":"/jupyterflow/","link":null,"excerpt":"We are pleased to introduce an update to our EPI2ME Labs product that now\nincludes the functionality…","timeToRead":2,"featured":null,"thumbnailText":null,"date":"February 09, 2022","category":{"id":"a1b7fa67-f4b7-5a1d-9c50-dd37d0d46093","name":"Articles","slug":"/category/articles/","color":"#A53F96","icon":"/static/a0eadc6b0bbda21a5e4290df3c07d3b4/articles.svg"},"author":{"id":"56d82dd5-2305-5e9b-b127-25f6aa11fe23","name":"Stephen Rudd","slug":"/author/stephen-rudd/","title":"Bioinformatics product manager","description":"I engage with Oxford Nanopore Technologies' customers to understand their needs and turn these into EPI2ME Labs products.","skills":["Bioinformatics","Product Management"],"social":null,"thumbnail":{"__typename":"ImageSharp","ImageSharp_small":{"layout":"fixed","placeholder":{"fallback":"data:image/svg+xml,%3csvg%20xmlns='http://www.w3.org/2000/svg'%20width='48'%20height='48'%20viewBox='0%200%2048%2048'%20preserveAspectRatio='none'%3e%3cpath%20d='M33%2026v2l-2%201-1%203h1c3-4%206%204%203%208-1%201-1%201-1-1s-4-7-4-5-2%203-4%201c-1-2-3%201-3%205%201%203%201%204-1%203v2c3%203%204%203%204-1v-1h2v1l2%203c2%201%202%201%202-1-1-4%200-7%201-4%202%205%204%201%204-7%200-4%201-4%203-3h4l-4-2-3-4c-1-3-3-3-3%200'%20fill='%23d3d3d3'%20fill-rule='evenodd'/%3e%3c/svg%3e"},"images":{"fallback":{"src":"/static/22bac10296ba647ce8895d4edf886f0f/a7a66/stephen-rudd.png","srcSet":"/static/22bac10296ba647ce8895d4edf886f0f/a7a66/stephen-rudd.png 48w,\n/static/22bac10296ba647ce8895d4edf886f0f/416a0/stephen-rudd.png 96w","sizes":"48px"},"sources":[{"srcSet":"/static/22bac10296ba647ce8895d4edf886f0f/a3542/stephen-rudd.webp 48w,\n/static/22bac10296ba647ce8895d4edf886f0f/0f66d/stephen-rudd.webp 96w","type":"image/webp","sizes":"48px"}]},"width":48,"height":48},"ImageSharp_regular":{"layout":"fixed","placeholder":{"fallback":"data:image/svg+xml,%3csvg%20xmlns='http://www.w3.org/2000/svg'%20width='48'%20height='48'%20viewBox='0%200%2048%2048'%20preserveAspectRatio='none'%3e%3cpath%20d='M33%2026v2l-2%201-1%203h1c3-4%206%204%203%208-1%201-1%201-1-1s-4-7-4-5-2%203-4%201c-1-2-3%201-3%205%201%203%201%204-1%203v2c3%203%204%203%204-1v-1h2v1l2%203c2%201%202%201%202-1-1-4%200-7%201-4%202%205%204%201%204-7%200-4%201-4%203-3h4l-4-2-3-4c-1-3-3-3-3%200'%20fill='%23d3d3d3'%20fill-rule='evenodd'/%3e%3c/svg%3e"},"images":{"fallback":{"src":"/static/22bac10296ba647ce8895d4edf886f0f/46e60/stephen-rudd.png","srcSet":"/static/22bac10296ba647ce8895d4edf886f0f/46e60/stephen-rudd.png 150w,\n/static/22bac10296ba647ce8895d4edf886f0f/d612b/stephen-rudd.png 300w","sizes":"150px"},"sources":[{"srcSet":"/static/22bac10296ba647ce8895d4edf886f0f/ae23d/stephen-rudd.webp 150w,\n/static/22bac10296ba647ce8895d4edf886f0f/bd37b/stephen-rudd.webp 300w","type":"image/webp","sizes":"150px"}]},"width":150,"height":150}}},"thumbnail":null},{"id":"cbdf707c-66d5-5dca-a172-e1b60a975ee8","title":"EPI2ME Labs 22.01.01 Release","slug":"/epi2me-labs-22.01.01-release/","link":null,"excerpt":"Dear Nanopore Community, This Wednesday we have a trio of announcements; these include a new…","timeToRead":2,"featured":null,"thumbnailText":null,"date":"January 26, 2022","category":{"id":"b57c7536-c6f5-56b0-b952-5e9859a2ee04","name":"Software Releases","slug":"/category/software-releases/","color":"#17BB75","icon":"/static/a7c604050eccf560e4c0749d79c6866b/softwarereleases.svg"},"author":{"id":"56d82dd5-2305-5e9b-b127-25f6aa11fe23","name":"Stephen Rudd","slug":"/author/stephen-rudd/","title":"Bioinformatics product manager","description":"I engage with Oxford Nanopore Technologies' customers to understand their needs and turn these into EPI2ME Labs products.","skills":["Bioinformatics","Product Management"],"social":null,"thumbnail":{"__typename":"ImageSharp","ImageSharp_small":{"layout":"fixed","placeholder":{"fallback":"data:image/svg+xml,%3csvg%20xmlns='http://www.w3.org/2000/svg'%20width='48'%20height='48'%20viewBox='0%200%2048%2048'%20preserveAspectRatio='none'%3e%3cpath%20d='M33%2026v2l-2%201-1%203h1c3-4%206%204%203%208-1%201-1%201-1-1s-4-7-4-5-2%203-4%201c-1-2-3%201-3%205%201%203%201%204-1%203v2c3%203%204%203%204-1v-1h2v1l2%203c2%201%202%201%202-1-1-4%200-7%201-4%202%205%204%201%204-7%200-4%201-4%203-3h4l-4-2-3-4c-1-3-3-3-3%200'%20fill='%23d3d3d3'%20fill-rule='evenodd'/%3e%3c/svg%3e"},"images":{"fallback":{"src":"/static/22bac10296ba647ce8895d4edf886f0f/a7a66/stephen-rudd.png","srcSet":"/static/22bac10296ba647ce8895d4edf886f0f/a7a66/stephen-rudd.png 48w,\n/static/22bac10296ba647ce8895d4edf886f0f/416a0/stephen-rudd.png 96w","sizes":"48px"},"sources":[{"srcSet":"/static/22bac10296ba647ce8895d4edf886f0f/a3542/stephen-rudd.webp 48w,\n/static/22bac10296ba647ce8895d4edf886f0f/0f66d/stephen-rudd.webp 96w","type":"image/webp","sizes":"48px"}]},"width":48,"height":48},"ImageSharp_regular":{"layout":"fixed","placeholder":{"fallback":"data:image/svg+xml,%3csvg%20xmlns='http://www.w3.org/2000/svg'%20width='48'%20height='48'%20viewBox='0%200%2048%2048'%20preserveAspectRatio='none'%3e%3cpath%20d='M33%2026v2l-2%201-1%203h1c3-4%206%204%203%208-1%201-1%201-1-1s-4-7-4-5-2%203-4%201c-1-2-3%201-3%205%201%203%201%204-1%203v2c3%203%204%203%204-1v-1h2v1l2%203c2%201%202%201%202-1-1-4%200-7%201-4%202%205%204%201%204-7%200-4%201-4%203-3h4l-4-2-3-4c-1-3-3-3-3%200'%20fill='%23d3d3d3'%20fill-rule='evenodd'/%3e%3c/svg%3e"},"images":{"fallback":{"src":"/static/22bac10296ba647ce8895d4edf886f0f/46e60/stephen-rudd.png","srcSet":"/static/22bac10296ba647ce8895d4edf886f0f/46e60/stephen-rudd.png 150w,\n/static/22bac10296ba647ce8895d4edf886f0f/d612b/stephen-rudd.png 300w","sizes":"150px"},"sources":[{"srcSet":"/static/22bac10296ba647ce8895d4edf886f0f/ae23d/stephen-rudd.webp 150w,\n/static/22bac10296ba647ce8895d4edf886f0f/bd37b/stephen-rudd.webp 300w","type":"image/webp","sizes":"150px"}]},"width":150,"height":150}}},"thumbnail":null},{"id":"1b7f5825-c6e5-55ac-a9fb-5f13b7a7abe1","title":"SARS-CoV-2 Midnight Analysis","slug":"/sarscov2-midnight-analysis/","link":null,"excerpt":"Introduction I wanted to write a blog post about SARS-CoV-2 sequencing data analysis to achieve two…","timeToRead":6,"featured":null,"thumbnailText":null,"date":"January 24, 2022","category":{"id":"4f36d32c-530e-537e-b7ed-10a6ed8b3809","name":"How Tos","slug":"/category/how-tos/","color":"#B8E986","icon":"/static/7259c9d3481cdab1f093943d7d0bc600/how-tos.svg"},"author":{"id":"f07249f7-bd19-5b23-8016-610b17b0790d","name":"Matt Parker","slug":"/author/matt-parker/","title":"Clinical Bioinformatics Lead","description":"I focus on bioinformatics workflows for clinical applications, ensuring our workflows meet relevant standards.","skills":["Bioinformatics","Clinical Workflows"],"social":null,"thumbnail":{"__typename":"ImageSharp","ImageSharp_small":{"layout":"fixed","placeholder":{"fallback":"data:image/svg+xml,%3csvg%20xmlns='http://www.w3.org/2000/svg'%20width='150'%20height='150'%20viewBox='0%200%20150%20150'%20preserveAspectRatio='none'%3e%3cpath%20d='M67%2035l-3%202c-2%202-2%202%200%202%205-1%204%200-2%201-9%201-15%203-17%205l-4%201-3%201%201%201%201%206v15c1%207%201%208-1%207v1c2%202%207%2022%207%2028v4l1-3%201-3v2l3%206%201%204%202%202%202%204%203%202c1-1%202%200%202%201l3%204%205%202%201%203%201%202h1l1%201%2012%202c3%201%203%201%203-1h2c2%203%201%205-2%209l-1%204%202-1%202-1%203-2v4h11c10%200%2010%200%2010-2-1-3%201-3%202%200%201%202%203%202%2013%202l11-1h1l1-1v-1l1-2c-1-3%201-2%203%201s2%203%203%202c1-2%201-3-1-4s-3-3-3-5%200-2-2-2l-2%201v1l-1%201-1%203-1%204v-15h-3v3c1%201%201%201-3%201l-2%201c0%202-4%207-5%206s5-11%207-12c1-1%205%200%208%201h9l-6-3a499%20499%200%2001-22-5c-4-1-5-4-2-7%201%200%202-2%201-3%200-2%200-2%201-1%201%202%202%201%202-8-1-24-1-32-2-28v12c0%2011%200%2013-5%206-5-8-12-12-14-6%200%202%200%202-2%200l-3-1-1-1-3-1-3%202-3%201-4%201c-2%200-8%206-10%2013l-3%203-3%202h-2l-1-3%201-1h1l-3-1-2-2v-1c2%201%202%200%200-2-1-2-3-1-3%201l-5-5v-3h-1l-2-3-2-7c-3-5-5-14-5-19%200-3%200-5-1-4-2%201%201-9%203-11l6-1c4-1%204-1%206%203l2%203%201%204c0%205%203%2010%207%2012%205%203%2016%203%2019%200%201-1%201-1%200%200-9%203-20%200-23-6-2-4-2-12%200-14v6h3c2-1%204%200%205%201l4%201c2%200%204-3%203-4l1-1%207%204%201%201%201-3h-1l-4-2c-3-2-11-3-15%200-3%201-3%201-3-1l2-2%208-1%207%201c3%202%209%203%209%201h2c2%202%201%209-1%208l-2%201%201%202v1l-1%201-1%203-1%202c1%200%206-6%207-9%201-4%203-7%206-7%202%200%204%204%206%2011%201%207%204%2010%2011%2010h6l-6-1c-7-1-10-4-10-10%200-3%200-4%202-3%202%200%202%200%203-2l2-2%201%202c-1%202%201%203%201%201%201-2%203%201%204%206s1%205%201-2c0-9%200-9%206-8%206%200%206%202%203%2010l-3%205c1%200%205-6%205-8l1-2c2-1%206-6%206-8%200-1-8-3-13-3-3%200-7-3-6-5%201-1-5-2-8-1s-5%204-4%206c0%203-9%202-17-2l-9-3c-4-1-4-1-1-1s4-1%202-4h-2c0%201-1%201-2-1l-5-1h-4l1%201c1%201%201%201-2%201s-3%200-2-2c2-1%202-1%200-1l-2%201m32%2066l-9%201c-5-1-12%207-8%209%203%201%204-1%203-3-1-1-1-1%201-1%201%201%202%200%203-1%202-2%2014-3%2015-1h1c0-2%201-1%204%201%204%204%205%202%201-3-2-3-2-3-11-2m-57%209c-7%204-11%2013-10%2018v4c-2%201-2%202%200%207%200%202%200%202-2%201l-1%201-1%203c-2%202-2%202-1%203l1%202%205%201c3%200%205%200%204-1h19l-5-4c-8-4-12-17-8-25%203-5%204-12%202-12l-3%202m-14%2018l-4%201-8%203c-5%202-6%203-3%203%202-1%203%200%203%201l2%203-1%202h-1l2%201v1l1%201c1-1%201%200%201%201%200%202%200%202-1%201s-1-1-1%201l-1%202h-1l3%201%203-1v-2c1-1%202-2%201-3h2l1-4v-5c-2-3-1-5%201-5l3-2c1-2%200-3-2%200'%20fill='%23d3d3d3'%20fill-rule='evenodd'/%3e%3c/svg%3e"},"images":{"fallback":{"src":"/static/e960a5c57f72b84c747215e272cc480e/a7a66/matt-parker.png","srcSet":"/static/e960a5c57f72b84c747215e272cc480e/a7a66/matt-parker.png 48w,\n/static/e960a5c57f72b84c747215e272cc480e/416a0/matt-parker.png 96w","sizes":"48px"},"sources":[{"srcSet":"/static/e960a5c57f72b84c747215e272cc480e/a3542/matt-parker.webp 48w,\n/static/e960a5c57f72b84c747215e272cc480e/0f66d/matt-parker.webp 96w","type":"image/webp","sizes":"48px"}]},"width":48,"height":48},"ImageSharp_regular":{"layout":"fixed","placeholder":{"fallback":"data:image/svg+xml,%3csvg%20xmlns='http://www.w3.org/2000/svg'%20width='150'%20height='150'%20viewBox='0%200%20150%20150'%20preserveAspectRatio='none'%3e%3cpath%20d='M67%2035l-3%202c-2%202-2%202%200%202%205-1%204%200-2%201-9%201-15%203-17%205l-4%201-3%201%201%201%201%206v15c1%207%201%208-1%207v1c2%202%207%2022%207%2028v4l1-3%201-3v2l3%206%201%204%202%202%202%204%203%202c1-1%202%200%202%201l3%204%205%202%201%203%201%202h1l1%201%2012%202c3%201%203%201%203-1h2c2%203%201%205-2%209l-1%204%202-1%202-1%203-2v4h11c10%200%2010%200%2010-2-1-3%201-3%202%200%201%202%203%202%2013%202l11-1h1l1-1v-1l1-2c-1-3%201-2%203%201s2%203%203%202c1-2%201-3-1-4s-3-3-3-5%200-2-2-2l-2%201v1l-1%201-1%203-1%204v-15h-3v3c1%201%201%201-3%201l-2%201c0%202-4%207-5%206s5-11%207-12c1-1%205%200%208%201h9l-6-3a499%20499%200%2001-22-5c-4-1-5-4-2-7%201%200%202-2%201-3%200-2%200-2%201-1%201%202%202%201%202-8-1-24-1-32-2-28v12c0%2011%200%2013-5%206-5-8-12-12-14-6%200%202%200%202-2%200l-3-1-1-1-3-1-3%202-3%201-4%201c-2%200-8%206-10%2013l-3%203-3%202h-2l-1-3%201-1h1l-3-1-2-2v-1c2%201%202%200%200-2-1-2-3-1-3%201l-5-5v-3h-1l-2-3-2-7c-3-5-5-14-5-19%200-3%200-5-1-4-2%201%201-9%203-11l6-1c4-1%204-1%206%203l2%203%201%204c0%205%203%2010%207%2012%205%203%2016%203%2019%200%201-1%201-1%200%200-9%203-20%200-23-6-2-4-2-12%200-14v6h3c2-1%204%200%205%201l4%201c2%200%204-3%203-4l1-1%207%204%201%201%201-3h-1l-4-2c-3-2-11-3-15%200-3%201-3%201-3-1l2-2%208-1%207%201c3%202%209%203%209%201h2c2%202%201%209-1%208l-2%201%201%202v1l-1%201-1%203-1%202c1%200%206-6%207-9%201-4%203-7%206-7%202%200%204%204%206%2011%201%207%204%2010%2011%2010h6l-6-1c-7-1-10-4-10-10%200-3%200-4%202-3%202%200%202%200%203-2l2-2%201%202c-1%202%201%203%201%201%201-2%203%201%204%206s1%205%201-2c0-9%200-9%206-8%206%200%206%202%203%2010l-3%205c1%200%205-6%205-8l1-2c2-1%206-6%206-8%200-1-8-3-13-3-3%200-7-3-6-5%201-1-5-2-8-1s-5%204-4%206c0%203-9%202-17-2l-9-3c-4-1-4-1-1-1s4-1%202-4h-2c0%201-1%201-2-1l-5-1h-4l1%201c1%201%201%201-2%201s-3%200-2-2c2-1%202-1%200-1l-2%201m32%2066l-9%201c-5-1-12%207-8%209%203%201%204-1%203-3-1-1-1-1%201-1%201%201%202%200%203-1%202-2%2014-3%2015-1h1c0-2%201-1%204%201%204%204%205%202%201-3-2-3-2-3-11-2m-57%209c-7%204-11%2013-10%2018v4c-2%201-2%202%200%207%200%202%200%202-2%201l-1%201-1%203c-2%202-2%202-1%203l1%202%205%201c3%200%205%200%204-1h19l-5-4c-8-4-12-17-8-25%203-5%204-12%202-12l-3%202m-14%2018l-4%201-8%203c-5%202-6%203-3%203%202-1%203%200%203%201l2%203-1%202h-1l2%201v1l1%201c1-1%201%200%201%201%200%202%200%202-1%201s-1-1-1%201l-1%202h-1l3%201%203-1v-2c1-1%202-2%201-3h2l1-4v-5c-2-3-1-5%201-5l3-2c1-2%200-3-2%200'%20fill='%23d3d3d3'%20fill-rule='evenodd'/%3e%3c/svg%3e"},"images":{"fallback":{"src":"/static/e960a5c57f72b84c747215e272cc480e/46e60/matt-parker.png","srcSet":"/static/e960a5c57f72b84c747215e272cc480e/46e60/matt-parker.png 150w,\n/static/e960a5c57f72b84c747215e272cc480e/d612b/matt-parker.png 300w","sizes":"150px"},"sources":[{"srcSet":"/static/e960a5c57f72b84c747215e272cc480e/ae23d/matt-parker.webp 150w,\n/static/e960a5c57f72b84c747215e272cc480e/bd37b/matt-parker.webp 300w","type":"image/webp","sizes":"150px"}]},"width":150,"height":150}}},"thumbnail":{"__typename":"ImageSharp","ImageSharp_vertical":{"layout":"constrained","backgroundColor":"#888888","images":{"fallback":{"src":"/static/0be72d91de3e75aabbac10d36291da9e/144fe/AdobeStock_322667262.jpg","srcSet":"/static/0be72d91de3e75aabbac10d36291da9e/9d7b9/AdobeStock_322667262.jpg 190w,\n/static/0be72d91de3e75aabbac10d36291da9e/144fe/AdobeStock_322667262.jpg 380w","sizes":"(min-width: 380px) 380px, 100vw"},"sources":[{"srcSet":"/static/0be72d91de3e75aabbac10d36291da9e/228d6/AdobeStock_322667262.webp 190w,\n/static/0be72d91de3e75aabbac10d36291da9e/6b99c/AdobeStock_322667262.webp 380w","type":"image/webp","sizes":"(min-width: 380px) 380px, 100vw"}]},"width":380,"height":290},"ImageSharp_hero":{"layout":"constrained","backgroundColor":"#888888","images":{"fallback":{"src":"/static/0be72d91de3e75aabbac10d36291da9e/5e493/AdobeStock_322667262.jpg","srcSet":"/static/0be72d91de3e75aabbac10d36291da9e/696c0/AdobeStock_322667262.jpg 800w,\n/static/0be72d91de3e75aabbac10d36291da9e/5e493/AdobeStock_322667262.jpg 1600w","sizes":"(min-width: 1600px) 1600px, 100vw"},"sources":[{"srcSet":"/static/0be72d91de3e75aabbac10d36291da9e/c9f06/AdobeStock_322667262.webp 800w,\n/static/0be72d91de3e75aabbac10d36291da9e/f47df/AdobeStock_322667262.webp 1600w","type":"image/webp","sizes":"(min-width: 1600px) 1600px, 100vw"}]},"width":1600,"height":650}}}],"pageInfo":{"pageCount":5,"hasPreviousPage":true,"hasNextPage":true,"currentPage":3},"totalCount":26}},"pageContext":{"slug":"/tag/nextflow/","limit":6,"skip":12,"collectionType":"tags","paginatePostsPage":true,"basePath":"/","services":{"algolia":true,"mailchimp":false,"disqus":false,"graphComment":false,"facebookComment":false},"siteUrl":"https://labs.epi2me.io","mobileMenu":{"title":"Topics","items":[{"name":"Announcements","slug":"/category/announcements/"},{"name":"Articles","slug":"/category/articles/"},{"name":"Data Releases","slug":"/category/data-releases/"},{"name":"How Tos","slug":"/category/how-tos/"},{"name":"Software Releases","slug":"/category/software-releases/"}]},"darkMode":true,"includeExcerpt":true,"includeTimeToRead":true,"includeTableOfContents":true,"imageQuality":75}},
    "staticQueryHashes": ["1992822086","2409295108","2893703372","3667468360"]}