{
    "componentChunkName": "component---packages-blog-gatsby-blog-core-src-templates-collection-category-js",
    "path": "/category/articles/",
    "result": {"data":{"collectionInfo":{"id":"9b9b70a4-b561-5e39-9bc6-ca33f9e06a74","name":"Articles","slug":"/category/articles/","description":"Discussion articles"},"posts":{"nodes":[{"id":"7ba07654-1018-580f-9a50-83362cd414da","title":"Phasing and Whatshap","slug":"/phasing-and-whatshap/","link":null,"excerpt":"Phasing, also referred to as haplotyping, relates to methods used to infer which genetic variants…","timeToRead":3,"featured":null,"thumbnailText":null,"date":"November 26, 2021","category":{"id":"9b9b70a4-b561-5e39-9bc6-ca33f9e06a74","name":"Articles","slug":"/category/articles/","color":"#A53F96","icon":"/static/a0eadc6b0bbda21a5e4290df3c07d3b4/articles.svg"},"author":{"id":"2fe8d2d9-6cd0-5439-8f01-a35368b757ef","name":"Sarah Griffiths","slug":"/author/sarah-griffiths/","title":"Bioinformatician","description":"I'm a bioinformatician working on creating new workflows and ensuring our analysis notebooks are maintained for all levels of EPI2ME Labs' users.","skills":["Bioinformatics","Data Visualization"],"social":null,"thumbnail":{"__typename":"ImageSharp","ImageSharp_small":{"layout":"fixed","placeholder":{"fallback":"data:image/svg+xml,%3csvg%20xmlns='http://www.w3.org/2000/svg'%20width='48'%20height='48'%20viewBox='0%200%2048%2048'%20preserveAspectRatio='none'%3e%3cpath%20d='M20%201v4c-3%202-5%209-4%2010l1%202c0%203-2%202-2-1-1-2-1-2-1%200l1%204c2%201%200%2010-2%2010l-1-3c-1-3-1-3-2-2v2l1%203-1%202-1%201c-2%201-5%2014-4%2015l2-5%202-6%204%209c0%202%200%202%207%202l6-1h1l7%201h6v-3c-1-5%202-6%203-1%202%206%202%204%201-3-1-6-6-11-7-8h-2c-2%200-2%200%200-1s2-1-1-2l-3-1-2-1v3c2%202%202%204-1%204s-9-4-9-5l-1-1c-1%200-2-1-1-3l1-2%201%203c0%202%200%202%201%201l-1-7c-2-6-1-12%203-16%201-2%203-3%204-2l2-1c1-1%200-1-1-1l-5-1-2%201'%20fill='%23d3d3d3'%20fill-rule='evenodd'/%3e%3c/svg%3e"},"images":{"fallback":{"src":"/static/5cb00aaf799aa814728c4eba271ae9c1/a7a66/sarah-griffiths.png","srcSet":"/static/5cb00aaf799aa814728c4eba271ae9c1/a7a66/sarah-griffiths.png 48w,\n/static/5cb00aaf799aa814728c4eba271ae9c1/416a0/sarah-griffiths.png 96w","sizes":"48px"},"sources":[{"srcSet":"/static/5cb00aaf799aa814728c4eba271ae9c1/a3542/sarah-griffiths.webp 48w,\n/static/5cb00aaf799aa814728c4eba271ae9c1/0f66d/sarah-griffiths.webp 96w","type":"image/webp","sizes":"48px"}]},"width":48,"height":48},"ImageSharp_regular":{"layout":"fixed","placeholder":{"fallback":"data:image/svg+xml,%3csvg%20xmlns='http://www.w3.org/2000/svg'%20width='48'%20height='48'%20viewBox='0%200%2048%2048'%20preserveAspectRatio='none'%3e%3cpath%20d='M20%201v4c-3%202-5%209-4%2010l1%202c0%203-2%202-2-1-1-2-1-2-1%200l1%204c2%201%200%2010-2%2010l-1-3c-1-3-1-3-2-2v2l1%203-1%202-1%201c-2%201-5%2014-4%2015l2-5%202-6%204%209c0%202%200%202%207%202l6-1h1l7%201h6v-3c-1-5%202-6%203-1%202%206%202%204%201-3-1-6-6-11-7-8h-2c-2%200-2%200%200-1s2-1-1-2l-3-1-2-1v3c2%202%202%204-1%204s-9-4-9-5l-1-1c-1%200-2-1-1-3l1-2%201%203c0%202%200%202%201%201l-1-7c-2-6-1-12%203-16%201-2%203-3%204-2l2-1c1-1%200-1-1-1l-5-1-2%201'%20fill='%23d3d3d3'%20fill-rule='evenodd'/%3e%3c/svg%3e"},"images":{"fallback":{"src":"/static/5cb00aaf799aa814728c4eba271ae9c1/46e60/sarah-griffiths.png","srcSet":"/static/5cb00aaf799aa814728c4eba271ae9c1/46e60/sarah-griffiths.png 150w,\n/static/5cb00aaf799aa814728c4eba271ae9c1/d612b/sarah-griffiths.png 300w","sizes":"150px"},"sources":[{"srcSet":"/static/5cb00aaf799aa814728c4eba271ae9c1/ae23d/sarah-griffiths.webp 150w,\n/static/5cb00aaf799aa814728c4eba271ae9c1/bd37b/sarah-griffiths.webp 300w","type":"image/webp","sizes":"150px"}]},"width":150,"height":150}}},"thumbnail":null},{"id":"cb802083-b363-59bd-b572-e3abf5b05503","title":"Assembly tools and Flye","slug":"/assembly-flye/","link":null,"excerpt":"Assembly is required because sample extraction, processing, handling and sequencing can lead to the…","timeToRead":4,"featured":null,"thumbnailText":null,"date":"August 06, 2021","category":{"id":"9b9b70a4-b561-5e39-9bc6-ca33f9e06a74","name":"Articles","slug":"/category/articles/","color":"#A53F96","icon":"/static/a0eadc6b0bbda21a5e4290df3c07d3b4/articles.svg"},"author":{"id":"2fe8d2d9-6cd0-5439-8f01-a35368b757ef","name":"Sarah Griffiths","slug":"/author/sarah-griffiths/","title":"Bioinformatician","description":"I'm a bioinformatician working on creating new workflows and ensuring our analysis notebooks are maintained for all levels of EPI2ME Labs' users.","skills":["Bioinformatics","Data Visualization"],"social":null,"thumbnail":{"__typename":"ImageSharp","ImageSharp_small":{"layout":"fixed","placeholder":{"fallback":"data:image/svg+xml,%3csvg%20xmlns='http://www.w3.org/2000/svg'%20width='48'%20height='48'%20viewBox='0%200%2048%2048'%20preserveAspectRatio='none'%3e%3cpath%20d='M20%201v4c-3%202-5%209-4%2010l1%202c0%203-2%202-2-1-1-2-1-2-1%200l1%204c2%201%200%2010-2%2010l-1-3c-1-3-1-3-2-2v2l1%203-1%202-1%201c-2%201-5%2014-4%2015l2-5%202-6%204%209c0%202%200%202%207%202l6-1h1l7%201h6v-3c-1-5%202-6%203-1%202%206%202%204%201-3-1-6-6-11-7-8h-2c-2%200-2%200%200-1s2-1-1-2l-3-1-2-1v3c2%202%202%204-1%204s-9-4-9-5l-1-1c-1%200-2-1-1-3l1-2%201%203c0%202%200%202%201%201l-1-7c-2-6-1-12%203-16%201-2%203-3%204-2l2-1c1-1%200-1-1-1l-5-1-2%201'%20fill='%23d3d3d3'%20fill-rule='evenodd'/%3e%3c/svg%3e"},"images":{"fallback":{"src":"/static/5cb00aaf799aa814728c4eba271ae9c1/a7a66/sarah-griffiths.png","srcSet":"/static/5cb00aaf799aa814728c4eba271ae9c1/a7a66/sarah-griffiths.png 48w,\n/static/5cb00aaf799aa814728c4eba271ae9c1/416a0/sarah-griffiths.png 96w","sizes":"48px"},"sources":[{"srcSet":"/static/5cb00aaf799aa814728c4eba271ae9c1/a3542/sarah-griffiths.webp 48w,\n/static/5cb00aaf799aa814728c4eba271ae9c1/0f66d/sarah-griffiths.webp 96w","type":"image/webp","sizes":"48px"}]},"width":48,"height":48},"ImageSharp_regular":{"layout":"fixed","placeholder":{"fallback":"data:image/svg+xml,%3csvg%20xmlns='http://www.w3.org/2000/svg'%20width='48'%20height='48'%20viewBox='0%200%2048%2048'%20preserveAspectRatio='none'%3e%3cpath%20d='M20%201v4c-3%202-5%209-4%2010l1%202c0%203-2%202-2-1-1-2-1-2-1%200l1%204c2%201%200%2010-2%2010l-1-3c-1-3-1-3-2-2v2l1%203-1%202-1%201c-2%201-5%2014-4%2015l2-5%202-6%204%209c0%202%200%202%207%202l6-1h1l7%201h6v-3c-1-5%202-6%203-1%202%206%202%204%201-3-1-6-6-11-7-8h-2c-2%200-2%200%200-1s2-1-1-2l-3-1-2-1v3c2%202%202%204-1%204s-9-4-9-5l-1-1c-1%200-2-1-1-3l1-2%201%203c0%202%200%202%201%201l-1-7c-2-6-1-12%203-16%201-2%203-3%204-2l2-1c1-1%200-1-1-1l-5-1-2%201'%20fill='%23d3d3d3'%20fill-rule='evenodd'/%3e%3c/svg%3e"},"images":{"fallback":{"src":"/static/5cb00aaf799aa814728c4eba271ae9c1/46e60/sarah-griffiths.png","srcSet":"/static/5cb00aaf799aa814728c4eba271ae9c1/46e60/sarah-griffiths.png 150w,\n/static/5cb00aaf799aa814728c4eba271ae9c1/d612b/sarah-griffiths.png 300w","sizes":"150px"},"sources":[{"srcSet":"/static/5cb00aaf799aa814728c4eba271ae9c1/ae23d/sarah-griffiths.webp 150w,\n/static/5cb00aaf799aa814728c4eba271ae9c1/bd37b/sarah-griffiths.webp 300w","type":"image/webp","sizes":"150px"}]},"width":150,"height":150}}},"thumbnail":null},{"id":"2a08e58d-a0e3-5b50-9a64-7ebd485c51bc","title":"Normalizing fastq data","slug":"/introducing-fastcat/","link":null,"excerpt":"Oxford Nanopore Sequencing devices output RNA and DNA read sequences in batched\n fastq  files. This…","timeToRead":2,"featured":null,"thumbnailText":null,"date":"July 07, 2021","category":{"id":"9b9b70a4-b561-5e39-9bc6-ca33f9e06a74","name":"Articles","slug":"/category/articles/","color":"#A53F96","icon":"/static/a0eadc6b0bbda21a5e4290df3c07d3b4/articles.svg"},"author":{"id":"c7dab221-4c4a-5cdc-aa2a-65cc06de87b9","name":"Chris Wright","slug":"/author/chris-wright/","title":"Director Customer Workflows","description":"I co-ordinate the activities of the Customer Workflows Group at Oxford Nanopore Technologies. Previously I worked in the Research division at ONT leading the Scientific Data Analysis Group.","skills":["Scientific software design","Computational biology","Consensus and variant calling"],"social":[{"name":"Twitter","url":"https://twitter.com/chrisnrg"}],"thumbnail":{"__typename":"ImageSharp","ImageSharp_small":{"layout":"fixed","placeholder":{"fallback":"data:image/svg+xml,%3csvg%20xmlns='http://www.w3.org/2000/svg'%20width='150'%20height='150'%20viewBox='0%200%20150%20150'%20preserveAspectRatio='none'%3e%3cpath%20d='M48%202c-5%203-12%2014-15%2024-1%205%200%2011%204%2015l2%205%202%208%202%207c1%206%207%2010%2015%2010%205%200%2011%206%209%208l-1%204c0%202%202%201%203-1l3-3c2%200%201-2-3-5l-7-7c-2-3-3-4-5-4-5%200-9-8-6-13%202-3%206-4%209-3%203%203%205%200%205-5-1-4%200-10%203-13l5-7c4-7%207-8%2022-9%2016-1%2017-1%2020%205%205%2011%206%2037%203%2048-6%2017-22%2024-33%2015-4-3-6-3-3%200s9%206%2014%206l4%201-10%2019-3%204-6-6a179%20179%200%2001-19-21l-1%202v7l-2%2031v26h56l-1-5a1097%201097%200%2000-6-59l3-4c12-10%2016-44%207-64l-3-10c0-8%200-8-14-8-20%200-30%204-37%2013-4%207-8%2017-9%2025l-1%206c-3%200-6%205-7%209v4l-3-5c-2-5-2-7-2-15%200-9-1-10-3-2l-1%204-1-3c-2-4-2-10%202-18%205-9%209-13%2016-16l5-2h-4l-8%202m10%2085l-6%201c-19%203-36%2023-45%2054-2%208-2%208%200%208%201%200%202-1%203-6%208-28%2024-49%2042-54l3-1-3%202c-6%208-7%2013-4%2025l2%207-2%204-4%207c-2%204-1%2016%201%2016l1-6c0-5%201-8%204-14l3-7-2-9c-4-10-3-15%204-23l4-5-1%201m51%202l3%206c4%206%204%2010%203%2016-1%205-1%206%201%2011%203%207%206%2019%206%2024%200%203%200%204%202%204%204%200%202-17-3-29-2-4-3-6-2-11%200-6%200-8-4-15-1-3%207%203%2011%207%207%208%2011%2020%2015%2041%201%206%202%207%203%207%203%200%203-1-1-16-6-25-13-36-25-40-2-1-5-2-6-4l-3-1'%20fill='%23d3d3d3'%20fill-rule='evenodd'/%3e%3c/svg%3e"},"images":{"fallback":{"src":"/static/011b3215b6b7e782f02d67aebfa4c319/a7a66/chris-wright.png","srcSet":"/static/011b3215b6b7e782f02d67aebfa4c319/a7a66/chris-wright.png 48w,\n/static/011b3215b6b7e782f02d67aebfa4c319/416a0/chris-wright.png 96w","sizes":"48px"},"sources":[{"srcSet":"/static/011b3215b6b7e782f02d67aebfa4c319/a3542/chris-wright.webp 48w,\n/static/011b3215b6b7e782f02d67aebfa4c319/0f66d/chris-wright.webp 96w","type":"image/webp","sizes":"48px"}]},"width":48,"height":48},"ImageSharp_regular":{"layout":"fixed","placeholder":{"fallback":"data:image/svg+xml,%3csvg%20xmlns='http://www.w3.org/2000/svg'%20width='150'%20height='150'%20viewBox='0%200%20150%20150'%20preserveAspectRatio='none'%3e%3cpath%20d='M48%202c-5%203-12%2014-15%2024-1%205%200%2011%204%2015l2%205%202%208%202%207c1%206%207%2010%2015%2010%205%200%2011%206%209%208l-1%204c0%202%202%201%203-1l3-3c2%200%201-2-3-5l-7-7c-2-3-3-4-5-4-5%200-9-8-6-13%202-3%206-4%209-3%203%203%205%200%205-5-1-4%200-10%203-13l5-7c4-7%207-8%2022-9%2016-1%2017-1%2020%205%205%2011%206%2037%203%2048-6%2017-22%2024-33%2015-4-3-6-3-3%200s9%206%2014%206l4%201-10%2019-3%204-6-6a179%20179%200%2001-19-21l-1%202v7l-2%2031v26h56l-1-5a1097%201097%200%2000-6-59l3-4c12-10%2016-44%207-64l-3-10c0-8%200-8-14-8-20%200-30%204-37%2013-4%207-8%2017-9%2025l-1%206c-3%200-6%205-7%209v4l-3-5c-2-5-2-7-2-15%200-9-1-10-3-2l-1%204-1-3c-2-4-2-10%202-18%205-9%209-13%2016-16l5-2h-4l-8%202m10%2085l-6%201c-19%203-36%2023-45%2054-2%208-2%208%200%208%201%200%202-1%203-6%208-28%2024-49%2042-54l3-1-3%202c-6%208-7%2013-4%2025l2%207-2%204-4%207c-2%204-1%2016%201%2016l1-6c0-5%201-8%204-14l3-7-2-9c-4-10-3-15%204-23l4-5-1%201m51%202l3%206c4%206%204%2010%203%2016-1%205-1%206%201%2011%203%207%206%2019%206%2024%200%203%200%204%202%204%204%200%202-17-3-29-2-4-3-6-2-11%200-6%200-8-4-15-1-3%207%203%2011%207%207%208%2011%2020%2015%2041%201%206%202%207%203%207%203%200%203-1-1-16-6-25-13-36-25-40-2-1-5-2-6-4l-3-1'%20fill='%23d3d3d3'%20fill-rule='evenodd'/%3e%3c/svg%3e"},"images":{"fallback":{"src":"/static/011b3215b6b7e782f02d67aebfa4c319/46e60/chris-wright.png","srcSet":"/static/011b3215b6b7e782f02d67aebfa4c319/46e60/chris-wright.png 150w,\n/static/011b3215b6b7e782f02d67aebfa4c319/d612b/chris-wright.png 300w","sizes":"150px"},"sources":[{"srcSet":"/static/011b3215b6b7e782f02d67aebfa4c319/ae23d/chris-wright.webp 150w,\n/static/011b3215b6b7e782f02d67aebfa4c319/bd37b/chris-wright.webp 300w","type":"image/webp","sizes":"150px"}]},"width":150,"height":150}}},"thumbnail":null},{"id":"d8567e50-467e-5a81-8f93-3607029293e3","title":"Quality Scores And Read Accuracy","slug":"/quality-scores/","link":null,"excerpt":"In this brief post we will examine the concepts of read accuracy and read\nquality scores, and how…","timeToRead":6,"featured":null,"thumbnailText":null,"date":"July 01, 2021","category":{"id":"9b9b70a4-b561-5e39-9bc6-ca33f9e06a74","name":"Articles","slug":"/category/articles/","color":"#A53F96","icon":"/static/a0eadc6b0bbda21a5e4290df3c07d3b4/articles.svg"},"author":{"id":"2fe8d2d9-6cd0-5439-8f01-a35368b757ef","name":"Sarah Griffiths","slug":"/author/sarah-griffiths/","title":"Bioinformatician","description":"I'm a bioinformatician working on creating new workflows and ensuring our analysis notebooks are maintained for all levels of EPI2ME Labs' users.","skills":["Bioinformatics","Data Visualization"],"social":null,"thumbnail":{"__typename":"ImageSharp","ImageSharp_small":{"layout":"fixed","placeholder":{"fallback":"data:image/svg+xml,%3csvg%20xmlns='http://www.w3.org/2000/svg'%20width='48'%20height='48'%20viewBox='0%200%2048%2048'%20preserveAspectRatio='none'%3e%3cpath%20d='M20%201v4c-3%202-5%209-4%2010l1%202c0%203-2%202-2-1-1-2-1-2-1%200l1%204c2%201%200%2010-2%2010l-1-3c-1-3-1-3-2-2v2l1%203-1%202-1%201c-2%201-5%2014-4%2015l2-5%202-6%204%209c0%202%200%202%207%202l6-1h1l7%201h6v-3c-1-5%202-6%203-1%202%206%202%204%201-3-1-6-6-11-7-8h-2c-2%200-2%200%200-1s2-1-1-2l-3-1-2-1v3c2%202%202%204-1%204s-9-4-9-5l-1-1c-1%200-2-1-1-3l1-2%201%203c0%202%200%202%201%201l-1-7c-2-6-1-12%203-16%201-2%203-3%204-2l2-1c1-1%200-1-1-1l-5-1-2%201'%20fill='%23d3d3d3'%20fill-rule='evenodd'/%3e%3c/svg%3e"},"images":{"fallback":{"src":"/static/5cb00aaf799aa814728c4eba271ae9c1/a7a66/sarah-griffiths.png","srcSet":"/static/5cb00aaf799aa814728c4eba271ae9c1/a7a66/sarah-griffiths.png 48w,\n/static/5cb00aaf799aa814728c4eba271ae9c1/416a0/sarah-griffiths.png 96w","sizes":"48px"},"sources":[{"srcSet":"/static/5cb00aaf799aa814728c4eba271ae9c1/a3542/sarah-griffiths.webp 48w,\n/static/5cb00aaf799aa814728c4eba271ae9c1/0f66d/sarah-griffiths.webp 96w","type":"image/webp","sizes":"48px"}]},"width":48,"height":48},"ImageSharp_regular":{"layout":"fixed","placeholder":{"fallback":"data:image/svg+xml,%3csvg%20xmlns='http://www.w3.org/2000/svg'%20width='48'%20height='48'%20viewBox='0%200%2048%2048'%20preserveAspectRatio='none'%3e%3cpath%20d='M20%201v4c-3%202-5%209-4%2010l1%202c0%203-2%202-2-1-1-2-1-2-1%200l1%204c2%201%200%2010-2%2010l-1-3c-1-3-1-3-2-2v2l1%203-1%202-1%201c-2%201-5%2014-4%2015l2-5%202-6%204%209c0%202%200%202%207%202l6-1h1l7%201h6v-3c-1-5%202-6%203-1%202%206%202%204%201-3-1-6-6-11-7-8h-2c-2%200-2%200%200-1s2-1-1-2l-3-1-2-1v3c2%202%202%204-1%204s-9-4-9-5l-1-1c-1%200-2-1-1-3l1-2%201%203c0%202%200%202%201%201l-1-7c-2-6-1-12%203-16%201-2%203-3%204-2l2-1c1-1%200-1-1-1l-5-1-2%201'%20fill='%23d3d3d3'%20fill-rule='evenodd'/%3e%3c/svg%3e"},"images":{"fallback":{"src":"/static/5cb00aaf799aa814728c4eba271ae9c1/46e60/sarah-griffiths.png","srcSet":"/static/5cb00aaf799aa814728c4eba271ae9c1/46e60/sarah-griffiths.png 150w,\n/static/5cb00aaf799aa814728c4eba271ae9c1/d612b/sarah-griffiths.png 300w","sizes":"150px"},"sources":[{"srcSet":"/static/5cb00aaf799aa814728c4eba271ae9c1/ae23d/sarah-griffiths.webp 150w,\n/static/5cb00aaf799aa814728c4eba271ae9c1/bd37b/sarah-griffiths.webp 300w","type":"image/webp","sizes":"150px"}]},"width":150,"height":150}}},"thumbnail":null},{"id":"890f2f00-dee9-5198-9c6f-b40123e27461","title":"Conda or Mamba for production?","slug":"/conda-or-mamba-for-production/","link":null,"excerpt":"Conda is a great choice for installing scientific software, permitting users to manage multiple…","timeToRead":3,"featured":null,"thumbnailText":null,"date":"June 18, 2021","category":{"id":"9b9b70a4-b561-5e39-9bc6-ca33f9e06a74","name":"Articles","slug":"/category/articles/","color":"#A53F96","icon":"/static/a0eadc6b0bbda21a5e4290df3c07d3b4/articles.svg"},"author":{"id":"9c1c35bf-742b-5976-8283-f0ac60a0028f","name":"Tom Rich","slug":"/author/tom-rich/","title":"Bioinformatician","description":"I create bioinformatic workflows and tutorials for EPI2ME Labs, and have been known to create extensions for JupyterLabs. I worked previously in the Applications division of ONT.","skills":["Bioinformatics","Web design"],"social":null,"thumbnail":{"__typename":"ImageSharp","ImageSharp_small":{"layout":"fixed","placeholder":{"fallback":"data:image/svg+xml,%3csvg%20xmlns='http://www.w3.org/2000/svg'%20width='48'%20height='48'%20viewBox='0%200%2048%2048'%20preserveAspectRatio='none'%3e%3cpath%20d='M19%2010l1%205c1%203%200%2010-1%2011l-1-1h-1c-2%203-5-5-5-10%201-4%201-4-1%200-1%203%202%2013%204%2014%201%201-1%202-7%204-2%201-6%2011-6%2014%200%202%201%200%203-5%203-7%2011-12%2011-6%200%202%200%203%202%203s3%201%203%203%204%206%207%206c2%200%201-1-2-3l-4-4c0-2%200-3-3-3-2-1-2-2-2-5%201-4%202-5%203-2l4%206%205%207c3%206%206%205%2010-1%202-3%202-4%201-5v-2c1-1%203%200%206%204%202%203%202%203%202%201%200-3-4-7-11-11v-4l-2-1%201-1%202-2c1-2%201-2%201%200%200%203%200%203%202%202%202-2%201-3-1-5-3-2-3-2-6%200-3%201-4%203-1%205%201%201%201%201-1%202h-5c-4-1-2%201%202%203l5%202h-4c-7%200-9-2-8-13%200-8-1-11-3-8'%20fill='%23d3d3d3'%20fill-rule='evenodd'/%3e%3c/svg%3e"},"images":{"fallback":{"src":"/static/54552db0b1f326a3d1e9363dba3499a3/a7a66/tom-rich.png","srcSet":"/static/54552db0b1f326a3d1e9363dba3499a3/a7a66/tom-rich.png 48w,\n/static/54552db0b1f326a3d1e9363dba3499a3/416a0/tom-rich.png 96w","sizes":"48px"},"sources":[{"srcSet":"/static/54552db0b1f326a3d1e9363dba3499a3/a3542/tom-rich.webp 48w,\n/static/54552db0b1f326a3d1e9363dba3499a3/0f66d/tom-rich.webp 96w","type":"image/webp","sizes":"48px"}]},"width":48,"height":48},"ImageSharp_regular":{"layout":"fixed","placeholder":{"fallback":"data:image/svg+xml,%3csvg%20xmlns='http://www.w3.org/2000/svg'%20width='48'%20height='48'%20viewBox='0%200%2048%2048'%20preserveAspectRatio='none'%3e%3cpath%20d='M19%2010l1%205c1%203%200%2010-1%2011l-1-1h-1c-2%203-5-5-5-10%201-4%201-4-1%200-1%203%202%2013%204%2014%201%201-1%202-7%204-2%201-6%2011-6%2014%200%202%201%200%203-5%203-7%2011-12%2011-6%200%202%200%203%202%203s3%201%203%203%204%206%207%206c2%200%201-1-2-3l-4-4c0-2%200-3-3-3-2-1-2-2-2-5%201-4%202-5%203-2l4%206%205%207c3%206%206%205%2010-1%202-3%202-4%201-5v-2c1-1%203%200%206%204%202%203%202%203%202%201%200-3-4-7-11-11v-4l-2-1%201-1%202-2c1-2%201-2%201%200%200%203%200%203%202%202%202-2%201-3-1-5-3-2-3-2-6%200-3%201-4%203-1%205%201%201%201%201-1%202h-5c-4-1-2%201%202%203l5%202h-4c-7%200-9-2-8-13%200-8-1-11-3-8'%20fill='%23d3d3d3'%20fill-rule='evenodd'/%3e%3c/svg%3e"},"images":{"fallback":{"src":"/static/54552db0b1f326a3d1e9363dba3499a3/46e60/tom-rich.png","srcSet":"/static/54552db0b1f326a3d1e9363dba3499a3/46e60/tom-rich.png 150w,\n/static/54552db0b1f326a3d1e9363dba3499a3/d612b/tom-rich.png 300w","sizes":"150px"},"sources":[{"srcSet":"/static/54552db0b1f326a3d1e9363dba3499a3/ae23d/tom-rich.webp 150w,\n/static/54552db0b1f326a3d1e9363dba3499a3/bd37b/tom-rich.webp 300w","type":"image/webp","sizes":"150px"}]},"width":150,"height":150}}},"thumbnail":null},{"id":"5d32a6f0-8d30-5833-a845-ae65b16ff48c","title":"Snakemake vs Nextflow","slug":"/snakemake-vs-nextflow/","link":null,"excerpt":"These two popular workflow management projects were started in 2014 and 2013 respectively and likely…","timeToRead":2,"featured":null,"thumbnailText":null,"date":"June 13, 2021","category":{"id":"9b9b70a4-b561-5e39-9bc6-ca33f9e06a74","name":"Articles","slug":"/category/articles/","color":"#A53F96","icon":"/static/a0eadc6b0bbda21a5e4290df3c07d3b4/articles.svg"},"author":{"id":"2fe8d2d9-6cd0-5439-8f01-a35368b757ef","name":"Sarah Griffiths","slug":"/author/sarah-griffiths/","title":"Bioinformatician","description":"I'm a bioinformatician working on creating new workflows and ensuring our analysis notebooks are maintained for all levels of EPI2ME Labs' users.","skills":["Bioinformatics","Data Visualization"],"social":null,"thumbnail":{"__typename":"ImageSharp","ImageSharp_small":{"layout":"fixed","placeholder":{"fallback":"data:image/svg+xml,%3csvg%20xmlns='http://www.w3.org/2000/svg'%20width='48'%20height='48'%20viewBox='0%200%2048%2048'%20preserveAspectRatio='none'%3e%3cpath%20d='M20%201v4c-3%202-5%209-4%2010l1%202c0%203-2%202-2-1-1-2-1-2-1%200l1%204c2%201%200%2010-2%2010l-1-3c-1-3-1-3-2-2v2l1%203-1%202-1%201c-2%201-5%2014-4%2015l2-5%202-6%204%209c0%202%200%202%207%202l6-1h1l7%201h6v-3c-1-5%202-6%203-1%202%206%202%204%201-3-1-6-6-11-7-8h-2c-2%200-2%200%200-1s2-1-1-2l-3-1-2-1v3c2%202%202%204-1%204s-9-4-9-5l-1-1c-1%200-2-1-1-3l1-2%201%203c0%202%200%202%201%201l-1-7c-2-6-1-12%203-16%201-2%203-3%204-2l2-1c1-1%200-1-1-1l-5-1-2%201'%20fill='%23d3d3d3'%20fill-rule='evenodd'/%3e%3c/svg%3e"},"images":{"fallback":{"src":"/static/5cb00aaf799aa814728c4eba271ae9c1/a7a66/sarah-griffiths.png","srcSet":"/static/5cb00aaf799aa814728c4eba271ae9c1/a7a66/sarah-griffiths.png 48w,\n/static/5cb00aaf799aa814728c4eba271ae9c1/416a0/sarah-griffiths.png 96w","sizes":"48px"},"sources":[{"srcSet":"/static/5cb00aaf799aa814728c4eba271ae9c1/a3542/sarah-griffiths.webp 48w,\n/static/5cb00aaf799aa814728c4eba271ae9c1/0f66d/sarah-griffiths.webp 96w","type":"image/webp","sizes":"48px"}]},"width":48,"height":48},"ImageSharp_regular":{"layout":"fixed","placeholder":{"fallback":"data:image/svg+xml,%3csvg%20xmlns='http://www.w3.org/2000/svg'%20width='48'%20height='48'%20viewBox='0%200%2048%2048'%20preserveAspectRatio='none'%3e%3cpath%20d='M20%201v4c-3%202-5%209-4%2010l1%202c0%203-2%202-2-1-1-2-1-2-1%200l1%204c2%201%200%2010-2%2010l-1-3c-1-3-1-3-2-2v2l1%203-1%202-1%201c-2%201-5%2014-4%2015l2-5%202-6%204%209c0%202%200%202%207%202l6-1h1l7%201h6v-3c-1-5%202-6%203-1%202%206%202%204%201-3-1-6-6-11-7-8h-2c-2%200-2%200%200-1s2-1-1-2l-3-1-2-1v3c2%202%202%204-1%204s-9-4-9-5l-1-1c-1%200-2-1-1-3l1-2%201%203c0%202%200%202%201%201l-1-7c-2-6-1-12%203-16%201-2%203-3%204-2l2-1c1-1%200-1-1-1l-5-1-2%201'%20fill='%23d3d3d3'%20fill-rule='evenodd'/%3e%3c/svg%3e"},"images":{"fallback":{"src":"/static/5cb00aaf799aa814728c4eba271ae9c1/46e60/sarah-griffiths.png","srcSet":"/static/5cb00aaf799aa814728c4eba271ae9c1/46e60/sarah-griffiths.png 150w,\n/static/5cb00aaf799aa814728c4eba271ae9c1/d612b/sarah-griffiths.png 300w","sizes":"150px"},"sources":[{"srcSet":"/static/5cb00aaf799aa814728c4eba271ae9c1/ae23d/sarah-griffiths.webp 150w,\n/static/5cb00aaf799aa814728c4eba271ae9c1/bd37b/sarah-griffiths.webp 300w","type":"image/webp","sizes":"150px"}]},"width":150,"height":150}}},"thumbnail":null}],"pageInfo":{"pageCount":2,"hasPreviousPage":false,"hasNextPage":true,"currentPage":1},"totalCount":7}},"pageContext":{"slug":"/category/articles/","limit":6,"skip":0,"collectionType":"category","paginatePostsPage":true,"basePath":"/","services":{"algolia":true,"mailchimp":false,"disqus":false,"graphComment":false,"facebookComment":false},"siteUrl":"https://labs.epi2me.io","mobileMenu":{"title":"Topics","items":[{"name":"Announcements","slug":"/category/announcements/"},{"name":"Articles","slug":"/category/articles/"},{"name":"Data Releases","slug":"/category/data-releases/"},{"name":"How Tos","slug":"/category/how-tos/"},{"name":"Software Releases","slug":"/category/software-releases/"}]},"darkMode":true,"includeExcerpt":true,"includeTimeToRead":true,"includeTableOfContents":true,"imageQuality":75}},
    "staticQueryHashes": ["1992822086","2409295108","2893703372","3667468360"]}