{"componentChunkName":"component---packages-blog-gatsby-blog-core-src-templates-posts-js","path":"/page/3/","result":{"data":{"featuredPosts":{"nodes":[{"id":"fa17521e-cd06-5028-ae40-946a66b39c5e","title":"ONT Open Datasets","slug":"/dataindex/","link":null,"excerpt":"The Oxford Nanopore Technologies Open Data (ont-open-data) provides reference sequencing data from…","timeToRead":1,"featured":true,"thumbnailText":null,"date":"September 01, 2020","category":null,"author":null,"thumbnail":{"__typename":"ImageSharp","ImageSharp_vertical":{"layout":"constrained","backgroundColor":"#080808","images":{"fallback":{"src":"/static/d625388ba09b90e0b9b8a67a5e80bdb7/5c311/thumbnail.jpg","srcSet":"/static/d625388ba09b90e0b9b8a67a5e80bdb7/2a114/thumbnail.jpg 180w,\n/static/d625388ba09b90e0b9b8a67a5e80bdb7/5c311/thumbnail.jpg 360w","sizes":"(min-width: 360px) 360px, 100vw"},"sources":[{"srcSet":"/static/d625388ba09b90e0b9b8a67a5e80bdb7/4ebcc/thumbnail.webp 180w,\n/static/d625388ba09b90e0b9b8a67a5e80bdb7/fc596/thumbnail.webp 360w","type":"image/webp","sizes":"(min-width: 360px) 360px, 100vw"}]},"width":360,"height":470},"ImageSharp_horizontal":{"layout":"constrained","backgroundColor":"#080808","images":{"fallback":{"src":"/static/d625388ba09b90e0b9b8a67a5e80bdb7/78fb2/thumbnail.jpg","srcSet":"/static/d625388ba09b90e0b9b8a67a5e80bdb7/1428b/thumbnail.jpg 404w,\n/static/d625388ba09b90e0b9b8a67a5e80bdb7/78fb2/thumbnail.jpg 807w","sizes":"(min-width: 807px) 807px, 100vw"},"sources":[{"srcSet":"/static/d625388ba09b90e0b9b8a67a5e80bdb7/714f3/thumbnail.webp 404w,\n/static/d625388ba09b90e0b9b8a67a5e80bdb7/5a52b/thumbnail.webp 807w","type":"image/webp","sizes":"(min-width: 807px) 807px, 100vw"}]},"width":807,"height":400},"ImageSharp_hero":{"layout":"constrained","backgroundColor":"#080808","images":{"fallback":{"src":"/static/d625388ba09b90e0b9b8a67a5e80bdb7/bf12b/thumbnail.jpg","srcSet":"/static/d625388ba09b90e0b9b8a67a5e80bdb7/dc120/thumbnail.jpg 800w,\n/static/d625388ba09b90e0b9b8a67a5e80bdb7/bf12b/thumbnail.jpg 1600w","sizes":"(min-width: 1600px) 1600px, 100vw"},"sources":[{"srcSet":"/static/d625388ba09b90e0b9b8a67a5e80bdb7/9d09d/thumbnail.webp 800w,\n/static/d625388ba09b90e0b9b8a67a5e80bdb7/14912/thumbnail.webp 1600w","type":"image/webp","sizes":"(min-width: 1600px) 1600px, 100vw"}]},"width":1600,"height":650}}},{"id":"7b65e878-8787-525f-9e2b-9315e3afa221","title":"EPI2ME Labs Tutorials","slug":"/nbindex/","link":null,"excerpt":"EPI2ME Labs maintains a collection of example bioinformatics notebooks for\nrunning analysis in your…","timeToRead":2,"featured":true,"thumbnailText":null,"date":"September 01, 2020","category":null,"author":null,"thumbnail":{"__typename":"ImageSharp","ImageSharp_vertical":{"layout":"constrained","backgroundColor":"#e8e8e8","images":{"fallback":{"src":"/static/d5f2779e5a84bf92e5d939ed7cc9b20e/5c311/thumbnail.jpg","srcSet":"/static/d5f2779e5a84bf92e5d939ed7cc9b20e/2a114/thumbnail.jpg 180w,\n/static/d5f2779e5a84bf92e5d939ed7cc9b20e/5c311/thumbnail.jpg 360w","sizes":"(min-width: 360px) 360px, 100vw"},"sources":[{"srcSet":"/static/d5f2779e5a84bf92e5d939ed7cc9b20e/4ebcc/thumbnail.webp 180w,\n/static/d5f2779e5a84bf92e5d939ed7cc9b20e/fc596/thumbnail.webp 360w","type":"image/webp","sizes":"(min-width: 360px) 360px, 100vw"}]},"width":360,"height":470},"ImageSharp_horizontal":{"layout":"constrained","backgroundColor":"#e8e8e8","images":{"fallback":{"src":"/static/d5f2779e5a84bf92e5d939ed7cc9b20e/78fb2/thumbnail.jpg","srcSet":"/static/d5f2779e5a84bf92e5d939ed7cc9b20e/1428b/thumbnail.jpg 404w,\n/static/d5f2779e5a84bf92e5d939ed7cc9b20e/78fb2/thumbnail.jpg 807w","sizes":"(min-width: 807px) 807px, 100vw"},"sources":[{"srcSet":"/static/d5f2779e5a84bf92e5d939ed7cc9b20e/714f3/thumbnail.webp 404w,\n/static/d5f2779e5a84bf92e5d939ed7cc9b20e/5a52b/thumbnail.webp 807w","type":"image/webp","sizes":"(min-width: 807px) 807px, 100vw"}]},"width":807,"height":400},"ImageSharp_hero":{"layout":"constrained","backgroundColor":"#e8e8e8","images":{"fallback":{"src":"/static/d5f2779e5a84bf92e5d939ed7cc9b20e/bf12b/thumbnail.jpg","srcSet":"/static/d5f2779e5a84bf92e5d939ed7cc9b20e/dc120/thumbnail.jpg 800w,\n/static/d5f2779e5a84bf92e5d939ed7cc9b20e/bf12b/thumbnail.jpg 1600w","sizes":"(min-width: 1600px) 1600px, 100vw"},"sources":[{"srcSet":"/static/d5f2779e5a84bf92e5d939ed7cc9b20e/9d09d/thumbnail.webp 800w,\n/static/d5f2779e5a84bf92e5d939ed7cc9b20e/14912/thumbnail.webp 1600w","type":"image/webp","sizes":"(min-width: 1600px) 1600px, 100vw"}]},"width":1600,"height":650}}},{"id":"043a09fc-6fdf-56c2-aebc-2ed5f619929c","title":"EPI2ME Labs Workflows","slug":"/wfindex/","link":null,"excerpt":"EPI2ME Labs maintains a collection of  Nextflow  bioinformatics\nworkflows tailored to Oxford…","timeToRead":1,"featured":true,"thumbnailText":null,"date":"September 01, 2020","category":null,"author":null,"thumbnail":{"__typename":"ImageSharp","ImageSharp_vertical":{"layout":"constrained","backgroundColor":"#080808","images":{"fallback":{"src":"/static/7b955fd3bff78ff21f10b5769a188346/5c311/thumbnail.jpg","srcSet":"/static/7b955fd3bff78ff21f10b5769a188346/2a114/thumbnail.jpg 180w,\n/static/7b955fd3bff78ff21f10b5769a188346/5c311/thumbnail.jpg 360w","sizes":"(min-width: 360px) 360px, 100vw"},"sources":[{"srcSet":"/static/7b955fd3bff78ff21f10b5769a188346/4ebcc/thumbnail.webp 180w,\n/static/7b955fd3bff78ff21f10b5769a188346/fc596/thumbnail.webp 360w","type":"image/webp","sizes":"(min-width: 360px) 360px, 100vw"}]},"width":360,"height":470},"ImageSharp_horizontal":{"layout":"constrained","backgroundColor":"#080808","images":{"fallback":{"src":"/static/7b955fd3bff78ff21f10b5769a188346/78fb2/thumbnail.jpg","srcSet":"/static/7b955fd3bff78ff21f10b5769a188346/1428b/thumbnail.jpg 404w,\n/static/7b955fd3bff78ff21f10b5769a188346/78fb2/thumbnail.jpg 807w","sizes":"(min-width: 807px) 807px, 100vw"},"sources":[{"srcSet":"/static/7b955fd3bff78ff21f10b5769a188346/714f3/thumbnail.webp 404w,\n/static/7b955fd3bff78ff21f10b5769a188346/5a52b/thumbnail.webp 807w","type":"image/webp","sizes":"(min-width: 807px) 807px, 100vw"}]},"width":807,"height":400},"ImageSharp_hero":{"layout":"constrained","backgroundColor":"#080808","images":{"fallback":{"src":"/static/7b955fd3bff78ff21f10b5769a188346/bf12b/thumbnail.jpg","srcSet":"/static/7b955fd3bff78ff21f10b5769a188346/dc120/thumbnail.jpg 800w,\n/static/7b955fd3bff78ff21f10b5769a188346/bf12b/thumbnail.jpg 1600w","sizes":"(min-width: 1600px) 1600px, 100vw"},"sources":[{"srcSet":"/static/7b955fd3bff78ff21f10b5769a188346/9d09d/thumbnail.webp 800w,\n/static/7b955fd3bff78ff21f10b5769a188346/14912/thumbnail.webp 1600w","type":"image/webp","sizes":"(min-width: 1600px) 1600px, 100vw"}]},"width":1600,"height":650}}}]},"recentPosts":{"nodes":[{"id":"84d868c2-4d07-5a2d-967e-f7f95e43da6d","title":"Q20 single-read accuracy with ultra-long CliveOME dataset","slug":"/cliveome_2010.05/","link":null,"excerpt":"We are pleased to announce a fresh release of the CliveOME using the latest Q20 pre-release…","timeToRead":1,"featured":null,"thumbnailText":null,"date":"May 21, 2021","category":{"id":"9fbede78-5a89-57d0-a825-ca9507485e13","name":"Data Releases","slug":"/category/data-releases/","color":"#5fB8B1","icon":"/static/80e98fdc1b4550a2b9670e9dfc2e4f68/datareleases.svg"},"author":null,"thumbnail":null},{"id":"22daea58-165f-58e7-b6b1-83edca4c72e3","title":"Rebasecalling of SRE and ULK GM24385 Dataset","slug":"/gm24385_2021.05/","link":null,"excerpt":"We are please to announce the addition of Guppy 5 basecalling results to our\nshort-read eliminator…","timeToRead":2,"featured":null,"thumbnailText":null,"date":"May 18, 2021","category":{"id":"9fbede78-5a89-57d0-a825-ca9507485e13","name":"Data Releases","slug":"/category/data-releases/","color":"#5fB8B1","icon":"/static/80e98fdc1b4550a2b9670e9dfc2e4f68/datareleases.svg"},"author":{"id":"922bf629-6b7c-55ad-90ca-1639f2d48429","name":"Chris Wright","slug":"/author/chris-wright/","title":"Director Customer Workflows","description":"I co-ordinate the activities of the Customer Workflows Group at Oxford Nanopore Technologies. Previously I worked in the Research division at ONT leading the Scientific Data Analysis Group.","skills":["Scientific software design","Computational biology","Consensus and variant calling"],"social":[{"name":"Twitter","url":"https://twitter.com/chrisnrg"}],"thumbnail":{"__typename":"ImageSharp","ImageSharp_small":{"layout":"fixed","placeholder":{"fallback":"data:image/svg+xml,%3csvg%20xmlns='http://www.w3.org/2000/svg'%20width='48'%20height='48'%20viewBox='0%200%2048%2048'%20preserveAspectRatio='none'%3e%3cpath%20d='M22%203c-2%201-3%204-4%207l-2%205c-2%202-2%202-2-1l-2-3c-1%200-1%202%202%208%200%202%202%203%204%204%202%200%203%202%203%203h1c1-1%201-2-2-4l-4-5h1l2%201v-2c-2-1-2-1%200-1l2-2c0-6%204-9%2011-9%204%200%204%200%205%204v16c-1%201-1%201%200%200%202-3%203-11%201-19l-1-5h-6c-5%200-7%200-9%203m4%2023l3%202%203%201-2%203-2%203-4-4-5-4v21h18l-1-5c0-6%201-5%203%201l1%204v-5l-1-9c0-3-1-4-2-5-2-1-2-1-2%201%202%203%202%205%201%207-1%201-1-1-1-9%200-1-1-2-3-1l-4-1h-2'%20fill='%23d3d3d3'%20fill-rule='evenodd'/%3e%3c/svg%3e"},"images":{"fallback":{"src":"/static/011b3215b6b7e782f02d67aebfa4c319/a7a66/chris-wright.png","srcSet":"/static/011b3215b6b7e782f02d67aebfa4c319/a7a66/chris-wright.png 48w,\n/static/011b3215b6b7e782f02d67aebfa4c319/416a0/chris-wright.png 96w","sizes":"48px"},"sources":[{"srcSet":"/static/011b3215b6b7e782f02d67aebfa4c319/a3542/chris-wright.webp 48w,\n/static/011b3215b6b7e782f02d67aebfa4c319/0f66d/chris-wright.webp 96w","type":"image/webp","sizes":"48px"}]},"width":48,"height":48},"ImageSharp_regular":{"layout":"fixed","placeholder":{"fallback":"data:image/svg+xml,%3csvg%20xmlns='http://www.w3.org/2000/svg'%20width='48'%20height='48'%20viewBox='0%200%2048%2048'%20preserveAspectRatio='none'%3e%3cpath%20d='M22%203c-2%201-3%204-4%207l-2%205c-2%202-2%202-2-1l-2-3c-1%200-1%202%202%208%200%202%202%203%204%204%202%200%203%202%203%203h1c1-1%201-2-2-4l-4-5h1l2%201v-2c-2-1-2-1%200-1l2-2c0-6%204-9%2011-9%204%200%204%200%205%204v16c-1%201-1%201%200%200%202-3%203-11%201-19l-1-5h-6c-5%200-7%200-9%203m4%2023l3%202%203%201-2%203-2%203-4-4-5-4v21h18l-1-5c0-6%201-5%203%201l1%204v-5l-1-9c0-3-1-4-2-5-2-1-2-1-2%201%202%203%202%205%201%207-1%201-1-1-1-9%200-1-1-2-3-1l-4-1h-2'%20fill='%23d3d3d3'%20fill-rule='evenodd'/%3e%3c/svg%3e"},"images":{"fallback":{"src":"/static/011b3215b6b7e782f02d67aebfa4c319/46e60/chris-wright.png","srcSet":"/static/011b3215b6b7e782f02d67aebfa4c319/46e60/chris-wright.png 150w,\n/static/011b3215b6b7e782f02d67aebfa4c319/d612b/chris-wright.png 300w","sizes":"150px"},"sources":[{"srcSet":"/static/011b3215b6b7e782f02d67aebfa4c319/ae23d/chris-wright.webp 150w,\n/static/011b3215b6b7e782f02d67aebfa4c319/bd37b/chris-wright.webp 300w","type":"image/webp","sizes":"150px"}]},"width":150,"height":150}}},"thumbnail":null},{"id":"8110d327-153d-50c5-bfcb-2160ed29e374","title":"EPI2ME Labs Blog Revamp","slug":"/epi2me-labs-blog-revamp/","link":null,"excerpt":"Previous users of this webpage will have noticed things have changed a little.\nGone is the purely…","timeToRead":1,"featured":null,"thumbnailText":null,"date":"May 17, 2021","category":{"id":"acd76cbd-59d3-5cfb-b05d-e6636a9d9942","name":"Announcements","slug":"/category/announcements/","color":"#5fB8B1","icon":"/static/f98d847702bf9817e31da30e86ccc26c/announcements.svg"},"author":{"id":"922bf629-6b7c-55ad-90ca-1639f2d48429","name":"Chris Wright","slug":"/author/chris-wright/","title":"Director Customer Workflows","description":"I co-ordinate the activities of the Customer Workflows Group at Oxford Nanopore Technologies. Previously I worked in the Research division at ONT leading the Scientific Data Analysis Group.","skills":["Scientific software design","Computational biology","Consensus and variant calling"],"social":[{"name":"Twitter","url":"https://twitter.com/chrisnrg"}],"thumbnail":{"__typename":"ImageSharp","ImageSharp_small":{"layout":"fixed","placeholder":{"fallback":"data:image/svg+xml,%3csvg%20xmlns='http://www.w3.org/2000/svg'%20width='48'%20height='48'%20viewBox='0%200%2048%2048'%20preserveAspectRatio='none'%3e%3cpath%20d='M22%203c-2%201-3%204-4%207l-2%205c-2%202-2%202-2-1l-2-3c-1%200-1%202%202%208%200%202%202%203%204%204%202%200%203%202%203%203h1c1-1%201-2-2-4l-4-5h1l2%201v-2c-2-1-2-1%200-1l2-2c0-6%204-9%2011-9%204%200%204%200%205%204v16c-1%201-1%201%200%200%202-3%203-11%201-19l-1-5h-6c-5%200-7%200-9%203m4%2023l3%202%203%201-2%203-2%203-4-4-5-4v21h18l-1-5c0-6%201-5%203%201l1%204v-5l-1-9c0-3-1-4-2-5-2-1-2-1-2%201%202%203%202%205%201%207-1%201-1-1-1-9%200-1-1-2-3-1l-4-1h-2'%20fill='%23d3d3d3'%20fill-rule='evenodd'/%3e%3c/svg%3e"},"images":{"fallback":{"src":"/static/011b3215b6b7e782f02d67aebfa4c319/a7a66/chris-wright.png","srcSet":"/static/011b3215b6b7e782f02d67aebfa4c319/a7a66/chris-wright.png 48w,\n/static/011b3215b6b7e782f02d67aebfa4c319/416a0/chris-wright.png 96w","sizes":"48px"},"sources":[{"srcSet":"/static/011b3215b6b7e782f02d67aebfa4c319/a3542/chris-wright.webp 48w,\n/static/011b3215b6b7e782f02d67aebfa4c319/0f66d/chris-wright.webp 96w","type":"image/webp","sizes":"48px"}]},"width":48,"height":48},"ImageSharp_regular":{"layout":"fixed","placeholder":{"fallback":"data:image/svg+xml,%3csvg%20xmlns='http://www.w3.org/2000/svg'%20width='48'%20height='48'%20viewBox='0%200%2048%2048'%20preserveAspectRatio='none'%3e%3cpath%20d='M22%203c-2%201-3%204-4%207l-2%205c-2%202-2%202-2-1l-2-3c-1%200-1%202%202%208%200%202%202%203%204%204%202%200%203%202%203%203h1c1-1%201-2-2-4l-4-5h1l2%201v-2c-2-1-2-1%200-1l2-2c0-6%204-9%2011-9%204%200%204%200%205%204v16c-1%201-1%201%200%200%202-3%203-11%201-19l-1-5h-6c-5%200-7%200-9%203m4%2023l3%202%203%201-2%203-2%203-4-4-5-4v21h18l-1-5c0-6%201-5%203%201l1%204v-5l-1-9c0-3-1-4-2-5-2-1-2-1-2%201%202%203%202%205%201%207-1%201-1-1-1-9%200-1-1-2-3-1l-4-1h-2'%20fill='%23d3d3d3'%20fill-rule='evenodd'/%3e%3c/svg%3e"},"images":{"fallback":{"src":"/static/011b3215b6b7e782f02d67aebfa4c319/46e60/chris-wright.png","srcSet":"/static/011b3215b6b7e782f02d67aebfa4c319/46e60/chris-wright.png 150w,\n/static/011b3215b6b7e782f02d67aebfa4c319/d612b/chris-wright.png 300w","sizes":"150px"},"sources":[{"srcSet":"/static/011b3215b6b7e782f02d67aebfa4c319/ae23d/chris-wright.webp 150w,\n/static/011b3215b6b7e782f02d67aebfa4c319/bd37b/chris-wright.webp 300w","type":"image/webp","sizes":"150px"}]},"width":150,"height":150}}},"thumbnail":null},{"id":"58195bc4-4ca5-53e4-98b4-e0f050612f6a","title":"EPI2ME Labs 21.05 Release","slug":"/epi2me-labs-21.05-release/","link":null,"excerpt":"Our May 2021 update to EPI2ME Labs brings a smörgåsbord of fixes, new\nfunctionality and a colourful…","timeToRead":2,"featured":null,"thumbnailText":null,"date":"May 17, 2021","category":{"id":"e96a123f-55ff-57bf-a8b3-71cc7e5e5ebd","name":"Software Releases","slug":"/category/software-releases/","color":"#17BB75","icon":"/static/a7c604050eccf560e4c0749d79c6866b/softwarereleases.svg"},"author":{"id":"c7f2f3ef-0225-5ca7-b545-0d9fcc3709f7","name":"Stephen Rudd","slug":"/author/stephen-rudd/","title":"Bioinformatics product manager","description":"I engage with Oxford Nanopore Technologies' customers to understand their needs and turn these into EPI2ME Labs products.","skills":["Bioinformatics","Product Management"],"social":null,"thumbnail":null},"thumbnail":null},{"id":"3d2ebef0-55e1-5d28-bf98-0678ad428d02","title":"EPI2ME Labs Launcher Command-line interface","slug":"/epi2me-labs-launcher-command-line-interface/","link":null,"excerpt":"Feedback from EPI2ME Labs users revealed the desired for people to be able to control the\nrunning of…","timeToRead":1,"featured":null,"thumbnailText":null,"date":"March 17, 2021","category":{"id":"3b57f748-b69a-5dd6-b23d-101bf590b928","name":"How Tos","slug":"/category/how-tos/","color":"#B8E986","icon":"/static/1de85bbd781531b61bf5a25b83d72d32/how-tos.svg"},"author":{"id":"922bf629-6b7c-55ad-90ca-1639f2d48429","name":"Chris Wright","slug":"/author/chris-wright/","title":"Director Customer Workflows","description":"I co-ordinate the activities of the Customer Workflows Group at Oxford Nanopore Technologies. Previously I worked in the Research division at ONT leading the Scientific Data Analysis Group.","skills":["Scientific software design","Computational biology","Consensus and variant calling"],"social":[{"name":"Twitter","url":"https://twitter.com/chrisnrg"}],"thumbnail":{"__typename":"ImageSharp","ImageSharp_small":{"layout":"fixed","placeholder":{"fallback":"data:image/svg+xml,%3csvg%20xmlns='http://www.w3.org/2000/svg'%20width='48'%20height='48'%20viewBox='0%200%2048%2048'%20preserveAspectRatio='none'%3e%3cpath%20d='M22%203c-2%201-3%204-4%207l-2%205c-2%202-2%202-2-1l-2-3c-1%200-1%202%202%208%200%202%202%203%204%204%202%200%203%202%203%203h1c1-1%201-2-2-4l-4-5h1l2%201v-2c-2-1-2-1%200-1l2-2c0-6%204-9%2011-9%204%200%204%200%205%204v16c-1%201-1%201%200%200%202-3%203-11%201-19l-1-5h-6c-5%200-7%200-9%203m4%2023l3%202%203%201-2%203-2%203-4-4-5-4v21h18l-1-5c0-6%201-5%203%201l1%204v-5l-1-9c0-3-1-4-2-5-2-1-2-1-2%201%202%203%202%205%201%207-1%201-1-1-1-9%200-1-1-2-3-1l-4-1h-2'%20fill='%23d3d3d3'%20fill-rule='evenodd'/%3e%3c/svg%3e"},"images":{"fallback":{"src":"/static/011b3215b6b7e782f02d67aebfa4c319/a7a66/chris-wright.png","srcSet":"/static/011b3215b6b7e782f02d67aebfa4c319/a7a66/chris-wright.png 48w,\n/static/011b3215b6b7e782f02d67aebfa4c319/416a0/chris-wright.png 96w","sizes":"48px"},"sources":[{"srcSet":"/static/011b3215b6b7e782f02d67aebfa4c319/a3542/chris-wright.webp 48w,\n/static/011b3215b6b7e782f02d67aebfa4c319/0f66d/chris-wright.webp 96w","type":"image/webp","sizes":"48px"}]},"width":48,"height":48},"ImageSharp_regular":{"layout":"fixed","placeholder":{"fallback":"data:image/svg+xml,%3csvg%20xmlns='http://www.w3.org/2000/svg'%20width='48'%20height='48'%20viewBox='0%200%2048%2048'%20preserveAspectRatio='none'%3e%3cpath%20d='M22%203c-2%201-3%204-4%207l-2%205c-2%202-2%202-2-1l-2-3c-1%200-1%202%202%208%200%202%202%203%204%204%202%200%203%202%203%203h1c1-1%201-2-2-4l-4-5h1l2%201v-2c-2-1-2-1%200-1l2-2c0-6%204-9%2011-9%204%200%204%200%205%204v16c-1%201-1%201%200%200%202-3%203-11%201-19l-1-5h-6c-5%200-7%200-9%203m4%2023l3%202%203%201-2%203-2%203-4-4-5-4v21h18l-1-5c0-6%201-5%203%201l1%204v-5l-1-9c0-3-1-4-2-5-2-1-2-1-2%201%202%203%202%205%201%207-1%201-1-1-1-9%200-1-1-2-3-1l-4-1h-2'%20fill='%23d3d3d3'%20fill-rule='evenodd'/%3e%3c/svg%3e"},"images":{"fallback":{"src":"/static/011b3215b6b7e782f02d67aebfa4c319/46e60/chris-wright.png","srcSet":"/static/011b3215b6b7e782f02d67aebfa4c319/46e60/chris-wright.png 150w,\n/static/011b3215b6b7e782f02d67aebfa4c319/d612b/chris-wright.png 300w","sizes":"150px"},"sources":[{"srcSet":"/static/011b3215b6b7e782f02d67aebfa4c319/ae23d/chris-wright.webp 150w,\n/static/011b3215b6b7e782f02d67aebfa4c319/bd37b/chris-wright.webp 300w","type":"image/webp","sizes":"150px"}]},"width":150,"height":150}}},"thumbnail":null},{"id":"fe986259-c813-5d21-8619-2b0cd0dc84ee","title":"Running EPI2ME Labs Notebooks on Remote Computers","slug":"/running-epi2me-labs-notebooks-on-remote-computers/","link":null,"excerpt":"This blog post is a short introduction to running epi2me labs on a remote machine that you have…","timeToRead":2,"featured":null,"thumbnailText":null,"date":"March 17, 2021","category":{"id":"3b57f748-b69a-5dd6-b23d-101bf590b928","name":"How Tos","slug":"/category/how-tos/","color":"#B8E986","icon":"/static/1de85bbd781531b61bf5a25b83d72d32/how-tos.svg"},"author":{"id":"81bbaf7c-c9b4-518d-a495-22ae2d5d2c5b","name":"Amber Wright","slug":"/author/amber-wright/","title":"Bioinformatican","description":"I work with ONT customer support staff to provide technical support for EPI2ME Labs products and improve user experience.","skills":["Bioinfo-mortician"],"social":null,"thumbnail":null},"thumbnail":null}]},"paginatedPosts":{"nodes":[{"id":"fa17521e-cd06-5028-ae40-946a66b39c5e","title":"ONT Open Datasets","slug":"/dataindex/","link":null,"excerpt":"The Oxford Nanopore Technologies Open Data (ont-open-data) provides reference sequencing data from…","timeToRead":1,"featured":true,"thumbnailText":null,"date":"September 01, 2020","category":null,"author":null,"thumbnail":{"__typename":"ImageSharp","ImageSharp_vertical":{"layout":"constrained","backgroundColor":"#080808","images":{"fallback":{"src":"/static/d625388ba09b90e0b9b8a67a5e80bdb7/144fe/thumbnail.jpg","srcSet":"/static/d625388ba09b90e0b9b8a67a5e80bdb7/9d7b9/thumbnail.jpg 190w,\n/static/d625388ba09b90e0b9b8a67a5e80bdb7/144fe/thumbnail.jpg 380w","sizes":"(min-width: 380px) 380px, 100vw"},"sources":[{"srcSet":"/static/d625388ba09b90e0b9b8a67a5e80bdb7/228d6/thumbnail.webp 190w,\n/static/d625388ba09b90e0b9b8a67a5e80bdb7/6b99c/thumbnail.webp 380w","type":"image/webp","sizes":"(min-width: 380px) 380px, 100vw"}]},"width":380,"height":290},"ImageSharp_hero":{"layout":"constrained","backgroundColor":"#080808","images":{"fallback":{"src":"/static/d625388ba09b90e0b9b8a67a5e80bdb7/bf12b/thumbnail.jpg","srcSet":"/static/d625388ba09b90e0b9b8a67a5e80bdb7/dc120/thumbnail.jpg 800w,\n/static/d625388ba09b90e0b9b8a67a5e80bdb7/bf12b/thumbnail.jpg 1600w","sizes":"(min-width: 1600px) 1600px, 100vw"},"sources":[{"srcSet":"/static/d625388ba09b90e0b9b8a67a5e80bdb7/9d09d/thumbnail.webp 800w,\n/static/d625388ba09b90e0b9b8a67a5e80bdb7/14912/thumbnail.webp 1600w","type":"image/webp","sizes":"(min-width: 1600px) 1600px, 100vw"}]},"width":1600,"height":650}}},{"id":"7b65e878-8787-525f-9e2b-9315e3afa221","title":"EPI2ME Labs Tutorials","slug":"/nbindex/","link":null,"excerpt":"EPI2ME Labs maintains a collection of example bioinformatics notebooks for\nrunning analysis in your…","timeToRead":2,"featured":true,"thumbnailText":null,"date":"September 01, 2020","category":null,"author":null,"thumbnail":{"__typename":"ImageSharp","ImageSharp_vertical":{"layout":"constrained","backgroundColor":"#e8e8e8","images":{"fallback":{"src":"/static/d5f2779e5a84bf92e5d939ed7cc9b20e/144fe/thumbnail.jpg","srcSet":"/static/d5f2779e5a84bf92e5d939ed7cc9b20e/9d7b9/thumbnail.jpg 190w,\n/static/d5f2779e5a84bf92e5d939ed7cc9b20e/144fe/thumbnail.jpg 380w","sizes":"(min-width: 380px) 380px, 100vw"},"sources":[{"srcSet":"/static/d5f2779e5a84bf92e5d939ed7cc9b20e/228d6/thumbnail.webp 190w,\n/static/d5f2779e5a84bf92e5d939ed7cc9b20e/6b99c/thumbnail.webp 380w","type":"image/webp","sizes":"(min-width: 380px) 380px, 100vw"}]},"width":380,"height":290},"ImageSharp_hero":{"layout":"constrained","backgroundColor":"#e8e8e8","images":{"fallback":{"src":"/static/d5f2779e5a84bf92e5d939ed7cc9b20e/bf12b/thumbnail.jpg","srcSet":"/static/d5f2779e5a84bf92e5d939ed7cc9b20e/dc120/thumbnail.jpg 800w,\n/static/d5f2779e5a84bf92e5d939ed7cc9b20e/bf12b/thumbnail.jpg 1600w","sizes":"(min-width: 1600px) 1600px, 100vw"},"sources":[{"srcSet":"/static/d5f2779e5a84bf92e5d939ed7cc9b20e/9d09d/thumbnail.webp 800w,\n/static/d5f2779e5a84bf92e5d939ed7cc9b20e/14912/thumbnail.webp 1600w","type":"image/webp","sizes":"(min-width: 1600px) 1600px, 100vw"}]},"width":1600,"height":650}}},{"id":"043a09fc-6fdf-56c2-aebc-2ed5f619929c","title":"EPI2ME Labs Workflows","slug":"/wfindex/","link":null,"excerpt":"EPI2ME Labs maintains a collection of  Nextflow  bioinformatics\nworkflows tailored to Oxford…","timeToRead":1,"featured":true,"thumbnailText":null,"date":"September 01, 2020","category":null,"author":null,"thumbnail":{"__typename":"ImageSharp","ImageSharp_vertical":{"layout":"constrained","backgroundColor":"#080808","images":{"fallback":{"src":"/static/7b955fd3bff78ff21f10b5769a188346/144fe/thumbnail.jpg","srcSet":"/static/7b955fd3bff78ff21f10b5769a188346/9d7b9/thumbnail.jpg 190w,\n/static/7b955fd3bff78ff21f10b5769a188346/144fe/thumbnail.jpg 380w","sizes":"(min-width: 380px) 380px, 100vw"},"sources":[{"srcSet":"/static/7b955fd3bff78ff21f10b5769a188346/228d6/thumbnail.webp 190w,\n/static/7b955fd3bff78ff21f10b5769a188346/6b99c/thumbnail.webp 380w","type":"image/webp","sizes":"(min-width: 380px) 380px, 100vw"}]},"width":380,"height":290},"ImageSharp_hero":{"layout":"constrained","backgroundColor":"#080808","images":{"fallback":{"src":"/static/7b955fd3bff78ff21f10b5769a188346/bf12b/thumbnail.jpg","srcSet":"/static/7b955fd3bff78ff21f10b5769a188346/dc120/thumbnail.jpg 800w,\n/static/7b955fd3bff78ff21f10b5769a188346/bf12b/thumbnail.jpg 1600w","sizes":"(min-width: 1600px) 1600px, 100vw"},"sources":[{"srcSet":"/static/7b955fd3bff78ff21f10b5769a188346/9d09d/thumbnail.webp 800w,\n/static/7b955fd3bff78ff21f10b5769a188346/14912/thumbnail.webp 1600w","type":"image/webp","sizes":"(min-width: 1600px) 1600px, 100vw"}]},"width":1600,"height":650}}}],"pageInfo":{"pageCount":3,"hasPreviousPage":true,"hasNextPage":false,"currentPage":3},"totalCount":23}},"pageContext":{"limit":10,"skip":20,"paginatePostsPage":true,"basePath":"/","services":{"algolia":false,"mailchimp":false,"disqus":false},"siteUrl":"https://labs.epi2me.io/","mobileMenu":{"title":"Topics","items":[{"name":"Announcements","slug":"/category/announcements/"},{"name":"Data Releases","slug":"/category/data-releases/"},{"name":"How Tos","slug":"/category/how-tos/"},{"name":"Software Releases","slug":"/category/software-releases/"}]},"darkMode":true}},"staticQueryHashes":["1434057858","1782572261","1992822086","2918496967","4235339838","4240507859"]}