{
    "componentChunkName": "component---packages-blog-gatsby-blog-core-src-templates-collection-category-js",
    "path": "/category/data-releases/page/2/",
    "result": {"data":{"collectionInfo":{"id":"58b638f3-37d6-5168-9ba5-086c25d57502","name":"Data Releases","slug":"/category/data-releases/","description":"Oxford Nanopore Technologies Open Data Releases"},"posts":{"nodes":[{"id":"a7f00d96-12b9-5e09-a6dc-1c726cc7c1dd","title":"November 2020 GM24385 Dataset Release","slug":"/gm24385_2020.11/","link":null,"excerpt":"The data referenced in this page have been superceded by the  June 2021  Guppy 5 rebasecalling We…","timeToRead":1,"featured":null,"thumbnailText":null,"date":"November 26, 2020","category":{"id":"58b638f3-37d6-5168-9ba5-086c25d57502","name":"Data Releases","slug":"/category/data-releases/","color":"#5fB8B1","icon":"/static/80e98fdc1b4550a2b9670e9dfc2e4f68/datareleases.svg"},"author":null,"thumbnail":null},{"id":"ecffa5ca-06f7-51b6-8e79-a5886772c914","title":"Bonito basecalling with R9.4.1","slug":"/bonito/","link":null,"excerpt":"Updated 2020-10-30: This page was edited to reflect the formal release of Bonito v0.3.0 We are…","timeToRead":1,"featured":null,"thumbnailText":null,"date":"October 15, 2020","category":{"id":"58b638f3-37d6-5168-9ba5-086c25d57502","name":"Data Releases","slug":"/category/data-releases/","color":"#5fB8B1","icon":"/static/80e98fdc1b4550a2b9670e9dfc2e4f68/datareleases.svg"},"author":null,"thumbnail":null},{"id":"59760ff5-c4a6-5c2c-8e38-e43f2f88c64d","title":"Small variant calling with GM24385","slug":"/gm24385_snp/","link":null,"excerpt":"In this blog post we will explore small variant calling using the  previously\nreleased  HG002 (GM…","timeToRead":3,"featured":null,"thumbnailText":null,"date":"October 15, 2020","category":{"id":"58b638f3-37d6-5168-9ba5-086c25d57502","name":"Data Releases","slug":"/category/data-releases/","color":"#5fB8B1","icon":"/static/80e98fdc1b4550a2b9670e9dfc2e4f68/datareleases.svg"},"author":null,"thumbnail":null},{"id":"ee749c0f-dc51-52e1-8d91-7d2c63791794","title":"Katuali analysis pipeline for preparing human datasets","slug":"/katuali_human_pipeline/","link":null,"excerpt":"Our recent  GM24385 data release  contains data from multiple\nflowcells and analytes for both the R…","timeToRead":4,"featured":null,"thumbnailText":null,"date":"September 22, 2020","category":{"id":"58b638f3-37d6-5168-9ba5-086c25d57502","name":"Data Releases","slug":"/category/data-releases/","color":"#5fB8B1","icon":"/static/80e98fdc1b4550a2b9670e9dfc2e4f68/datareleases.svg"},"author":null,"thumbnail":null},{"id":"d24f972f-f52f-57ed-9b9d-7ecfb8d363ed","title":"GM24385 Dataset Release","slug":"/gm24385_2020.09/","link":null,"excerpt":"The R9.4.1 data referenced in this page have been superceded by the  June 2021  Guppy…","timeToRead":1,"featured":null,"thumbnailText":null,"date":"September 22, 2020","category":{"id":"58b638f3-37d6-5168-9ba5-086c25d57502","name":"Data Releases","slug":"/category/data-releases/","color":"#5fB8B1","icon":"/static/80e98fdc1b4550a2b9670e9dfc2e4f68/datareleases.svg"},"author":null,"thumbnail":null},{"id":"7c9202e2-115b-5a51-a034-88eacb6ead18","title":"ONT Open Datasets Tutorials","slug":"/tutorials/","link":null,"excerpt":"Below you will find helpful information and links out to tutorials for\ndatasets within the Open…","timeToRead":1,"featured":null,"thumbnailText":null,"date":"September 22, 2020","category":{"id":"58b638f3-37d6-5168-9ba5-086c25d57502","name":"Data Releases","slug":"/category/data-releases/","color":"#5fB8B1","icon":"/static/80e98fdc1b4550a2b9670e9dfc2e4f68/datareleases.svg"},"author":null,"thumbnail":null}],"pageInfo":{"pageCount":3,"hasPreviousPage":true,"hasNextPage":true,"currentPage":2},"totalCount":13}},"pageContext":{"slug":"/category/data-releases/","limit":6,"skip":6,"collectionType":"category","paginatePostsPage":true,"basePath":"/","services":{"algolia":true,"mailchimp":false,"disqus":false,"graphComment":false,"facebookComment":false},"siteUrl":"https://labs.epi2me.io","mobileMenu":{"title":"Topics","items":[{"name":"Announcements","slug":"/category/announcements/"},{"name":"Articles","slug":"/category/articles/"},{"name":"Data Releases","slug":"/category/data-releases/"},{"name":"How Tos","slug":"/category/how-tos/"},{"name":"Software Releases","slug":"/category/software-releases/"}]},"darkMode":true,"includeExcerpt":true,"includeTimeToRead":true,"includeTableOfContents":true,"imageQuality":75}},
    "staticQueryHashes": ["1992822086","2409295108","2893703372","3667468360"]}