{"componentChunkName":"component---packages-blog-gatsby-blog-core-src-templates-collection-tag-js","path":"/tag/datasets/page/2/","result":{"data":{"collectionInfo":{"id":"1ef6bed6-becb-59f5-b3be-6aed71fa4a56","name":"#datasets","slug":"/tag/datasets/"},"posts":{"nodes":[{"id":"48faed13-2f0e-5225-a481-1b899cc3127d","title":"Katuali analysis pipeline for preparing human datasets","slug":"/katuali_human_pipeline/","link":null,"excerpt":"Our recent  GM24385 data release  contains data from multiple\nflowcells and analytes for both the R…","timeToRead":4,"featured":null,"thumbnailText":null,"date":"September 22, 2020","category":{"id":"078c0aa2-b2d9-535e-b754-aa65c0c096d3","name":"Data Releases","slug":"/category/data-releases/","color":"#5fB8B1","icon":"/static/80e98fdc1b4550a2b9670e9dfc2e4f68/datareleases.svg"},"author":null,"thumbnail":null},{"id":"21a46d6e-a05b-5c83-a359-4c846b34a1a3","title":"GM24385 Dataset Release","slug":"/gm24385_2020.09/","link":null,"excerpt":"The R9.4.1 data referenced in this page have been superceded by the  June 2021  Guppy…","timeToRead":1,"featured":null,"thumbnailText":null,"date":"September 22, 2020","category":{"id":"078c0aa2-b2d9-535e-b754-aa65c0c096d3","name":"Data Releases","slug":"/category/data-releases/","color":"#5fB8B1","icon":"/static/80e98fdc1b4550a2b9670e9dfc2e4f68/datareleases.svg"},"author":null,"thumbnail":null}],"pageInfo":{"pageCount":2,"hasPreviousPage":true,"hasNextPage":false,"currentPage":2},"totalCount":8}},"pageContext":{"slug":"/tag/datasets/","limit":6,"skip":6,"collectionType":"tags","paginatePostsPage":true,"basePath":"/","services":{"algolia":false,"mailchimp":false,"disqus":false},"siteUrl":"https://labs.epi2me.io/","mobileMenu":{"title":"Topics","items":[{"name":"Announcements","slug":"/category/announcements/"},{"name":"Articles","slug":"/category/articles/"},{"name":"Data Releases","slug":"/category/data-releases/"},{"name":"How Tos","slug":"/category/how-tos/"},{"name":"Software Releases","slug":"/category/software-releases/"}]},"darkMode":true}},"staticQueryHashes":["1135777976","1434057858","1992822086"]}