{"componentChunkName":"component---packages-blog-gatsby-blog-core-src-templates-collection-category-js","path":"/category/data-releases/","result":{"data":{"collectionInfo":{"id":"11c2573c-4f43-5e10-848a-5bec38f4b84f","name":"Data Releases","slug":"/category/data-releases/","description":"Oxford Nanopore Technologies Open Data Releases"},"posts":{"nodes":[{"id":"1eb1b939-3197-5cc2-a7cb-58cad143956b","title":"Structural variation calling with GM24385","slug":"/gm24385_2020.11_sv/","link":null,"excerpt":"In this blog post we will explore structural variant calling using the\n recently released  HG002 (GM…","timeToRead":1,"featured":null,"thumbnailText":null,"date":"December 01, 2020","category":{"id":"11c2573c-4f43-5e10-848a-5bec38f4b84f","name":"Data Releases","slug":"/category/data-releases/","color":"#5fB8B1","icon":"/static/80e98fdc1b4550a2b9670e9dfc2e4f68/datareleases.svg"},"author":null,"thumbnail":null},{"id":"2d195425-3bbf-51c7-9da7-3aab31267df3","title":"November 2020 GM24385 Dataset Release","slug":"/gm24385_2020.11/","link":null,"excerpt":"We are happy to annouce an updated release of nanopore sequencing\nof the Genome in a Bottle sample…","timeToRead":1,"featured":null,"thumbnailText":null,"date":"November 26, 2020","category":{"id":"11c2573c-4f43-5e10-848a-5bec38f4b84f","name":"Data Releases","slug":"/category/data-releases/","color":"#5fB8B1","icon":"/static/80e98fdc1b4550a2b9670e9dfc2e4f68/datareleases.svg"},"author":null,"thumbnail":null},{"id":"6f17dec7-06a2-540a-bca3-f1d2f9d5d09b","title":"Bonito basecalling with R9.4.1","slug":"/bonito/","link":null,"excerpt":"Updated 2020-10-30: This page was edited to reflect the formal release of Bonito v0.3.0 We are…","timeToRead":1,"featured":null,"thumbnailText":null,"date":"October 15, 2020","category":{"id":"11c2573c-4f43-5e10-848a-5bec38f4b84f","name":"Data Releases","slug":"/category/data-releases/","color":"#5fB8B1","icon":"/static/80e98fdc1b4550a2b9670e9dfc2e4f68/datareleases.svg"},"author":null,"thumbnail":null},{"id":"2798707e-a906-5a4d-903f-7337f5f37f07","title":"Small variant calling with GM24385","slug":"/gm24385_snp/","link":null,"excerpt":"In this blog post we will explore small variant calling using the  previously\nreleased  HG002 (GM…","timeToRead":3,"featured":null,"thumbnailText":null,"date":"October 15, 2020","category":{"id":"11c2573c-4f43-5e10-848a-5bec38f4b84f","name":"Data Releases","slug":"/category/data-releases/","color":"#5fB8B1","icon":"/static/80e98fdc1b4550a2b9670e9dfc2e4f68/datareleases.svg"},"author":null,"thumbnail":null},{"id":"6870659b-83e9-5c1d-bcc4-9fac9af66861","title":"Katuali analysis pipeline for preparing human datasets","slug":"/katuali_human_pipeline/","link":null,"excerpt":"Our recent  GM24385 data release  contains data from multiple\nflowcells and analytes for both the R…","timeToRead":4,"featured":null,"thumbnailText":null,"date":"September 22, 2020","category":{"id":"11c2573c-4f43-5e10-848a-5bec38f4b84f","name":"Data Releases","slug":"/category/data-releases/","color":"#5fB8B1","icon":"/static/80e98fdc1b4550a2b9670e9dfc2e4f68/datareleases.svg"},"author":null,"thumbnail":null},{"id":"58c68b13-e46e-5db0-a68c-12853ba5c4ec","title":"GM24385 Dataset Release","slug":"/gm24385_2020.09/","link":null,"excerpt":"We are happy to annouce the release of a Nanopore sequencing dataset\nof the Genome in a Bottle…","timeToRead":1,"featured":null,"thumbnailText":null,"date":"September 22, 2020","category":{"id":"11c2573c-4f43-5e10-848a-5bec38f4b84f","name":"Data Releases","slug":"/category/data-releases/","color":"#5fB8B1","icon":"/static/80e98fdc1b4550a2b9670e9dfc2e4f68/datareleases.svg"},"author":null,"thumbnail":null}],"pageInfo":{"pageCount":2,"hasPreviousPage":false,"hasNextPage":true,"currentPage":1},"totalCount":8}},"pageContext":{"slug":"/category/data-releases/","limit":6,"skip":0,"collectionType":"category","paginatePostsPage":true,"basePath":"/","services":{"algolia":false,"mailchimp":false,"disqus":false},"siteUrl":"https://labs.epi2me.io/","mobileMenu":{"title":"Topics","items":[{"name":"Announcements","slug":"/category/announcements/"},{"name":"Data Releases","slug":"/category/data-releases/"},{"name":"How Tos","slug":"/category/how-tos/"},{"name":"Software Releases","slug":"/category/software-releases/"}]},"darkMode":true}},"staticQueryHashes":["1434057858","1992822086"]}