{
    "componentChunkName": "component---packages-blog-gatsby-blog-core-src-templates-collection-tag-js",
    "path": "/tag/workflows/",
    "result": {"data":{"collectionInfo":{"id":"ea74bf4b-1ce4-59ab-b5e8-d34c76cb845b","name":"#workflows","slug":"/tag/workflows/"},"posts":{"nodes":[{"id":"db58f724-6ab9-52fb-be9f-18a93d65ce3c","title":"EPI2ME Labs 22.07.02 Release","slug":"/epi2me-labs-22.07.02-release/","link":null,"excerpt":"Dear Nanopore Community, Our workflow for SARS-CoV-2 genome analysis,  wf-artic , has been updated…","timeToRead":1,"featured":null,"thumbnailText":null,"date":"July 27, 2022","category":{"id":"813445e5-a76d-5747-bc55-c6bc78869edd","name":"Software Releases","slug":"/category/software-releases/","color":"#17BB75","icon":"/static/a7c604050eccf560e4c0749d79c6866b/softwarereleases.svg"},"author":{"id":"7c0504da-2830-5f14-bb2c-f4e711b317f7","name":"Stephen Rudd","slug":"/author/stephen-rudd/","title":"Bioinformatics product manager","description":"I engage with Oxford Nanopore Technologies' customers to understand their needs and turn these into EPI2ME Labs products.","skills":["Bioinformatics","Product Management"],"social":null,"thumbnail":{"__typename":"ImageSharp","ImageSharp_small":{"layout":"fixed","placeholder":{"fallback":"data:image/svg+xml,%3csvg%20xmlns='http://www.w3.org/2000/svg'%20width='48'%20height='48'%20viewBox='0%200%2048%2048'%20preserveAspectRatio='none'%3e%3cpath%20d='M33%2026v2l-2%201-1%203h1c3-4%206%204%203%208-1%201-1%201-1-1s-4-7-4-5-2%203-4%201c-1-2-3%201-3%205%201%203%201%204-1%203v2c3%203%204%203%204-1v-1h2v1l2%203c2%201%202%201%202-1-1-4%200-7%201-4%202%205%204%201%204-7%200-4%201-4%203-3h4l-4-2-3-4c-1-3-3-3-3%200'%20fill='%23d3d3d3'%20fill-rule='evenodd'/%3e%3c/svg%3e"},"images":{"fallback":{"src":"/static/22bac10296ba647ce8895d4edf886f0f/a7a66/stephen-rudd.png","srcSet":"/static/22bac10296ba647ce8895d4edf886f0f/a7a66/stephen-rudd.png 48w,\n/static/22bac10296ba647ce8895d4edf886f0f/416a0/stephen-rudd.png 96w","sizes":"48px"},"sources":[{"srcSet":"/static/22bac10296ba647ce8895d4edf886f0f/a3542/stephen-rudd.webp 48w,\n/static/22bac10296ba647ce8895d4edf886f0f/0f66d/stephen-rudd.webp 96w","type":"image/webp","sizes":"48px"}]},"width":48,"height":48},"ImageSharp_regular":{"layout":"fixed","placeholder":{"fallback":"data:image/svg+xml,%3csvg%20xmlns='http://www.w3.org/2000/svg'%20width='48'%20height='48'%20viewBox='0%200%2048%2048'%20preserveAspectRatio='none'%3e%3cpath%20d='M33%2026v2l-2%201-1%203h1c3-4%206%204%203%208-1%201-1%201-1-1s-4-7-4-5-2%203-4%201c-1-2-3%201-3%205%201%203%201%204-1%203v2c3%203%204%203%204-1v-1h2v1l2%203c2%201%202%201%202-1-1-4%200-7%201-4%202%205%204%201%204-7%200-4%201-4%203-3h4l-4-2-3-4c-1-3-3-3-3%200'%20fill='%23d3d3d3'%20fill-rule='evenodd'/%3e%3c/svg%3e"},"images":{"fallback":{"src":"/static/22bac10296ba647ce8895d4edf886f0f/46e60/stephen-rudd.png","srcSet":"/static/22bac10296ba647ce8895d4edf886f0f/46e60/stephen-rudd.png 150w,\n/static/22bac10296ba647ce8895d4edf886f0f/d612b/stephen-rudd.png 300w","sizes":"150px"},"sources":[{"srcSet":"/static/22bac10296ba647ce8895d4edf886f0f/ae23d/stephen-rudd.webp 150w,\n/static/22bac10296ba647ce8895d4edf886f0f/bd37b/stephen-rudd.webp 300w","type":"image/webp","sizes":"150px"}]},"width":150,"height":150}}},"thumbnail":null},{"id":"ea25aece-b8cb-5078-b931-fa66f0d52b6e","title":"EPI2ME Labs 22.07.01 Release","slug":"/epi2me-labs-22.07.01-release/","link":null,"excerpt":"Dear Nanopore Community We are pleased to release a collection of EPI2ME Labs updates that include…","timeToRead":2,"featured":null,"thumbnailText":null,"date":"July 13, 2022","category":{"id":"813445e5-a76d-5747-bc55-c6bc78869edd","name":"Software Releases","slug":"/category/software-releases/","color":"#17BB75","icon":"/static/a7c604050eccf560e4c0749d79c6866b/softwarereleases.svg"},"author":{"id":"7c0504da-2830-5f14-bb2c-f4e711b317f7","name":"Stephen Rudd","slug":"/author/stephen-rudd/","title":"Bioinformatics product manager","description":"I engage with Oxford Nanopore Technologies' customers to understand their needs and turn these into EPI2ME Labs products.","skills":["Bioinformatics","Product Management"],"social":null,"thumbnail":{"__typename":"ImageSharp","ImageSharp_small":{"layout":"fixed","placeholder":{"fallback":"data:image/svg+xml,%3csvg%20xmlns='http://www.w3.org/2000/svg'%20width='48'%20height='48'%20viewBox='0%200%2048%2048'%20preserveAspectRatio='none'%3e%3cpath%20d='M33%2026v2l-2%201-1%203h1c3-4%206%204%203%208-1%201-1%201-1-1s-4-7-4-5-2%203-4%201c-1-2-3%201-3%205%201%203%201%204-1%203v2c3%203%204%203%204-1v-1h2v1l2%203c2%201%202%201%202-1-1-4%200-7%201-4%202%205%204%201%204-7%200-4%201-4%203-3h4l-4-2-3-4c-1-3-3-3-3%200'%20fill='%23d3d3d3'%20fill-rule='evenodd'/%3e%3c/svg%3e"},"images":{"fallback":{"src":"/static/22bac10296ba647ce8895d4edf886f0f/a7a66/stephen-rudd.png","srcSet":"/static/22bac10296ba647ce8895d4edf886f0f/a7a66/stephen-rudd.png 48w,\n/static/22bac10296ba647ce8895d4edf886f0f/416a0/stephen-rudd.png 96w","sizes":"48px"},"sources":[{"srcSet":"/static/22bac10296ba647ce8895d4edf886f0f/a3542/stephen-rudd.webp 48w,\n/static/22bac10296ba647ce8895d4edf886f0f/0f66d/stephen-rudd.webp 96w","type":"image/webp","sizes":"48px"}]},"width":48,"height":48},"ImageSharp_regular":{"layout":"fixed","placeholder":{"fallback":"data:image/svg+xml,%3csvg%20xmlns='http://www.w3.org/2000/svg'%20width='48'%20height='48'%20viewBox='0%200%2048%2048'%20preserveAspectRatio='none'%3e%3cpath%20d='M33%2026v2l-2%201-1%203h1c3-4%206%204%203%208-1%201-1%201-1-1s-4-7-4-5-2%203-4%201c-1-2-3%201-3%205%201%203%201%204-1%203v2c3%203%204%203%204-1v-1h2v1l2%203c2%201%202%201%202-1-1-4%200-7%201-4%202%205%204%201%204-7%200-4%201-4%203-3h4l-4-2-3-4c-1-3-3-3-3%200'%20fill='%23d3d3d3'%20fill-rule='evenodd'/%3e%3c/svg%3e"},"images":{"fallback":{"src":"/static/22bac10296ba647ce8895d4edf886f0f/46e60/stephen-rudd.png","srcSet":"/static/22bac10296ba647ce8895d4edf886f0f/46e60/stephen-rudd.png 150w,\n/static/22bac10296ba647ce8895d4edf886f0f/d612b/stephen-rudd.png 300w","sizes":"150px"},"sources":[{"srcSet":"/static/22bac10296ba647ce8895d4edf886f0f/ae23d/stephen-rudd.webp 150w,\n/static/22bac10296ba647ce8895d4edf886f0f/bd37b/stephen-rudd.webp 300w","type":"image/webp","sizes":"150px"}]},"width":150,"height":150}}},"thumbnail":null},{"id":"748536d9-841a-58d7-b67e-e1d90e545f04","title":"Monkeypox Workflow","slug":"/basic-monkeypox-workflow/","link":null,"excerpt":"Monkeypox (MPX) is a double-stranded DNA virus. There is an ongoing outbreak of the West African…","timeToRead":2,"featured":null,"thumbnailText":null,"date":"June 01, 2022","category":{"id":"c2018669-f02b-52f9-ad11-f6276eaff9f6","name":"How Tos","slug":"/category/how-tos/","color":"#B8E986","icon":"/static/7259c9d3481cdab1f093943d7d0bc600/how-tos.svg"},"author":{"id":"dd631256-080f-5d04-8609-031c7d6fe57b","name":"Matt Parker","slug":"/author/matt-parker/","title":"Clinical Bioinformatics Lead","description":"I focus on bioinformatics workflows for clinical applications, ensuring our workflows meet relevant standards.","skills":["Bioinformatics","Clinical Workflows"],"social":null,"thumbnail":{"__typename":"ImageSharp","ImageSharp_small":{"layout":"fixed","placeholder":{"fallback":"data:image/svg+xml,%3csvg%20xmlns='http://www.w3.org/2000/svg'%20width='48'%20height='48'%20viewBox='0%200%2048%2048'%20preserveAspectRatio='none'%3e%3cpath%20d='M21%2012l-4%202c-3%200-3%200-1%201l3%201%209%201%206%201h10c1-2%200-2-1-3l-4-1h-4c-1%202-6%201-7-1l-7-1m-9%209c2%2011%203%2014%208%2019%202%203%204%204%206%204%203%200%203%200%203%202-1%202%200%202%209%202%2010%200%2011-1%208-3-1-2-1-2%201-2s-1-2-5-2c-3-1-4-1-4-3%202-3%202-8%202-7-1%201-2%200-4-2-1-1-2-2-3-1h-3l-5%203-3%203-3-2c-3-3-5-9-5-13l-1-4-1%206'%20fill='%23d3d3d3'%20fill-rule='evenodd'/%3e%3c/svg%3e"},"images":{"fallback":{"src":"/static/e960a5c57f72b84c747215e272cc480e/a7a66/matt-parker.png","srcSet":"/static/e960a5c57f72b84c747215e272cc480e/a7a66/matt-parker.png 48w,\n/static/e960a5c57f72b84c747215e272cc480e/416a0/matt-parker.png 96w","sizes":"48px"},"sources":[{"srcSet":"/static/e960a5c57f72b84c747215e272cc480e/a3542/matt-parker.webp 48w,\n/static/e960a5c57f72b84c747215e272cc480e/0f66d/matt-parker.webp 96w","type":"image/webp","sizes":"48px"}]},"width":48,"height":48},"ImageSharp_regular":{"layout":"fixed","placeholder":{"fallback":"data:image/svg+xml,%3csvg%20xmlns='http://www.w3.org/2000/svg'%20width='48'%20height='48'%20viewBox='0%200%2048%2048'%20preserveAspectRatio='none'%3e%3cpath%20d='M21%2012l-4%202c-3%200-3%200-1%201l3%201%209%201%206%201h10c1-2%200-2-1-3l-4-1h-4c-1%202-6%201-7-1l-7-1m-9%209c2%2011%203%2014%208%2019%202%203%204%204%206%204%203%200%203%200%203%202-1%202%200%202%209%202%2010%200%2011-1%208-3-1-2-1-2%201-2s-1-2-5-2c-3-1-4-1-4-3%202-3%202-8%202-7-1%201-2%200-4-2-1-1-2-2-3-1h-3l-5%203-3%203-3-2c-3-3-5-9-5-13l-1-4-1%206'%20fill='%23d3d3d3'%20fill-rule='evenodd'/%3e%3c/svg%3e"},"images":{"fallback":{"src":"/static/e960a5c57f72b84c747215e272cc480e/46e60/matt-parker.png","srcSet":"/static/e960a5c57f72b84c747215e272cc480e/46e60/matt-parker.png 150w,\n/static/e960a5c57f72b84c747215e272cc480e/d612b/matt-parker.png 300w","sizes":"150px"},"sources":[{"srcSet":"/static/e960a5c57f72b84c747215e272cc480e/ae23d/matt-parker.webp 150w,\n/static/e960a5c57f72b84c747215e272cc480e/bd37b/matt-parker.webp 300w","type":"image/webp","sizes":"150px"}]},"width":150,"height":150}}},"thumbnail":{"__typename":"ImageSharp","ImageSharp_vertical":{"layout":"constrained","backgroundColor":"#284868","images":{"fallback":{"src":"/static/ba3161227865caebdbeca546d6284ee2/144fe/AdobeStock_506172741.jpg","srcSet":"/static/ba3161227865caebdbeca546d6284ee2/9d7b9/AdobeStock_506172741.jpg 190w,\n/static/ba3161227865caebdbeca546d6284ee2/144fe/AdobeStock_506172741.jpg 380w","sizes":"(min-width: 380px) 380px, 100vw"},"sources":[{"srcSet":"/static/ba3161227865caebdbeca546d6284ee2/228d6/AdobeStock_506172741.webp 190w,\n/static/ba3161227865caebdbeca546d6284ee2/6b99c/AdobeStock_506172741.webp 380w","type":"image/webp","sizes":"(min-width: 380px) 380px, 100vw"}]},"width":380,"height":290},"ImageSharp_hero":{"layout":"constrained","backgroundColor":"#284868","images":{"fallback":{"src":"/static/ba3161227865caebdbeca546d6284ee2/5e493/AdobeStock_506172741.jpg","srcSet":"/static/ba3161227865caebdbeca546d6284ee2/696c0/AdobeStock_506172741.jpg 800w,\n/static/ba3161227865caebdbeca546d6284ee2/5e493/AdobeStock_506172741.jpg 1600w","sizes":"(min-width: 1600px) 1600px, 100vw"},"sources":[{"srcSet":"/static/ba3161227865caebdbeca546d6284ee2/c9f06/AdobeStock_506172741.webp 800w,\n/static/ba3161227865caebdbeca546d6284ee2/f47df/AdobeStock_506172741.webp 1600w","type":"image/webp","sizes":"(min-width: 1600px) 1600px, 100vw"}]},"width":1600,"height":650}}},{"id":"852d15b9-7cd8-5c20-9554-1801226d8f37","title":"EPI2ME Labs 22.06.01 Release","slug":"/epi2me-labs-22.06.01-release/","link":null,"excerpt":"Dear Nanopore Community, We are pleased to release a new infectious diseases workflow and a…","timeToRead":1,"featured":null,"thumbnailText":null,"date":"June 01, 2022","category":{"id":"813445e5-a76d-5747-bc55-c6bc78869edd","name":"Software Releases","slug":"/category/software-releases/","color":"#17BB75","icon":"/static/a7c604050eccf560e4c0749d79c6866b/softwarereleases.svg"},"author":{"id":"7c0504da-2830-5f14-bb2c-f4e711b317f7","name":"Stephen Rudd","slug":"/author/stephen-rudd/","title":"Bioinformatics product manager","description":"I engage with Oxford Nanopore Technologies' customers to understand their needs and turn these into EPI2ME Labs products.","skills":["Bioinformatics","Product Management"],"social":null,"thumbnail":{"__typename":"ImageSharp","ImageSharp_small":{"layout":"fixed","placeholder":{"fallback":"data:image/svg+xml,%3csvg%20xmlns='http://www.w3.org/2000/svg'%20width='48'%20height='48'%20viewBox='0%200%2048%2048'%20preserveAspectRatio='none'%3e%3cpath%20d='M33%2026v2l-2%201-1%203h1c3-4%206%204%203%208-1%201-1%201-1-1s-4-7-4-5-2%203-4%201c-1-2-3%201-3%205%201%203%201%204-1%203v2c3%203%204%203%204-1v-1h2v1l2%203c2%201%202%201%202-1-1-4%200-7%201-4%202%205%204%201%204-7%200-4%201-4%203-3h4l-4-2-3-4c-1-3-3-3-3%200'%20fill='%23d3d3d3'%20fill-rule='evenodd'/%3e%3c/svg%3e"},"images":{"fallback":{"src":"/static/22bac10296ba647ce8895d4edf886f0f/a7a66/stephen-rudd.png","srcSet":"/static/22bac10296ba647ce8895d4edf886f0f/a7a66/stephen-rudd.png 48w,\n/static/22bac10296ba647ce8895d4edf886f0f/416a0/stephen-rudd.png 96w","sizes":"48px"},"sources":[{"srcSet":"/static/22bac10296ba647ce8895d4edf886f0f/a3542/stephen-rudd.webp 48w,\n/static/22bac10296ba647ce8895d4edf886f0f/0f66d/stephen-rudd.webp 96w","type":"image/webp","sizes":"48px"}]},"width":48,"height":48},"ImageSharp_regular":{"layout":"fixed","placeholder":{"fallback":"data:image/svg+xml,%3csvg%20xmlns='http://www.w3.org/2000/svg'%20width='48'%20height='48'%20viewBox='0%200%2048%2048'%20preserveAspectRatio='none'%3e%3cpath%20d='M33%2026v2l-2%201-1%203h1c3-4%206%204%203%208-1%201-1%201-1-1s-4-7-4-5-2%203-4%201c-1-2-3%201-3%205%201%203%201%204-1%203v2c3%203%204%203%204-1v-1h2v1l2%203c2%201%202%201%202-1-1-4%200-7%201-4%202%205%204%201%204-7%200-4%201-4%203-3h4l-4-2-3-4c-1-3-3-3-3%200'%20fill='%23d3d3d3'%20fill-rule='evenodd'/%3e%3c/svg%3e"},"images":{"fallback":{"src":"/static/22bac10296ba647ce8895d4edf886f0f/46e60/stephen-rudd.png","srcSet":"/static/22bac10296ba647ce8895d4edf886f0f/46e60/stephen-rudd.png 150w,\n/static/22bac10296ba647ce8895d4edf886f0f/d612b/stephen-rudd.png 300w","sizes":"150px"},"sources":[{"srcSet":"/static/22bac10296ba647ce8895d4edf886f0f/ae23d/stephen-rudd.webp 150w,\n/static/22bac10296ba647ce8895d4edf886f0f/bd37b/stephen-rudd.webp 300w","type":"image/webp","sizes":"150px"}]},"width":150,"height":150}}},"thumbnail":null},{"id":"7e6ba033-0855-567b-ad62-f655348bc18a","title":"EPI2ME Labs 22.05.01 Release","slug":"/epi2me-labs-22.05.01-release/","link":null,"excerpt":"Dear Nanopore Community, We are pleased to release a new version of the EPI2ME Labs software that…","timeToRead":2,"featured":null,"thumbnailText":null,"date":"May 04, 2022","category":{"id":"813445e5-a76d-5747-bc55-c6bc78869edd","name":"Software Releases","slug":"/category/software-releases/","color":"#17BB75","icon":"/static/a7c604050eccf560e4c0749d79c6866b/softwarereleases.svg"},"author":{"id":"7c0504da-2830-5f14-bb2c-f4e711b317f7","name":"Stephen Rudd","slug":"/author/stephen-rudd/","title":"Bioinformatics product manager","description":"I engage with Oxford Nanopore Technologies' customers to understand their needs and turn these into EPI2ME Labs products.","skills":["Bioinformatics","Product Management"],"social":null,"thumbnail":{"__typename":"ImageSharp","ImageSharp_small":{"layout":"fixed","placeholder":{"fallback":"data:image/svg+xml,%3csvg%20xmlns='http://www.w3.org/2000/svg'%20width='48'%20height='48'%20viewBox='0%200%2048%2048'%20preserveAspectRatio='none'%3e%3cpath%20d='M33%2026v2l-2%201-1%203h1c3-4%206%204%203%208-1%201-1%201-1-1s-4-7-4-5-2%203-4%201c-1-2-3%201-3%205%201%203%201%204-1%203v2c3%203%204%203%204-1v-1h2v1l2%203c2%201%202%201%202-1-1-4%200-7%201-4%202%205%204%201%204-7%200-4%201-4%203-3h4l-4-2-3-4c-1-3-3-3-3%200'%20fill='%23d3d3d3'%20fill-rule='evenodd'/%3e%3c/svg%3e"},"images":{"fallback":{"src":"/static/22bac10296ba647ce8895d4edf886f0f/a7a66/stephen-rudd.png","srcSet":"/static/22bac10296ba647ce8895d4edf886f0f/a7a66/stephen-rudd.png 48w,\n/static/22bac10296ba647ce8895d4edf886f0f/416a0/stephen-rudd.png 96w","sizes":"48px"},"sources":[{"srcSet":"/static/22bac10296ba647ce8895d4edf886f0f/a3542/stephen-rudd.webp 48w,\n/static/22bac10296ba647ce8895d4edf886f0f/0f66d/stephen-rudd.webp 96w","type":"image/webp","sizes":"48px"}]},"width":48,"height":48},"ImageSharp_regular":{"layout":"fixed","placeholder":{"fallback":"data:image/svg+xml,%3csvg%20xmlns='http://www.w3.org/2000/svg'%20width='48'%20height='48'%20viewBox='0%200%2048%2048'%20preserveAspectRatio='none'%3e%3cpath%20d='M33%2026v2l-2%201-1%203h1c3-4%206%204%203%208-1%201-1%201-1-1s-4-7-4-5-2%203-4%201c-1-2-3%201-3%205%201%203%201%204-1%203v2c3%203%204%203%204-1v-1h2v1l2%203c2%201%202%201%202-1-1-4%200-7%201-4%202%205%204%201%204-7%200-4%201-4%203-3h4l-4-2-3-4c-1-3-3-3-3%200'%20fill='%23d3d3d3'%20fill-rule='evenodd'/%3e%3c/svg%3e"},"images":{"fallback":{"src":"/static/22bac10296ba647ce8895d4edf886f0f/46e60/stephen-rudd.png","srcSet":"/static/22bac10296ba647ce8895d4edf886f0f/46e60/stephen-rudd.png 150w,\n/static/22bac10296ba647ce8895d4edf886f0f/d612b/stephen-rudd.png 300w","sizes":"150px"},"sources":[{"srcSet":"/static/22bac10296ba647ce8895d4edf886f0f/ae23d/stephen-rudd.webp 150w,\n/static/22bac10296ba647ce8895d4edf886f0f/bd37b/stephen-rudd.webp 300w","type":"image/webp","sizes":"150px"}]},"width":150,"height":150}}},"thumbnail":null},{"id":"865abef9-98e6-57cd-9297-e659656a0710","title":"SARS-CoV-2 Midnight Scheme Update","slug":"/ont-midnight-scheme-update/","link":null,"excerpt":"Introduction This blog post will explain the changes we are making to the primer scheme naming in…","timeToRead":3,"featured":null,"thumbnailText":null,"date":"April 15, 2022","category":{"id":"c2018669-f02b-52f9-ad11-f6276eaff9f6","name":"How Tos","slug":"/category/how-tos/","color":"#B8E986","icon":"/static/7259c9d3481cdab1f093943d7d0bc600/how-tos.svg"},"author":{"id":"dd631256-080f-5d04-8609-031c7d6fe57b","name":"Matt Parker","slug":"/author/matt-parker/","title":"Clinical Bioinformatics Lead","description":"I focus on bioinformatics workflows for clinical applications, ensuring our workflows meet relevant standards.","skills":["Bioinformatics","Clinical Workflows"],"social":null,"thumbnail":{"__typename":"ImageSharp","ImageSharp_small":{"layout":"fixed","placeholder":{"fallback":"data:image/svg+xml,%3csvg%20xmlns='http://www.w3.org/2000/svg'%20width='48'%20height='48'%20viewBox='0%200%2048%2048'%20preserveAspectRatio='none'%3e%3cpath%20d='M21%2012l-4%202c-3%200-3%200-1%201l3%201%209%201%206%201h10c1-2%200-2-1-3l-4-1h-4c-1%202-6%201-7-1l-7-1m-9%209c2%2011%203%2014%208%2019%202%203%204%204%206%204%203%200%203%200%203%202-1%202%200%202%209%202%2010%200%2011-1%208-3-1-2-1-2%201-2s-1-2-5-2c-3-1-4-1-4-3%202-3%202-8%202-7-1%201-2%200-4-2-1-1-2-2-3-1h-3l-5%203-3%203-3-2c-3-3-5-9-5-13l-1-4-1%206'%20fill='%23d3d3d3'%20fill-rule='evenodd'/%3e%3c/svg%3e"},"images":{"fallback":{"src":"/static/e960a5c57f72b84c747215e272cc480e/a7a66/matt-parker.png","srcSet":"/static/e960a5c57f72b84c747215e272cc480e/a7a66/matt-parker.png 48w,\n/static/e960a5c57f72b84c747215e272cc480e/416a0/matt-parker.png 96w","sizes":"48px"},"sources":[{"srcSet":"/static/e960a5c57f72b84c747215e272cc480e/a3542/matt-parker.webp 48w,\n/static/e960a5c57f72b84c747215e272cc480e/0f66d/matt-parker.webp 96w","type":"image/webp","sizes":"48px"}]},"width":48,"height":48},"ImageSharp_regular":{"layout":"fixed","placeholder":{"fallback":"data:image/svg+xml,%3csvg%20xmlns='http://www.w3.org/2000/svg'%20width='48'%20height='48'%20viewBox='0%200%2048%2048'%20preserveAspectRatio='none'%3e%3cpath%20d='M21%2012l-4%202c-3%200-3%200-1%201l3%201%209%201%206%201h10c1-2%200-2-1-3l-4-1h-4c-1%202-6%201-7-1l-7-1m-9%209c2%2011%203%2014%208%2019%202%203%204%204%206%204%203%200%203%200%203%202-1%202%200%202%209%202%2010%200%2011-1%208-3-1-2-1-2%201-2s-1-2-5-2c-3-1-4-1-4-3%202-3%202-8%202-7-1%201-2%200-4-2-1-1-2-2-3-1h-3l-5%203-3%203-3-2c-3-3-5-9-5-13l-1-4-1%206'%20fill='%23d3d3d3'%20fill-rule='evenodd'/%3e%3c/svg%3e"},"images":{"fallback":{"src":"/static/e960a5c57f72b84c747215e272cc480e/46e60/matt-parker.png","srcSet":"/static/e960a5c57f72b84c747215e272cc480e/46e60/matt-parker.png 150w,\n/static/e960a5c57f72b84c747215e272cc480e/d612b/matt-parker.png 300w","sizes":"150px"},"sources":[{"srcSet":"/static/e960a5c57f72b84c747215e272cc480e/ae23d/matt-parker.webp 150w,\n/static/e960a5c57f72b84c747215e272cc480e/bd37b/matt-parker.webp 300w","type":"image/webp","sizes":"150px"}]},"width":150,"height":150}}},"thumbnail":null}],"pageInfo":{"pageCount":4,"hasPreviousPage":false,"hasNextPage":true,"currentPage":1},"totalCount":23}},"pageContext":{"slug":"/tag/workflows/","limit":6,"skip":0,"collectionType":"tags","paginatePostsPage":true,"basePath":"/","services":{"algolia":true,"mailchimp":false,"disqus":false,"graphComment":false,"facebookComment":false},"siteUrl":"https://labs.epi2me.io","mobileMenu":{"title":"Topics","items":[{"name":"Announcements","slug":"/category/announcements/"},{"name":"Articles","slug":"/category/articles/"},{"name":"Data Releases","slug":"/category/data-releases/"},{"name":"How Tos","slug":"/category/how-tos/"},{"name":"Software Releases","slug":"/category/software-releases/"}]},"darkMode":true,"includeExcerpt":true,"includeTimeToRead":true,"includeTableOfContents":true,"imageQuality":75}},
    "staticQueryHashes": ["1992822086","2409295108","2893703372","3667468360"]}